<svg width="24" height="24" viewBox="0 0 24 24" fill="none" xmlns="http://www.w3.org/2000/svg">
<path fill-rule="evenodd" clip-rule="evenodd" d="M20.4853 20.4853C25.1716 15.799 25.1716 8.20101 20.4853 3.51472C15.799 -1.17157 8.20102 -1.17157 3.51473 3.51472C-1.17156 8.20101 -1.17156 15.799 3.51473 20.4853C8.20102 25.1716 15.799 25.1716 20.4853 20.4853ZM6.50004 13.25C6.2239 13.25 6.00004 13.0261 6.00004 12.75V11.25C6.00004 10.9738 6.2239 10.75 6.50004 10.75L10.75 10.75L10.75 6.49997C10.75 6.22383 10.9739 5.99997 11.25 5.99997L12.75 5.99997C13.0262 5.99997 13.25 6.22383 13.25 6.49997L13.25 10.75L17.5 10.75C17.7762 10.75 18 10.9738 18 11.25V12.75C18 13.0261 17.7762 13.25 17.5 13.25L13.25 13.25L13.25 17.5C13.25 17.7761 13.0262 18 12.75 18L11.25 18C10.9739 18 10.75 17.7761 10.75 17.5L10.75 13.25L6.50004 13.25Z" fill="#004152"/>
</svg>
