<svg width="24" height="24" viewBox="0 0 24 24" fill="none" xmlns="http://www.w3.org/2000/svg">
<path fill-rule="evenodd" clip-rule="evenodd" d="M20.4853 20.4853C25.1716 15.799 25.1716 8.20101 20.4853 3.51472C15.799 -1.17157 8.20102 -1.17157 3.51473 3.51472C-1.17156 8.20101 -1.17156 15.799 3.51473 20.4853C8.20102 25.1716 15.799 25.1716 20.4853 20.4853ZM6.00004 12.75C6.00004 13.0261 6.2239 13.25 6.50004 13.25L17.5 13.25C17.7762 13.25 18 13.0261 18 12.75V11.25C18 10.9738 17.7762 10.75 17.5 10.75L6.50004 10.75C6.2239 10.75 6.00004 10.9738 6.00004 11.25V12.75Z" fill="#004152"/>
</svg>
