<svg width="24" height="24" viewBox="0 0 24 24" fill="none" xmlns="http://www.w3.org/2000/svg">
<path d="M0 11C0 10.4477 0.447715 10 1 10H23C23.5523 10 24 10.4477 24 11V13C24 13.5523 23.5523 14 23 14H1C0.447716 14 0 13.5523 0 13V11Z" fill="#004152"/>
</svg>
