<svg width="12" height="12" viewBox="0 0 12 12" fill="none" xmlns="http://www.w3.org/2000/svg">
    <path d="M4.06.148a.5.5 0 0 0-.706 0l-.708.707a.5.5 0 0 0 0 .707L7.085 6l-4.439 4.438a.5.5 0 0 0 0 .707l.708.707a.5.5 0 0 0 .707 0l5.497-5.497a.498.498 0 0 0 .147-.356.498.498 0 0 0-.147-.354L4.061.148z" fill="#004152"/>
</svg>
