<svg width="10" height="11" viewBox="0 0 10 11" fill="none" xmlns="http://www.w3.org/2000/svg">
<path d="M0.123015 7.11608C-0.0397031 7.27879 -0.039703 7.54261 0.123015 7.70533L0.712271 8.29459C0.87499 8.45731 1.13881 8.45731 1.30153 8.29459L5.00004 4.59607L8.69856 8.29458C8.86128 8.4573 9.1251 8.4573 9.28781 8.29458L9.87707 7.70533C10.0398 7.54261 10.0398 7.27879 9.87707 7.11607L5.29561 2.53461C5.21387 2.45287 5.10662 2.4122 4.9995 2.41257C4.89273 2.41248 4.78594 2.45315 4.70448 2.53461L0.123015 7.11608Z" fill="white"/>
</svg>
