<svg width="24" height="24" viewBox="0 0 24 24" fill="none" xmlns="http://www.w3.org/2000/svg">
<path d="M2.66667 9.3333C4.13943 9.3333 5.33334 10.5272 5.33334 12C5.33334 13.4727 4.13943 14.6666 2.66667 14.6666C1.19391 14.6666 0 13.4727 0 12C0 10.5272 1.19391 9.3333 2.66667 9.3333Z" fill="#004152"/>
<path d="M12 9.3333C13.4728 9.3333 14.6667 10.5272 14.6667 12C14.6667 13.4727 13.4728 14.6666 12 14.6666C10.5273 14.6666 9.33334 13.4727 9.33334 12C9.33334 10.5272 10.5273 9.3333 12 9.3333Z" fill="#004152"/>
<path d="M24 12C24 10.5272 22.8061 9.3333 21.3333 9.3333C19.8606 9.3333 18.6667 10.5272 18.6667 12C18.6667 13.4727 19.8606 14.6666 21.3333 14.6666C22.8061 14.6666 24 13.4727 24 12Z" fill="#004152"/>
</svg>
