<svg width="24" height="24" viewBox="0 0 24 24" fill="none" xmlns="http://www.w3.org/2000/svg">
<path d="M12 22.4823L11.5765 22.1294C2.47059 14.7176 0 12.1059 0 7.87058C0 4.34117 2.82353 1.51764 6.35294 1.51764C9.24706 1.51764 10.8706 3.14117 12 4.41176C13.1294 3.14117 14.7529 1.51764 17.6471 1.51764C21.1765 1.51764 24 4.34117 24 7.87058C24 12.1059 21.5294 14.7176 12.4235 22.1294L12 22.4823Z" fill="#004152"/>
</svg>
