<svg width="24" height="24" viewBox="0 0 24 24" fill="none" xmlns="http://www.w3.org/2000/svg">
<path fill-rule="evenodd" clip-rule="evenodd" d="M13.6095 21.6C13.6095 21.1875 13.4641 20.8344 13.1734 20.5406C12.8827 20.2469 12.5333 20.1 12.1251 20.1C11.7169 20.1 11.3674 20.2469 11.0767 20.5406C10.786 20.8344 10.6407 21.1875 10.6407 21.6C10.6407 22.0125 10.786 22.3656 11.0767 22.6594C11.3674 22.9531 11.7169 23.1 12.1251 23.1C12.5333 23.1 12.8827 22.9531 13.1734 22.6594C13.4641 22.3656 13.6095 22.0125 13.6095 21.6ZM17.4688 18.6V5.40001C17.4688 5.23751 17.41 5.09688 17.2925 4.97813C17.175 4.85938 17.0359 4.8 16.875 4.8H7.37508C7.21427 4.8 7.07511 4.85938 6.9576 4.97813C6.84008 5.09688 6.78131 5.23751 6.78131 5.40001V18.6C6.78131 18.7625 6.84008 18.9031 6.9576 19.0219C7.07511 19.1406 7.21427 19.2 7.37508 19.2H16.875C17.0359 19.2 17.175 19.1406 17.2925 19.0219C17.41 18.9031 17.4688 18.7625 17.4688 18.6ZM13.9063 2.7C13.9063 2.5 13.8074 2.4 13.6095 2.4H10.6407C10.4428 2.4 10.3438 2.5 10.3438 2.7C10.3438 2.90001 10.4428 3 10.6407 3H13.6095C13.8074 3 13.9063 2.90001 13.9063 2.7ZM19.2501 2.4V21.6C19.2501 22.25 19.015 22.8125 18.545 23.2875C18.0749 23.7625 17.5183 24 16.875 24H7.37508C6.73184 24 6.17521 23.7625 5.70515 23.2875C5.2351 22.8125 5.00006 22.25 5.00006 21.6V2.4C5.00006 1.74999 5.2351 1.1875 5.70515 0.712498C6.17521 0.237496 6.73184 0 7.37508 0H16.875C17.5183 0 18.0749 0.237496 18.545 0.712498C19.015 1.1875 19.2501 1.74999 19.2501 2.4Z" fill="#004152"/>
<path d="M10.2767 12C10.2767 12.4896 9.87982 12.8864 9.39024 12.8864C8.90067 12.8864 8.50378 12.4896 8.50378 12C8.50378 11.5104 8.90067 11.1135 9.39024 11.1135C9.87982 11.1135 10.2767 11.5104 10.2767 12Z" fill="#004152"/>
<path d="M12.8863 12C12.8863 12.4896 12.4894 12.8864 11.9999 12.8864C11.5103 12.8864 11.1134 12.4896 11.1134 12C11.1134 11.5104 11.5103 11.1135 11.9999 11.1135C12.4894 11.1135 12.8863 11.5104 12.8863 12Z" fill="#004152"/>
<path d="M15.4962 12C15.4962 12.4896 15.0993 12.8864 14.6097 12.8864C14.1201 12.8864 13.7233 12.4896 13.7233 12C13.7233 11.5104 14.1201 11.1135 14.6097 11.1135C15.0993 11.1135 15.4962 11.5104 15.4962 12Z" fill="#004152"/>
</svg>
