<svg width="24" height="24" viewBox="0 0 24 24" fill="none" xmlns="http://www.w3.org/2000/svg">
<path fill-rule="evenodd" clip-rule="evenodd" d="M17.9999 3H5.99989V21H17.9999V3ZM5.99989 2C5.44761 2 4.99989 2.44772 4.99989 3V21C4.99989 21.5523 5.44761 22 5.99989 22H17.9999C18.5522 22 18.9999 21.5523 18.9999 21V3C18.9999 2.44772 18.5522 2 17.9999 2H5.99989Z" fill="#004152"/>
<path fill-rule="evenodd" clip-rule="evenodd" d="M0 8C0 6.89543 0.895431 6 2 6H22C23.1046 6 24 6.89543 24 8V16C24 16.5523 23.5523 17 23 17H18V14H6V17H1C0.447716 17 0 16.5523 0 16V8ZM21.7151 9.10494C22.1569 9.10494 22.515 8.74677 22.515 8.30494C22.515 7.86312 22.1569 7.50494 21.7151 7.50494C21.2732 7.50494 20.9151 7.86312 20.9151 8.30494C20.9151 8.74677 21.2732 9.10494 21.7151 9.10494Z" fill="#004152"/>
<rect x="7.99989" y="16" width="8" height="1" rx="0.5" fill="#004152"/>
<rect x="7.99989" y="18" width="8" height="1" rx="0.5" fill="#004152"/>
</svg>
