<svg width="25" height="24" viewBox="0 0 25 24" fill="none" xmlns="http://www.w3.org/2000/svg">
<path d="M11.4577 0.239262C11.7767 -0.0797558 12.2233 -0.0797558 12.5423 0.239262L18.9227 6.6196C19.2417 6.93862 19.2417 7.44904 18.9227 7.70426L17.6466 8.98033C17.3914 9.29934 16.881 9.29934 16.5619 8.98033L13.5632 5.72635L13.5632 17.2344C13.5632 17.681 13.1804 18 12.7975 18L11.2663 18C10.8196 18 10.5006 17.681 10.5006 17.2344L10.5006 5.72635L7.43806 8.98033C7.11905 9.29934 6.60862 9.29934 6.3534 8.98033L5.07734 7.70426C4.75832 7.44904 4.75832 6.93862 5.07734 6.6196L11.4577 0.239262Z" fill="#004152"/>
<path d="M0.700001 24C0.313401 24 0 23.6866 0 23.3L0 21.64C0 21.2534 0.313401 20.94 0.7 20.94H23.3C23.6866 20.94 24 21.2534 24 21.64V23.3C24 23.6866 23.6866 24 23.3 24H0.700001Z" fill="#004152"/>
<path d="M0.700001 24C0.313401 24 0 23.6866 0 23.3L0 15.7C0 15.3134 0.313401 15 0.7 15H2.36C2.7466 15 3.06 15.3134 3.06 15.7L3.06 23.3C3.06 23.6866 2.7466 24 2.36 24H0.700001Z" fill="#004152"/>
<path d="M21.7 24C21.3134 24 21 23.6866 21 23.3V15.7C21 15.3134 21.3134 15 21.7 15H23.36C23.7466 15 24.06 15.3134 24.06 15.7V23.3C24.06 23.6866 23.7466 24 23.36 24H21.7Z" fill="#004152"/>
</svg>
