<svg width="24" height="24" viewBox="0 0 24 24" fill="none" xmlns="http://www.w3.org/2000/svg">
<path d="M0.239262 11.4576C-0.0797558 11.7766 -0.0797558 12.2233 0.239262 12.5423L6.6196 18.9226C6.93862 19.2416 7.44905 19.2416 7.70426 18.9226L8.98033 17.6465C9.29934 17.3913 9.29934 16.8809 8.98033 16.5619L5.72635 13.5631L23.2344 13.5631C23.681 13.5631 24 13.1803 24 12.7975L24 11.2662C24 10.8196 23.681 10.5006 23.2344 10.5006L5.72635 10.5006L8.98033 7.438C9.29934 7.11898 9.29934 6.60856 8.98033 6.35334L7.70426 5.07728C7.44905 4.75826 6.93862 4.75826 6.6196 5.07728L0.239262 11.4576Z" fill="#004152"/>
</svg>
