<svg width="48" height="24" viewBox="0 0 48 24" fill="none" xmlns="http://www.w3.org/2000/svg">
    <path fill-rule="evenodd" clip-rule="evenodd" d="M26.71 8.793a.387.387 0 0 0 .388-.387V5.93a.387.387 0 1 0-.774 0v2.475c0 .214.173.387.387.387zm-1.806-.008a.387.387 0 0 0 .387-.388V5.922a.387.387 0 0 0-.775 0v2.475c0 .214.174.388.388.388zm-1.807-.009a.387.387 0 0 0 .387-.387V5.914a.387.387 0 0 0-.775 0V8.39c0 .214.174.387.388.387zm-1.808-.008a.387.387 0 0 0 .388-.387V5.906a.387.387 0 0 0-.775 0V8.38c0 .213.174.387.387.387zm7.14-4.155h.176c.248 0 .435.227.388.471l-.84 4.295a.395.395 0 0 1-.387.319h-7.532a.395.395 0 0 1-.388-.32l-.838-4.294a.395.395 0 0 1 .387-.47h.167l2.841-2.842a.387.387 0 1 1 .548.548l-2.294 2.293h6.676L25.04 2.32a.387.387 0 0 1 .547-.548l2.841 2.841zm1.683 11.595s3.722 0 5.172 1.46c.73.73.73 1.461.71 2.192v1.46s-1.45.06-1.45 0h-.22c.15-.32.24-.69.24-1.07 0-1.43-1.17-2.601-2.601-2.601a2.603 2.603 0 0 0-2.602 2.6c0 .381.09.741.24 1.071H19.256c.15-.32.24-.69.24-1.07a2.602 2.602 0 1 0-4.972 1.07h-2.502c0-.08-.002-.168-.004-.262a13.311 13.311 0 0 1-.006-.338c-.03-1.37-.07-3.452.73-4.512.08-.11 1.141-.28 2.102-.43l.231-.038c.693-.114 1.272-.209 1.29-.263.72-2.19 1.45-2.921 2.17-2.921H26.5l3.612 3.652zm-12.287-.73c0 .55.73.73.73.73h3.963v-2.922h-3.962s-.73 1.761-.73 2.191zm5.533-2.192v2.922h5.383l-2.912-2.922h-2.47zm-6.463 4.853a2.1 2.1 0 1 0 0 4.202 2.1 2.1 0 0 0 0-4.202zm0 3.652c-.85 0-1.54-.69-1.54-1.551 0-.85.69-1.55 1.54-1.55.85 0 1.54.69 1.54 1.55 0 .86-.69 1.55-1.54 1.55zm15.078-3.652a2.1 2.1 0 1 0 2.1 2.1 2.107 2.107 0 0 0-2.1-2.1zm0 3.652c-.85 0-1.541-.69-1.541-1.551 0-.85.69-1.55 1.54-1.55.851 0 1.541.69 1.541 1.55 0 .86-.69 1.55-1.54 1.55z" fill="#D6DFDF"/>
    <path fill-rule="evenodd" clip-rule="evenodd" d="M29.146 6.147a.5.5 0 0 0-.707 0L24 10.586l-4.439-4.439a.5.5 0 0 0-.707 0l-.707.707a.5.5 0 0 0 0 .707L22.586 12l-4.44 4.439a.5.5 0 0 0 0 .707l.708.707a.5.5 0 0 0 .707 0L24 13.414l4.439 4.44a.5.5 0 0 0 .707 0l.707-.708a.5.5 0 0 0 0-.707L25.414 12l4.44-4.439a.5.5 0 0 0 0-.707l-.708-.707z" fill="#E5312A"/>
</svg>
