<svg width="48" height="24" viewBox="0 0 48 24" fill="none" xmlns="http://www.w3.org/2000/svg">
<path fill-rule="evenodd" clip-rule="evenodd" d="M34.6286 15.8769H36V11.7415L33.9429 8.98461H30.1622V13.9384H29.8378V8.98461H29.8286V8.29538H33.9429V6.91691C33.9429 6.22768 33.2571 5.53845 33.2571 5.53845H25.0286L22.9714 6.91691H12.6857V13.8092L12 14.4985V15.8769H14.7429C14.7429 15.8769 15.4286 13.8092 17.4857 13.8092C19.5429 13.8092 20.2286 15.8769 20.2286 15.8769H29.1429C29.8286 14.4985 30.5143 13.8092 31.8857 13.8092C33.9429 13.8092 34.6286 15.8769 34.6286 15.8769ZM20.2286 8.98463H18.1714V12.4308H20.2286V8.98463ZM25.0286 8.98463H27.7714V10.3631H25.0286V8.98463ZM33.2571 9.67385H31.8857V11.7415H34.6286L33.2571 9.67385ZM15.4286 16.421C15.4286 17.548 16.3496 18.4615 17.4857 18.4615C18.6218 18.4615 19.5428 17.548 19.5428 16.421C19.5428 15.2941 18.6218 14.3805 17.4857 14.3805C16.3496 14.3805 15.4286 15.2941 15.4286 16.421ZM19.0211 16.421C19.0211 17.2626 18.3336 17.9446 17.4857 17.9446C16.6379 17.9446 15.9503 17.2626 15.9503 16.421C15.9503 15.5795 16.6379 14.8975 17.4857 14.8975C18.3336 14.8975 19.0211 15.5795 19.0211 16.421ZM29.8286 16.421C29.8286 17.548 30.7496 18.4615 31.8857 18.4615C33.0218 18.4615 33.9429 17.548 33.9429 16.421C33.9429 15.2941 33.0218 14.3805 31.8857 14.3805C30.7496 14.3805 29.8286 15.2941 29.8286 16.421ZM33.4211 16.421C33.4211 17.2626 32.7336 17.9446 31.8857 17.9446C31.0379 17.9446 30.3503 17.2626 30.3503 16.421C30.3503 15.5795 31.0379 14.8975 31.8857 14.8975C32.7336 14.8975 33.4211 15.5795 33.4211 16.421Z" fill="#D6DFDF"/>
<path fill-rule="evenodd" clip-rule="evenodd" d="M29.146 6.14693C28.9507 5.95167 28.6341 5.95167 28.4389 6.14693L24 10.5858L19.5612 6.14695C19.3659 5.95169 19.0493 5.95169 18.854 6.14695L18.1469 6.85406C17.9517 7.04932 17.9517 7.3659 18.1469 7.56116L22.5858 12L18.1469 16.4389C17.9517 16.6341 17.9517 16.9507 18.1469 17.146L18.854 17.8531C19.0493 18.0483 19.3659 18.0483 19.5611 17.8531L24 13.4142L28.4389 17.8531C28.6341 18.0484 28.9507 18.0484 29.146 17.8531L29.8531 17.146C30.0484 16.9507 30.0484 16.6342 29.8531 16.4389L25.4142 12L29.8531 7.56115C30.0483 7.36589 30.0483 7.0493 29.8531 6.85404L29.146 6.14693Z" fill="#E5312A"/>
</svg>
