<svg width="24" height="24" viewBox="0 0 24 24" fill="none" xmlns="http://www.w3.org/2000/svg">
    <path fill-rule="evenodd" clip-rule="evenodd" d="M19.973 12.69a2.1 2.1 0 1 0 2.1 2.101 2.107 2.107 0 0 0-2.1-2.1zm0 3.652c-.85 0-1.541-.69-1.541-1.55 0-.851.69-1.551 1.54-1.551.851 0 1.541.69 1.541 1.55 0 .86-.69 1.551-1.54 1.551zM4.895 12.69a2.1 2.1 0 1 0 0 4.202 2.1 2.1 0 0 0 0-4.202zm0 3.652c-.85 0-1.54-.69-1.54-1.55 0-.851.69-1.551 1.54-1.551.85 0 1.54.69 1.54 1.55 0 .86-.69 1.551-1.54 1.551z" fill="#D6DFDF"/>
    <path fill-rule="evenodd" clip-rule="evenodd" d="M23.284 12.22c-1.45-1.46-5.172-1.46-5.172-1.46L14.5 7.106H6.536c-.72 0-1.451.73-2.171 2.922-.02.06-.73.17-1.521.3-.96.15-2.021.32-2.101.43-.8 1.06-.76 3.142-.73 4.513 0 .22.01.43.01.6h2.5a2.603 2.603 0 1 1 4.973-1.07c0 .38-.09.75-.24 1.07h10.345c-.15-.33-.24-.69-.24-1.07 0-1.441 1.17-2.602 2.602-2.602 1.43 0 2.601 1.17 2.601 2.601 0 .38-.09.75-.24 1.071h.22c0 .06 1.45 0 1.45 0v-1.46c.02-.731.02-1.462-.71-2.192zM6.556 10.76s-.73-.18-.73-.731c0-.43.73-2.191.73-2.191h3.962v2.921H6.556zm4.802 0V7.837h2.471l2.912 2.921h-5.383z" fill="#D6DFDF"/>
    <path fill-rule="evenodd" clip-rule="evenodd" d="M17.146 6.147a.5.5 0 0 0-.707 0L12 10.586l-4.439-4.44a.5.5 0 0 0-.707 0l-.707.708a.5.5 0 0 0 0 .707L10.586 12l-4.44 4.439a.5.5 0 0 0 0 .707l.708.707a.5.5 0 0 0 .707 0L12 13.414l4.439 4.44a.5.5 0 0 0 .707 0l.707-.708a.5.5 0 0 0 0-.707L13.414 12l4.44-4.439a.5.5 0 0 0 0-.707l-.708-.707z" fill="#E5312A"/>
</svg>
