<svg width="16" height="16" viewBox="0 0 16 16" fill="none" xmlns="http://www.w3.org/2000/svg">
<path fill-rule="evenodd" clip-rule="evenodd" d="M15.7492 11.8233C16.4622 13.0878 15.5702 14.6667 14.1432 14.6667H1.85723C0.430233 14.6667 -0.462764 13.0878 0.251234 11.8233L6.39421 0.947605C7.10821 -0.315868 8.89221 -0.315868 9.6062 0.947605L15.7492 11.8233ZM6.98221 5.01844C6.98221 4.45597 7.43818 4 8.00065 4C8.56312 4 9.01909 4.45597 9.01909 5.01844V8.16825C9.01909 8.73072 8.56312 9.18669 8.00065 9.18669C7.43818 9.18669 6.98221 8.73072 6.98221 8.16825V5.01844ZM8.00065 12C8.56312 12 9.01909 11.544 9.01909 10.9816C9.01909 10.4191 8.56312 9.96313 8.00065 9.96313C7.43818 9.96313 6.98221 10.4191 6.98221 10.9816C6.98221 11.544 7.43818 12 8.00065 12Z" fill="#D97E7E"/>
</svg>
