<svg width="24" height="24" viewBox="0 0 24 24" fill="none" xmlns="http://www.w3.org/2000/svg">
<path d="M11 9.5C11 10.3284 10.3284 11 9.5 11C8.67157 11 8 10.3284 8 9.5C8 8.67157 8.67157 8 9.5 8C10.3284 8 11 8.67157 11 9.5Z" fill="#004152"/>
<path d="M16 9.5C16 10.3284 15.3284 11 14.5 11C13.6716 11 13 10.3284 13 9.5C13 8.67157 13.6716 8 14.5 8C15.3284 8 16 8.67157 16 9.5Z" fill="#004152"/>
<path fill-rule="evenodd" clip-rule="evenodd" d="M6.39942 14.2004C6.84101 13.8687 7.46788 13.9578 7.79957 14.3994C8.98713 15.9805 9.87463 16 12.0005 16C14.1265 16 15.014 15.9805 16.2015 14.3994C16.5332 13.9578 17.1601 13.8687 17.6017 14.2004C18.0433 14.5321 18.1324 15.159 17.8007 15.6006C16.2516 17.6629 14.7821 18 12.0005 18C9.21901 18 7.74949 17.6629 6.20043 15.6006C5.86874 15.159 5.95783 14.5321 6.39942 14.2004Z" fill="#004152"/>
<path fill-rule="evenodd" clip-rule="evenodd" d="M12 22C17.5228 22 22 17.5228 22 12C22 6.47715 17.5228 2 12 2C6.47715 2 2 6.47715 2 12C2 17.5228 6.47715 22 12 22ZM12 24C18.6274 24 24 18.6274 24 12C24 5.37258 18.6274 0 12 0C5.37258 0 0 5.37258 0 12C0 18.6274 5.37258 24 12 24Z" fill="#004152"/>
</svg>
