<svg width="24" height="24" viewBox="0 0 24 24" fill="none" xmlns="http://www.w3.org/2000/svg">
<path d="M11 9.5C11 10.3284 10.3291 9.76923 9.5 9.76923C8.67089 9.76923 8 10.3284 8 9.5C8 8.67157 8.67157 8 9.5 8C10.3284 8 11 8.67157 11 9.5Z" fill="#004152"/>
<path d="M16 9.5C16 10.3284 15.4937 9.76923 14.5 9.76923C13.5063 9.76923 13 10.3284 13 9.5C13 8.67157 13.6716 8 14.5 8C15.3284 8 16 8.67157 16 9.5Z" fill="#004152"/>
<path fill-rule="evenodd" clip-rule="evenodd" d="M5.39942 13.2004C5.84101 12.8687 6.46788 12.9578 6.79957 13.3994C7.98713 14.9805 9.87463 16 12.0005 16C14.1265 16 16.014 14.9805 17.2015 13.3994C17.5332 12.9578 18.1601 12.8687 18.6017 13.2004C19.0433 13.5321 19.1324 14.159 18.8007 14.6006C17.2516 16.6629 14.7821 18 12.0005 18C9.21901 18 6.74949 16.6629 5.20043 14.6006C4.86874 14.159 4.95783 13.5321 5.39942 13.2004Z" fill="#004152"/>
<path fill-rule="evenodd" clip-rule="evenodd" d="M12 22C17.5228 22 22 17.5228 22 12C22 6.47715 17.5228 2 12 2C6.47715 2 2 6.47715 2 12C2 17.5228 6.47715 22 12 22ZM12 24C18.6274 24 24 18.6274 24 12C24 5.37258 18.6274 0 12 0C5.37258 0 0 5.37258 0 12C0 18.6274 5.37258 24 12 24Z" fill="#004152"/>
</svg>
