<svg width="24" height="24" viewBox="0 0 24 24" fill="none" xmlns="http://www.w3.org/2000/svg">
<path fill-rule="evenodd" clip-rule="evenodd" d="M16.7573 0H16.7593L21.0019 4.24264L21.002 4.24261V5.74266L20.9999 4.24259L18.7573 4.24266C17.6528 4.24266 16.7573 3.34723 16.7573 2.24266V0ZM15.2573 0H5.00195C3.89738 0 3.00195 0.89543 3.00195 2V22C3.00195 23.1046 3.89738 24 5.00195 24H19.002C20.1065 24 21.002 23.1046 21.002 22V5.74266L18.7573 5.74266C16.8243 5.74266 15.2573 4.17565 15.2573 2.24266V0ZM8.05299 14.6222H6.14849V19.1722H7.20149V17.9112H8.05299C8.30432 17.9112 8.53182 17.8679 8.73549 17.7812C8.93916 17.6902 9.11249 17.5711 9.25549 17.4237C9.40282 17.2721 9.51549 17.0966 9.59349 16.8972C9.67149 16.6979 9.71049 16.4877 9.71049 16.2667C9.71049 16.0457 9.67149 15.8356 9.59349 15.6362C9.51549 15.4369 9.40282 15.2636 9.25549 15.1162C9.11249 14.9646 8.93916 14.8454 8.73549 14.7587C8.53182 14.6677 8.30432 14.6222 8.05299 14.6222ZM8.22199 16.9882C8.13099 17.0316 8.03132 17.0532 7.92299 17.0532H7.20149V15.4802H7.92299C8.03132 15.4802 8.13099 15.5019 8.22199 15.5452C8.31299 15.5886 8.38882 15.6471 8.44949 15.7207C8.51449 15.7901 8.56432 15.8724 8.59899 15.9677C8.63366 16.0631 8.65099 16.1627 8.65099 16.2667C8.65099 16.3707 8.63366 16.4704 8.59899 16.5657C8.56432 16.6611 8.51449 16.7456 8.44949 16.8192C8.38882 16.8886 8.31299 16.9449 8.22199 16.9882ZM13.046 14.8172C12.7556 14.6872 12.422 14.6222 12.045 14.6222H10.3745V19.1722H12.045C12.422 19.1722 12.7578 19.1094 13.0525 18.9837C13.3471 18.8537 13.5941 18.6826 13.7935 18.4702C13.9971 18.2579 14.151 18.0152 14.255 17.7422C14.359 17.4692 14.411 17.1876 14.411 16.8972C14.411 16.6069 14.3568 16.3252 14.2485 16.0522C14.1445 15.7792 13.9906 15.5366 13.787 15.3242C13.5876 15.1119 13.3406 14.9429 13.046 14.8172ZM11.993 18.2622H11.4275V15.5322H11.993C12.2053 15.5322 12.3938 15.5712 12.5585 15.6492C12.7275 15.7229 12.8683 15.8247 12.981 15.9547C13.098 16.0804 13.1868 16.2256 13.2475 16.3902C13.3081 16.5549 13.3385 16.7239 13.3385 16.8972C13.3385 17.0749 13.3081 17.2461 13.2475 17.4107C13.1868 17.5711 13.098 17.7162 12.981 17.8462C12.8683 17.9719 12.7275 18.0737 12.5585 18.1517C12.3938 18.2254 12.2053 18.2622 11.993 18.2622ZM16.2057 15.5062V16.7347H17.9282V17.5992H16.2057V19.1722H15.1527V14.6222H17.9282V15.5062H16.2057Z" fill="#004152"/>
</svg>
