<svg width="24" height="24" viewBox="0 0 24 24" fill="none" xmlns="http://www.w3.org/2000/svg">
<path fill-rule="evenodd" clip-rule="evenodd" d="M0 3.5C0 2.94772 0.447715 2.5 1 2.5H12C12.5523 2.5 13 2.94772 13 3.5V12C13 12.2761 12.7761 12.5 12.5 12.5H1C0.447715 12.5 0 12.0523 0 11.5V3.5ZM1 13.5C0.447716 13.5 0 13.9477 0 14.5V17.6917C0 18.244 0.447715 18.6917 1 18.6917H2.01195L2.01196 18.6917C2.01196 16.5885 3.71699 14.8834 5.82025 14.8834C7.92352 14.8834 9.62855 16.5885 9.62855 18.6917L9.62856 18.6917H14.3879L14.3879 18.6917C14.3879 16.5885 16.093 14.8834 18.1962 14.8834C20.2995 14.8834 22.0045 16.5885 22.0045 18.6917L22.0045 18.6917H23.0023C23.5533 18.6917 24 18.245 24 17.694V10.7611C24 10.5608 23.9398 10.365 23.8273 10.1993L20.2862 4.98512C20.1001 4.71104 19.7903 4.54694 19.459 4.54694H15C14.4477 4.54694 14 4.99465 14 5.54694V12.5C14 13.0523 13.5523 13.5 13 13.5H1ZM4.71196 18.6917C4.71196 18.0796 5.20816 17.5834 5.82025 17.5834C6.43235 17.5834 6.92855 18.0796 6.92855 18.6917C6.92855 19.3038 6.43235 19.8 5.82025 19.8C5.20816 19.8 4.71196 19.3038 4.71196 18.6917ZM5.82025 15.8834C4.26928 15.8834 3.01196 17.1407 3.01196 18.6917C3.01196 20.2427 4.26928 21.5 5.82025 21.5C7.37123 21.5 8.62855 20.2427 8.62855 18.6917C8.62855 17.1407 7.37123 15.8834 5.82025 15.8834ZM18.1962 17.5834C17.5841 17.5834 17.0879 18.0796 17.0879 18.6917C17.0879 19.3038 17.5841 19.8 18.1962 19.8C18.8083 19.8 19.3045 19.3038 19.3045 18.6917C19.3045 18.0796 18.8083 17.5834 18.1962 17.5834ZM15.3879 18.6917C15.3879 17.1407 16.6453 15.8834 18.1962 15.8834C19.7472 15.8834 21.0045 17.1407 21.0045 18.6917C21.0045 20.2427 19.7472 21.5 18.1962 21.5C16.6453 21.5 15.3879 20.2427 15.3879 18.6917ZM16.0576 5.96069C15.7815 5.96069 15.5576 6.18455 15.5576 6.46069V10.4607C15.5576 10.7368 15.7815 10.9607 16.0576 10.9607H21.4494C21.8509 10.9607 22.0886 10.5114 21.8628 10.1795L19.142 6.17948C19.0489 6.04261 18.8941 5.96069 18.7285 5.96069H16.0576Z" fill="#004152"/>
</svg>
