<svg width="24" height="24" viewBox="0 0 24 24" fill="none" xmlns="http://www.w3.org/2000/svg">
<path d="M1.14286 0H0V1.14286H1.14286V0Z" fill="#004152"/>
<path d="M2.28571 0H1.14286V1.14286H2.28571V0Z" fill="#004152"/>
<path d="M3.42857 0H2.28571V1.14286H3.42857V0Z" fill="#004152"/>
<path d="M4.57143 0H3.42857V1.14286H4.57143V0Z" fill="#004152"/>
<path d="M5.71429 0H4.57143V1.14286H5.71429V0Z" fill="#004152"/>
<path d="M6.85714 0H5.71429V1.14286H6.85714V0Z" fill="#004152"/>
<path d="M8 0H6.85714V1.14286H8V0Z" fill="#004152"/>
<path d="M12.5714 0H11.4286V1.14286H12.5714V0Z" fill="#004152"/>
<path d="M14.8571 0H13.7143V1.14286H14.8571V0Z" fill="#004152"/>
<path d="M17.1429 0H16V1.14286H17.1429V0Z" fill="#004152"/>
<path d="M18.2857 0H17.1429V1.14286H18.2857V0Z" fill="#004152"/>
<path d="M19.4286 0H18.2857V1.14286H19.4286V0Z" fill="#004152"/>
<path d="M20.5714 0H19.4286V1.14286H20.5714V0Z" fill="#004152"/>
<path d="M21.7143 0H20.5714V1.14286H21.7143V0Z" fill="#004152"/>
<path d="M22.8571 0H21.7143V1.14286H22.8571V0Z" fill="#004152"/>
<path d="M24 0H22.8571V1.14286H24V0Z" fill="#004152"/>
<path d="M1.14286 1.14286H0V2.28571H1.14286V1.14286Z" fill="#004152"/>
<path d="M8 1.14286H6.85714V2.28571H8V1.14286Z" fill="#004152"/>
<path d="M14.8571 1.14286H13.7143V2.28571H14.8571V1.14286Z" fill="#004152"/>
<path d="M17.1429 1.14286H16V2.28571H17.1429V1.14286Z" fill="#004152"/>
<path d="M24 1.14286H22.8571V2.28571H24V1.14286Z" fill="#004152"/>
<path d="M1.14286 2.28571H0V3.42857H1.14286V2.28571Z" fill="#004152"/>
<path d="M3.42857 2.28571H2.28571V3.42857H3.42857V2.28571Z" fill="#004152"/>
<path d="M4.57143 2.28571H3.42857V3.42857H4.57143V2.28571Z" fill="#004152"/>
<path d="M5.71429 2.28571H4.57143V3.42857H5.71429V2.28571Z" fill="#004152"/>
<path d="M8 2.28571H6.85714V3.42857H8V2.28571Z" fill="#004152"/>
<path d="M10.2857 2.28571H9.14286V3.42857H10.2857V2.28571Z" fill="#004152"/>
<path d="M12.5714 2.28571H11.4286V3.42857H12.5714V2.28571Z" fill="#004152"/>
<path d="M17.1429 2.28571H16V3.42857H17.1429V2.28571Z" fill="#004152"/>
<path d="M19.4286 2.28571H18.2857V3.42857H19.4286V2.28571Z" fill="#004152"/>
<path d="M20.5714 2.28571H19.4286V3.42857H20.5714V2.28571Z" fill="#004152"/>
<path d="M21.7143 2.28571H20.5714V3.42857H21.7143V2.28571Z" fill="#004152"/>
<path d="M24 2.28571H22.8571V3.42857H24V2.28571Z" fill="#004152"/>
<path d="M1.14286 3.42857H0V4.57143H1.14286V3.42857Z" fill="#004152"/>
<path d="M3.42857 3.42857H2.28571V4.57143H3.42857V3.42857Z" fill="#004152"/>
<path d="M4.57143 3.42857H3.42857V4.57143H4.57143V3.42857Z" fill="#004152"/>
<path d="M5.71429 3.42857H4.57143V4.57143H5.71429V3.42857Z" fill="#004152"/>
<path d="M8 3.42857H6.85714V4.57143H8V3.42857Z" fill="#004152"/>
<path d="M14.8571 3.42857H13.7143V4.57143H14.8571V3.42857Z" fill="#004152"/>
<path d="M17.1429 3.42857H16V4.57143H17.1429V3.42857Z" fill="#004152"/>
<path d="M19.4286 3.42857H18.2857V4.57143H19.4286V3.42857Z" fill="#004152"/>
<path d="M20.5714 3.42857H19.4286V4.57143H20.5714V3.42857Z" fill="#004152"/>
<path d="M21.7143 3.42857H20.5714V4.57143H21.7143V3.42857Z" fill="#004152"/>
<path d="M24 3.42857H22.8571V4.57143H24V3.42857Z" fill="#004152"/>
<path d="M1.14286 4.57143H0V5.71429H1.14286V4.57143Z" fill="#004152"/>
<path d="M3.42857 4.57143H2.28571V5.71429H3.42857V4.57143Z" fill="#004152"/>
<path d="M4.57143 4.57143H3.42857V5.71429H4.57143V4.57143Z" fill="#004152"/>
<path d="M5.71429 4.57143H4.57143V5.71429H5.71429V4.57143Z" fill="#004152"/>
<path d="M8 4.57143H6.85714V5.71429H8V4.57143Z" fill="#004152"/>
<path d="M11.4286 4.57143H10.2857V5.71429H11.4286V4.57143Z" fill="#004152"/>
<path d="M13.7143 4.57143H12.5714V5.71429H13.7143V4.57143Z" fill="#004152"/>
<path d="M14.8571 4.57143H13.7143V5.71429H14.8571V4.57143Z" fill="#004152"/>
<path d="M17.1429 4.57143H16V5.71429H17.1429V4.57143Z" fill="#004152"/>
<path d="M19.4286 4.57143H18.2857V5.71429H19.4286V4.57143Z" fill="#004152"/>
<path d="M20.5714 4.57143H19.4286V5.71429H20.5714V4.57143Z" fill="#004152"/>
<path d="M21.7143 4.57143H20.5714V5.71429H21.7143V4.57143Z" fill="#004152"/>
<path d="M24 4.57143H22.8571V5.71429H24V4.57143Z" fill="#004152"/>
<path d="M1.14286 5.71429H0V6.85714H1.14286V5.71429Z" fill="#004152"/>
<path d="M8 5.71429H6.85714V6.85714H8V5.71429Z" fill="#004152"/>
<path d="M11.4286 5.71429H10.2857V6.85714H11.4286V5.71429Z" fill="#004152"/>
<path d="M12.5714 5.71429H11.4286V6.85714H12.5714V5.71429Z" fill="#004152"/>
<path d="M13.7143 5.71429H12.5714V6.85714H13.7143V5.71429Z" fill="#004152"/>
<path d="M17.1429 5.71429H16V6.85714H17.1429V5.71429Z" fill="#004152"/>
<path d="M24 5.71429H22.8571V6.85714H24V5.71429Z" fill="#004152"/>
<path d="M1.14286 6.85714H0V8H1.14286V6.85714Z" fill="#004152"/>
<path d="M2.28571 6.85714H1.14286V8H2.28571V6.85714Z" fill="#004152"/>
<path d="M3.42857 6.85714H2.28571V8H3.42857V6.85714Z" fill="#004152"/>
<path d="M4.57143 6.85714H3.42857V8H4.57143V6.85714Z" fill="#004152"/>
<path d="M5.71429 6.85714H4.57143V8H5.71429V6.85714Z" fill="#004152"/>
<path d="M6.85714 6.85714H5.71429V8H6.85714V6.85714Z" fill="#004152"/>
<path d="M8 6.85714H6.85714V8H8V6.85714Z" fill="#004152"/>
<path d="M10.2857 6.85714H9.14286V8H10.2857V6.85714Z" fill="#004152"/>
<path d="M12.5714 6.85714H11.4286V8H12.5714V6.85714Z" fill="#004152"/>
<path d="M14.8571 6.85714H13.7143V8H14.8571V6.85714Z" fill="#004152"/>
<path d="M17.1429 6.85714H16V8H17.1429V6.85714Z" fill="#004152"/>
<path d="M18.2857 6.85714H17.1429V8H18.2857V6.85714Z" fill="#004152"/>
<path d="M19.4286 6.85714H18.2857V8H19.4286V6.85714Z" fill="#004152"/>
<path d="M20.5714 6.85714H19.4286V8H20.5714V6.85714Z" fill="#004152"/>
<path d="M21.7143 6.85714H20.5714V8H21.7143V6.85714Z" fill="#004152"/>
<path d="M22.8571 6.85714H21.7143V8H22.8571V6.85714Z" fill="#004152"/>
<path d="M24 6.85714H22.8571V8H24V6.85714Z" fill="#004152"/>
<path d="M10.2857 8H9.14286V9.14286H10.2857V8Z" fill="#004152"/>
<path d="M12.5714 8H11.4286V9.14286H12.5714V8Z" fill="#004152"/>
<path d="M1.14286 9.14286H0V10.2857H1.14286V9.14286Z" fill="#004152"/>
<path d="M2.28571 9.14286H1.14286V10.2857H2.28571V9.14286Z" fill="#004152"/>
<path d="M3.42857 9.14286H2.28571V10.2857H3.42857V9.14286Z" fill="#004152"/>
<path d="M5.71429 9.14286H4.57143V10.2857H5.71429V9.14286Z" fill="#004152"/>
<path d="M6.85714 9.14286H5.71429V10.2857H6.85714V9.14286Z" fill="#004152"/>
<path d="M8 9.14286H6.85714V10.2857H8V9.14286Z" fill="#004152"/>
<path d="M9.14286 9.14286H8V10.2857H9.14286V9.14286Z" fill="#004152"/>
<path d="M10.2857 9.14286H9.14286V10.2857H10.2857V9.14286Z" fill="#004152"/>
<path d="M12.5714 9.14286H11.4286V10.2857H12.5714V9.14286Z" fill="#004152"/>
<path d="M14.8571 9.14286H13.7143V10.2857H14.8571V9.14286Z" fill="#004152"/>
<path d="M16 9.14286H14.8571V10.2857H16V9.14286Z" fill="#004152"/>
<path d="M17.1429 9.14286H16V10.2857H17.1429V9.14286Z" fill="#004152"/>
<path d="M21.7143 9.14286H20.5714V10.2857H21.7143V9.14286Z" fill="#004152"/>
<path d="M2.28571 10.2857H1.14286V11.4286H2.28571V10.2857Z" fill="#004152"/>
<path d="M3.42857 10.2857H2.28571V11.4286H3.42857V10.2857Z" fill="#004152"/>
<path d="M4.57143 10.2857H3.42857V11.4286H4.57143V10.2857Z" fill="#004152"/>
<path d="M9.14286 10.2857H8V11.4286H9.14286V10.2857Z" fill="#004152"/>
<path d="M10.2857 10.2857H9.14286V11.4286H10.2857V10.2857Z" fill="#004152"/>
<path d="M11.4286 10.2857H10.2857V11.4286H11.4286V10.2857Z" fill="#004152"/>
<path d="M12.5714 10.2857H11.4286V11.4286H12.5714V10.2857Z" fill="#004152"/>
<path d="M13.7143 10.2857H12.5714V11.4286H13.7143V10.2857Z" fill="#004152"/>
<path d="M17.1429 10.2857H16V11.4286H17.1429V10.2857Z" fill="#004152"/>
<path d="M18.2857 10.2857H17.1429V11.4286H18.2857V10.2857Z" fill="#004152"/>
<path d="M19.4286 10.2857H18.2857V11.4286H19.4286V10.2857Z" fill="#004152"/>
<path d="M20.5714 10.2857H19.4286V11.4286H20.5714V10.2857Z" fill="#004152"/>
<path d="M22.8571 10.2857H21.7143V11.4286H22.8571V10.2857Z" fill="#004152"/>
<path d="M24 10.2857H22.8571V11.4286H24V10.2857Z" fill="#004152"/>
<path d="M1.14286 11.4286H0V12.5714H1.14286V11.4286Z" fill="#004152"/>
<path d="M3.42857 11.4286H2.28571V12.5714H3.42857V11.4286Z" fill="#004152"/>
<path d="M5.71429 11.4286H4.57143V12.5714H5.71429V11.4286Z" fill="#004152"/>
<path d="M6.85714 11.4286H5.71429V12.5714H6.85714V11.4286Z" fill="#004152"/>
<path d="M8 11.4286H6.85714V12.5714H8V11.4286Z" fill="#004152"/>
<path d="M9.14286 11.4286H8V12.5714H9.14286V11.4286Z" fill="#004152"/>
<path d="M10.2857 11.4286H9.14286V12.5714H10.2857V11.4286Z" fill="#004152"/>
<path d="M11.4286 11.4286H10.2857V12.5714H11.4286V11.4286Z" fill="#004152"/>
<path d="M13.7143 11.4286H12.5714V12.5714H13.7143V11.4286Z" fill="#004152"/>
<path d="M19.4286 11.4286H18.2857V12.5714H19.4286V11.4286Z" fill="#004152"/>
<path d="M20.5714 11.4286H19.4286V12.5714H20.5714V11.4286Z" fill="#004152"/>
<path d="M21.7143 11.4286H20.5714V12.5714H21.7143V11.4286Z" fill="#004152"/>
<path d="M22.8571 11.4286H21.7143V12.5714H22.8571V11.4286Z" fill="#004152"/>
<path d="M24 11.4286H22.8571V12.5714H24V11.4286Z" fill="#004152"/>
<path d="M1.14286 12.5714H0V13.7143H1.14286V12.5714Z" fill="#004152"/>
<path d="M4.57143 12.5714H3.42857V13.7143H4.57143V12.5714Z" fill="#004152"/>
<path d="M5.71429 12.5714H4.57143V13.7143H5.71429V12.5714Z" fill="#004152"/>
<path d="M10.2857 12.5714H9.14286V13.7143H10.2857V12.5714Z" fill="#004152"/>
<path d="M12.5714 12.5714H11.4286V13.7143H12.5714V12.5714Z" fill="#004152"/>
<path d="M13.7143 12.5714H12.5714V13.7143H13.7143V12.5714Z" fill="#004152"/>
<path d="M14.8571 12.5714H13.7143V13.7143H14.8571V12.5714Z" fill="#004152"/>
<path d="M19.4286 12.5714H18.2857V13.7143H19.4286V12.5714Z" fill="#004152"/>
<path d="M22.8571 12.5714H21.7143V13.7143H22.8571V12.5714Z" fill="#004152"/>
<path d="M1.14286 13.7143H0V14.8571H1.14286V13.7143Z" fill="#004152"/>
<path d="M3.42857 13.7143H2.28571V14.8571H3.42857V13.7143Z" fill="#004152"/>
<path d="M4.57143 13.7143H3.42857V14.8571H4.57143V13.7143Z" fill="#004152"/>
<path d="M8 13.7143H6.85714V14.8571H8V13.7143Z" fill="#004152"/>
<path d="M9.14286 13.7143H8V14.8571H9.14286V13.7143Z" fill="#004152"/>
<path d="M11.4286 13.7143H10.2857V14.8571H11.4286V13.7143Z" fill="#004152"/>
<path d="M13.7143 13.7143H12.5714V14.8571H13.7143V13.7143Z" fill="#004152"/>
<path d="M22.8571 13.7143H21.7143V14.8571H22.8571V13.7143Z" fill="#004152"/>
<path d="M24 13.7143H22.8571V14.8571H24V13.7143Z" fill="#004152"/>
<path d="M10.2857 14.8571H9.14286V16H10.2857V14.8571Z" fill="#004152"/>
<path d="M12.5714 14.8571H11.4286V16H12.5714V14.8571Z" fill="#004152"/>
<path d="M18.2857 14.8571H17.1429V16H18.2857V14.8571Z" fill="#004152"/>
<path d="M19.4286 14.8571H18.2857V16H19.4286V14.8571Z" fill="#004152"/>
<path d="M21.7143 14.8571H20.5714V16H21.7143V14.8571Z" fill="#004152"/>
<path d="M24 14.8571H22.8571V16H24V14.8571Z" fill="#004152"/>
<path d="M1.14286 16H0V17.1429H1.14286V16Z" fill="#004152"/>
<path d="M2.28571 16H1.14286V17.1429H2.28571V16Z" fill="#004152"/>
<path d="M3.42857 16H2.28571V17.1429H3.42857V16Z" fill="#004152"/>
<path d="M4.57143 16H3.42857V17.1429H4.57143V16Z" fill="#004152"/>
<path d="M5.71429 16H4.57143V17.1429H5.71429V16Z" fill="#004152"/>
<path d="M6.85714 16H5.71429V17.1429H6.85714V16Z" fill="#004152"/>
<path d="M8 16H6.85714V17.1429H8V16Z" fill="#004152"/>
<path d="M10.2857 16H9.14286V17.1429H10.2857V16Z" fill="#004152"/>
<path d="M11.4286 16H10.2857V17.1429H11.4286V16Z" fill="#004152"/>
<path d="M14.8571 16H13.7143V17.1429H14.8571V16Z" fill="#004152"/>
<path d="M16 16H14.8571V17.1429H16V16Z" fill="#004152"/>
<path d="M17.1429 16H16V17.1429H17.1429V16Z" fill="#004152"/>
<path d="M18.2857 16H17.1429V17.1429H18.2857V16Z" fill="#004152"/>
<path d="M19.4286 16H18.2857V17.1429H19.4286V16Z" fill="#004152"/>
<path d="M21.7143 16H20.5714V17.1429H21.7143V16Z" fill="#004152"/>
<path d="M22.8571 16H21.7143V17.1429H22.8571V16Z" fill="#004152"/>
<path d="M24 16H22.8571V17.1429H24V16Z" fill="#004152"/>
<path d="M1.14286 17.1429H0V18.2857H1.14286V17.1429Z" fill="#004152"/>
<path d="M8 17.1429H6.85714V18.2857H8V17.1429Z" fill="#004152"/>
<path d="M10.2857 17.1429H9.14286V18.2857H10.2857V17.1429Z" fill="#004152"/>
<path d="M11.4286 17.1429H10.2857V18.2857H11.4286V17.1429Z" fill="#004152"/>
<path d="M18.2857 17.1429H17.1429V18.2857H18.2857V17.1429Z" fill="#004152"/>
<path d="M19.4286 17.1429H18.2857V18.2857H19.4286V17.1429Z" fill="#004152"/>
<path d="M22.8571 17.1429H21.7143V18.2857H22.8571V17.1429Z" fill="#004152"/>
<path d="M24 17.1429H22.8571V18.2857H24V17.1429Z" fill="#004152"/>
<path d="M1.14286 18.2857H0V19.4286H1.14286V18.2857Z" fill="#004152"/>
<path d="M3.42857 18.2857H2.28571V19.4286H3.42857V18.2857Z" fill="#004152"/>
<path d="M4.57143 18.2857H3.42857V19.4286H4.57143V18.2857Z" fill="#004152"/>
<path d="M5.71429 18.2857H4.57143V19.4286H5.71429V18.2857Z" fill="#004152"/>
<path d="M8 18.2857H6.85714V19.4286H8V18.2857Z" fill="#004152"/>
<path d="M10.2857 18.2857H9.14286V19.4286H10.2857V18.2857Z" fill="#004152"/>
<path d="M14.8571 18.2857H13.7143V19.4286H14.8571V18.2857Z" fill="#004152"/>
<path d="M18.2857 18.2857H17.1429V19.4286H18.2857V18.2857Z" fill="#004152"/>
<path d="M1.14286 19.4286H0V20.5714H1.14286V19.4286Z" fill="#004152"/>
<path d="M3.42857 19.4286H2.28571V20.5714H3.42857V19.4286Z" fill="#004152"/>
<path d="M4.57143 19.4286H3.42857V20.5714H4.57143V19.4286Z" fill="#004152"/>
<path d="M5.71429 19.4286H4.57143V20.5714H5.71429V19.4286Z" fill="#004152"/>
<path d="M8 19.4286H6.85714V20.5714H8V19.4286Z" fill="#004152"/>
<path d="M11.4286 19.4286H10.2857V20.5714H11.4286V19.4286Z" fill="#004152"/>
<path d="M13.7143 19.4286H12.5714V20.5714H13.7143V19.4286Z" fill="#004152"/>
<path d="M18.2857 19.4286H17.1429V20.5714H18.2857V19.4286Z" fill="#004152"/>
<path d="M19.4286 19.4286H18.2857V20.5714H19.4286V19.4286Z" fill="#004152"/>
<path d="M21.7143 19.4286H20.5714V20.5714H21.7143V19.4286Z" fill="#004152"/>
<path d="M22.8571 19.4286H21.7143V20.5714H22.8571V19.4286Z" fill="#004152"/>
<path d="M1.14286 20.5714H0V21.7143H1.14286V20.5714Z" fill="#004152"/>
<path d="M3.42857 20.5714H2.28571V21.7143H3.42857V20.5714Z" fill="#004152"/>
<path d="M4.57143 20.5714H3.42857V21.7143H4.57143V20.5714Z" fill="#004152"/>
<path d="M5.71429 20.5714H4.57143V21.7143H5.71429V20.5714Z" fill="#004152"/>
<path d="M8 20.5714H6.85714V21.7143H8V20.5714Z" fill="#004152"/>
<path d="M10.2857 20.5714H9.14286V21.7143H10.2857V20.5714Z" fill="#004152"/>
<path d="M11.4286 20.5714H10.2857V21.7143H11.4286V20.5714Z" fill="#004152"/>
<path d="M12.5714 20.5714H11.4286V21.7143H12.5714V20.5714Z" fill="#004152"/>
<path d="M13.7143 20.5714H12.5714V21.7143H13.7143V20.5714Z" fill="#004152"/>
<path d="M16 20.5714H14.8571V21.7143H16V20.5714Z" fill="#004152"/>
<path d="M17.1429 20.5714H16V21.7143H17.1429V20.5714Z" fill="#004152"/>
<path d="M18.2857 20.5714H17.1429V21.7143H18.2857V20.5714Z" fill="#004152"/>
<path d="M19.4286 20.5714H18.2857V21.7143H19.4286V20.5714Z" fill="#004152"/>
<path d="M21.7143 20.5714H20.5714V21.7143H21.7143V20.5714Z" fill="#004152"/>
<path d="M24 20.5714H22.8571V21.7143H24V20.5714Z" fill="#004152"/>
<path d="M1.14286 21.7143H0V22.8571H1.14286V21.7143Z" fill="#004152"/>
<path d="M8 21.7143H6.85714V22.8571H8V21.7143Z" fill="#004152"/>
<path d="M10.2857 21.7143H9.14286V22.8571H10.2857V21.7143Z" fill="#004152"/>
<path d="M12.5714 21.7143H11.4286V22.8571H12.5714V21.7143Z" fill="#004152"/>
<path d="M13.7143 21.7143H12.5714V22.8571H13.7143V21.7143Z" fill="#004152"/>
<path d="M14.8571 21.7143H13.7143V22.8571H14.8571V21.7143Z" fill="#004152"/>
<path d="M16 21.7143H14.8571V22.8571H16V21.7143Z" fill="#004152"/>
<path d="M22.8571 21.7143H21.7143V22.8571H22.8571V21.7143Z" fill="#004152"/>
<path d="M1.14286 22.8571H0V24H1.14286V22.8571Z" fill="#004152"/>
<path d="M2.28571 22.8571H1.14286V24H2.28571V22.8571Z" fill="#004152"/>
<path d="M3.42857 22.8571H2.28571V24H3.42857V22.8571Z" fill="#004152"/>
<path d="M4.57143 22.8571H3.42857V24H4.57143V22.8571Z" fill="#004152"/>
<path d="M5.71429 22.8571H4.57143V24H5.71429V22.8571Z" fill="#004152"/>
<path d="M6.85714 22.8571H5.71429V24H6.85714V22.8571Z" fill="#004152"/>
<path d="M8 22.8571H6.85714V24H8V22.8571Z" fill="#004152"/>
<path d="M10.2857 22.8571H9.14286V24H10.2857V22.8571Z" fill="#004152"/>
<path d="M11.4286 22.8571H10.2857V24H11.4286V22.8571Z" fill="#004152"/>
<path d="M13.7143 22.8571H12.5714V24H13.7143V22.8571Z" fill="#004152"/>
<path d="M17.1429 22.8571H16V24H17.1429V22.8571Z" fill="#004152"/>
<path d="M22.8571 22.8571H21.7143V24H22.8571V22.8571Z" fill="#004152"/>
<path d="M24 22.8571H22.8571V24H24V22.8571Z" fill="#004152"/>
</svg>
