<svg width="24" height="24" viewBox="0 0 24 24" fill="none" xmlns="http://www.w3.org/2000/svg">
<path fill-rule="evenodd" clip-rule="evenodd" d="M20.214 1.5H17.227V0.75C17.227 0.336 16.893 0 16.48 0C16.067 0 15.733 0.336 15.733 0.75V1.5H8.26705V0.75C8.26705 0.336 7.93305 0 7.52005 0C7.10705 0 6.77305 0.336 6.77305 0.75V1.5H3.78705C2.13705 1.5 0.800049 2.843 0.800049 4.5V21C0.800049 22.657 2.13705 24 3.78705 24H20.214C21.863 24 23.2 22.657 23.2 21V4.5C23.2 2.843 21.863 1.5 20.214 1.5ZM21.7071 6H2.29309V4.5C2.29309 3.672 2.96209 3 3.78709 3H6.77309V3.75C6.77309 4.165 7.10709 4.5 7.52009 4.5C7.93309 4.5 8.26709 4.165 8.26709 3.75V3H15.7331V3.75C15.7331 4.165 16.0671 4.5 16.4801 4.5C16.8931 4.5 17.2271 4.165 17.2271 3.75V3H20.2141C21.0381 3 21.7071 3.672 21.7071 4.5V6ZM10.8176 14.114V11.342H14.8636V9.90001H9.20759V19.7H14.8636V18.258H10.8176V15.556H14.8636V14.114H10.8176Z" fill="#004152"/>
</svg>
