<svg width="24" height="24" viewBox="0 0 24 24" fill="none" xmlns="http://www.w3.org/2000/svg">
<path fill-rule="evenodd" clip-rule="evenodd" d="M12 24C18.6274 24 24 18.6274 24 12C24 5.37258 18.6274 0 12 0C5.37258 0 0 5.37258 0 12C0 18.6274 5.37258 24 12 24ZM11.5029 11.41L6.66 14.7348C6.24857 15.0236 6 15.4773 6 15.9641C6 17.1934 7.44 17.9111 8.47714 17.1934L12 14.7761L15.5229 17.1934C16.56 17.9111 18 17.1934 18 15.9641C18 15.4773 17.7514 15.0153 17.34 14.7348L12.4971 11.4017C12.1971 11.2037 11.8029 11.2037 11.5029 11.41ZM11.5029 5.6348L6.66 8.9679C6.24857 9.2484 6 9.70217 6 10.1889C6 11.4182 7.44 12.1277 8.47714 11.4182L12 9.0009L15.5229 11.4182C16.56 12.136 18 11.4182 18 10.1889C18 9.70217 17.7514 9.24015 17.34 8.95965L12.4971 5.62655C12.1971 5.42855 11.8029 5.42855 11.5029 5.6348Z" fill="#004152"/>
</svg>
