<svg width="24" height="24" viewBox="0 0 24 24" fill="none" xmlns="http://www.w3.org/2000/svg">
<path d="M7.26471 8.78808V7.80805H9.12737L12.0197 10.7016L14.8369 7.88316L18.5836 4.12042L19.8099 2.89359L19.9923 3.05097C20.3533 3.36572 20.7073 3.7234 21.0755 4.14545L21.2328 4.32787L12.0197 13.5452L7.26471 8.78808Z" fill="#004152"/>
<path d="M7.25041 9.50343V16.5961H9.2668V11.5171L7.25041 9.50343Z" fill="#004152"/>
<path d="M14.7582 11.5314V16.5961H16.7746V9.51416L14.7582 11.5314Z" fill="#004152"/>
<path d="M21.5617 4.77496L21.5403 4.74635L20.1031 6.1842C21.3329 7.88674 21.9872 9.88972 21.9872 12C21.9872 17.5046 17.5111 21.9827 12.0089 21.9827C6.50678 21.9827 2.02711 17.5046 2.02711 11.9857L2.01639 11.7818C2.13794 6.37735 6.57113 2.01371 12.0054 2.01371C14.1612 2.01371 16.2205 2.70402 17.9687 4.00596L19.4059 2.56811L19.3666 2.53949C17.2501 0.876304 14.7046 0 11.9946 0C5.3806 0 0 5.38301 0 12L0.0107255 12.2575H0.0143006C0.153732 18.7565 5.48071 24 12.0054 24C18.6194 24 24 18.617 24 12C24 9.36393 23.1563 6.86379 21.5617 4.77496Z" fill="#004152"/>
</svg>
