<svg width="24" height="24" viewBox="0 0 24 24" fill="none" xmlns="http://www.w3.org/2000/svg">
<path d="M7.7057 11.9177C7.7057 10.0664 7.70019 8.21567 7.70956 6.3644C7.71177 5.87083 7.77022 5.37782 8.0807 4.96422C8.40165 4.53683 8.82132 4.24621 9.35735 4.1679C9.66231 4.12323 9.97389 4.1111 10.2827 4.11C12.4285 4.10559 14.5748 4.0907 16.7205 4.11386C18.102 4.12875 19.4001 4.49713 20.6161 5.16165C21.8067 5.81238 22.6775 6.7598 23.2488 7.97634C23.5797 8.68166 23.7672 9.43276 23.8847 10.2081C24.022 11.1197 24.0148 12.0335 23.9745 12.9429C23.91 14.3811 23.5609 15.7559 22.7448 16.968C21.9176 18.1972 20.7512 18.9743 19.3571 19.4513C18.2652 19.8246 17.1386 19.9095 16.0031 19.9206C14.0867 19.9393 12.1698 19.9382 10.2535 19.9327C9.40974 19.9299 8.68731 19.6255 8.16397 18.9456C7.84026 18.5248 7.7046 18.0219 7.70184 17.498C7.69192 15.6379 7.69798 13.7772 7.69798 11.9171C7.70019 11.9177 7.70294 11.9177 7.7057 11.9177ZM13.4343 15.5518C13.8391 15.5518 14.2307 15.5452 14.6217 15.5535C15.1251 15.564 15.6187 15.5221 16.0886 15.3246C16.8413 15.0081 17.4397 14.5316 17.7672 13.7541C18.1891 12.7526 18.1952 11.7203 17.9713 10.6862C17.7926 9.8596 17.3277 9.21328 16.5529 8.82284C16.1696 8.62983 15.7671 8.49913 15.3325 8.49747C14.7049 8.49527 14.0774 8.49692 13.4343 8.49692C13.4343 10.8329 13.4343 13.1794 13.4343 15.5518Z" fill="#004152"/>
<path d="M5.93163 9.51659C5.93163 10.743 5.93825 11.9061 5.92998 13.0691C5.9195 14.6177 5.9184 16.1662 5.87262 17.7136C5.84781 18.5436 5.47943 19.245 4.7923 19.7281C4.27171 20.0943 3.65848 20.1864 3.02871 20.1836C2.43257 20.1809 1.85298 20.1241 1.31309 19.8362C0.667323 19.4921 0.295083 18.9434 0.10979 18.2579C0.0535399 18.05 0.0386502 17.8261 0.0369958 17.6094C0.0221062 15.7873 0.0187974 13.9636 4.75171e-05 12.1405C-0.00215835 11.9304 0.0722898 11.8256 0.254274 11.7555C1.59324 11.2394 2.93275 10.7237 4.26896 10.2004C4.8127 9.98754 5.34928 9.75647 5.93163 9.51659Z" fill="#004152"/>
<path d="M5.96196 7.59252C3.97337 8.37891 2.03 9.1471 0.0607088 9.92577C0.0557456 9.82761 0.049128 9.75978 0.049128 9.69195C0.0480251 8.65795 0.0331355 7.6234 0.0535398 6.5894C0.0689809 5.78811 0.312729 5.06073 0.912726 4.49217C1.22927 4.19272 1.61695 4.0179 2.03882 3.92912C2.90904 3.74548 3.76602 3.76313 4.5855 4.15467C5.30958 4.50099 5.72869 5.10815 5.86601 5.86697C5.96693 6.42671 5.93439 7.00961 5.96196 7.59252Z" fill="#004152"/>
</svg>
