<svg width="24" height="24" viewBox="0 0 24 24" fill="none" xmlns="http://www.w3.org/2000/svg">
<path d="M0 4C0 3.44772 0.447715 3 1 3H23C23.5523 3 24 3.44772 24 4V6C24 6.55228 23.5523 7 23 7H1C0.447716 7 0 6.55228 0 6V4Z" fill="#004152"/>
<path d="M0 11C0 10.4477 0.447715 10 1 10H23C23.5523 10 24 10.4477 24 11V13C24 13.5523 23.5523 14 23 14H1C0.447716 14 0 13.5523 0 13V11Z" fill="#004152"/>
<path d="M0 18C0 17.4477 0.447715 17 1 17H23C23.5523 17 24 17.4477 24 18V20C24 20.5523 23.5523 21 23 21H1C0.447716 21 0 20.5523 0 20V18Z" fill="#004152"/>
</svg>
