<svg width="24" height="24" viewBox="0 0 24 24" fill="none" xmlns="http://www.w3.org/2000/svg">
<path fill-rule="evenodd" clip-rule="evenodd" d="M19.8916 13.8999L18.1693 11.0507C18.5591 10.8967 18.984 10.8121 19.4286 10.8121C21.3221 10.8121 22.8571 12.3471 22.8571 14.2406C22.8571 16.1342 21.3221 17.6692 19.4286 17.6692C17.535 17.6692 16 16.1342 16 14.2406C16 13.2019 16.4619 12.2711 17.1915 11.6424L18.9136 14.4911C19.0768 14.7612 19.4281 14.8478 19.6982 14.6846C19.9683 14.5213 20.0549 14.17 19.8916 13.8999ZM19.4286 9.66923C18.7674 9.66923 18.1391 9.80957 17.5717 10.0621L16.5118 8.30875C16.4868 8.16804 16.4093 8.03953 16.2961 7.9519L14.7921 5.46383C14.6663 5.25583 14.4291 5.15666 14.2033 5.19663C14.182 5.19424 14.1604 5.19301 14.1385 5.19301H11.671C11.3554 5.19301 11.0996 5.44884 11.0996 5.76443C11.0996 6.08003 11.3554 6.33586 11.671 6.33586H13.9838L14.9156 7.8774L8.04836 8.16512L7.67234 7.61897C7.70484 7.54717 7.72294 7.46746 7.72294 7.38353C7.72294 7.06793 7.4671 6.8121 7.15151 6.8121H4.19047C3.87488 6.8121 3.61904 7.06793 3.61904 7.38353C3.61904 7.69912 3.87488 7.95495 4.19047 7.95495H6.53357C6.54915 7.99416 6.56934 8.03224 6.59428 8.06847L7.21335 8.96763L6.47403 10.0827C5.89474 9.81723 5.25037 9.66923 4.57143 9.66923C2.0467 9.66923 0 11.7159 0 14.2407C0 16.7654 2.0467 18.8121 4.57143 18.8121C6.74463 18.8121 8.56364 17.2957 9.02806 15.2632H10.0411C10.37 15.7188 10.9038 16.0151 11.5065 16.0151C12.5059 16.0151 13.316 15.2004 13.316 14.1955C13.316 14.0438 13.2976 13.8965 13.2628 13.7556L15.9157 9.53187L16.594 10.6539C15.536 11.4912 14.8571 12.7866 14.8571 14.2407C14.8571 16.7654 16.9038 18.8121 19.4286 18.8121C21.9533 18.8121 24 16.7654 24 14.2407C24 11.7159 21.9533 9.66923 19.4286 9.66923ZM9.69849 14.1204C9.71389 13.739 9.84604 13.3879 10.0599 13.1022L7.91189 9.98224L7.44558 10.6856C8.45193 11.5002 9.10548 12.7334 9.14131 14.1204H9.69849ZM11.5065 12.376C11.3298 12.376 11.1591 12.4014 10.9977 12.4489L8.81382 9.27692L14.8861 9.02251L12.5643 12.719C12.2668 12.5032 11.9014 12.376 11.5065 12.376ZM3.62762 14.376C3.37579 14.7559 3.64814 15.2632 4.10388 15.2632H7.84491C7.40987 16.6573 6.10882 17.6692 4.57142 17.6692C2.67787 17.6692 1.14285 16.1342 1.14285 14.2406C1.14285 12.3471 2.67787 10.8121 4.57142 10.8121C5.01649 10.8121 5.44176 10.8969 5.83194 11.0512L3.62762 14.376ZM7.99792 14.1204C7.96381 13.1311 7.51057 12.2482 6.81024 11.6439L5.16834 14.1204H7.99792Z" fill="#D6DFDF"/>
<path fill-rule="evenodd" clip-rule="evenodd" d="M17.146 6.14693C16.9507 5.95167 16.6341 5.95167 16.4389 6.14693L12 10.5858L7.56115 6.14695C7.36589 5.95169 7.04931 5.95169 6.85404 6.14695L6.14694 6.85406C5.95168 7.04932 5.95168 7.3659 6.14694 7.56116L10.5858 12L6.14693 16.4389C5.95167 16.6341 5.95167 16.9507 6.14693 17.146L6.85404 17.8531C7.0493 18.0483 7.36589 18.0483 7.56115 17.8531L12 13.4142L16.4389 17.8531C16.6341 18.0484 16.9507 18.0484 17.146 17.8531L17.8531 17.146C18.0484 16.9507 18.0484 16.6342 17.8531 16.4389L13.4142 12L17.8531 7.56115C18.0483 7.36589 18.0483 7.0493 17.8531 6.85404L17.146 6.14693Z" fill="#E5312A"/>
</svg>
