<svg width="24" height="24" viewBox="0 0 24 24" fill="none" xmlns="http://www.w3.org/2000/svg">
<path fill-rule="evenodd" clip-rule="evenodd" d="M22.6286 15.8769H24V11.7415L21.9429 8.98461H18.1622V13.9384H17.8378V8.98461H17.8286V8.29538H21.9429V6.91691C21.9429 6.22768 21.2571 5.53845 21.2571 5.53845H13.0286L10.9714 6.91691H0.685714V13.8092L0 14.4985V15.8769H2.74286C2.74286 15.8769 3.42857 13.8092 5.48571 13.8092C7.54286 13.8092 8.22857 15.8769 8.22857 15.8769H17.1429C17.8286 14.4985 18.5143 13.8092 19.8857 13.8092C21.9429 13.8092 22.6286 15.8769 22.6286 15.8769ZM8.22857 8.98463H6.17143V12.4308H8.22857V8.98463ZM13.0286 8.98463H15.7714V10.3631H13.0286V8.98463ZM21.2571 9.67385H19.8857V11.7415H22.6286L21.2571 9.67385ZM3.42856 16.421C3.42856 17.548 4.34958 18.4615 5.48571 18.4615C6.62184 18.4615 7.54285 17.548 7.54285 16.421C7.54285 15.2941 6.62184 14.3805 5.48571 14.3805C4.34958 14.3805 3.42856 15.2941 3.42856 16.421ZM7.02112 16.421C7.02112 17.2626 6.33357 17.9446 5.48572 17.9446C4.63787 17.9446 3.95032 17.2626 3.95032 16.421C3.95032 15.5795 4.63787 14.8975 5.48572 14.8975C6.33357 14.8975 7.02112 15.5795 7.02112 16.421ZM17.8286 16.421C17.8286 17.548 18.7496 18.4615 19.8857 18.4615C21.0218 18.4615 21.9429 17.548 21.9429 16.421C21.9429 15.2941 21.0218 14.3805 19.8857 14.3805C18.7496 14.3805 17.8286 15.2941 17.8286 16.421ZM21.4211 16.421C21.4211 17.2626 20.7336 17.9446 19.8857 17.9446C19.0379 17.9446 18.3503 17.2626 18.3503 16.421C18.3503 15.5795 19.0379 14.8975 19.8857 14.8975C20.7336 14.8975 21.4211 15.5795 21.4211 16.421Z" fill="#D6DFDF"/>
</svg>
