<svg width="24" height="24" viewBox="0 0 24 24" fill="none" xmlns="http://www.w3.org/2000/svg">
<path fill-rule="evenodd" clip-rule="evenodd" d="M23.1961 20.4C22.862 20.184 22.3998 20.1206 21.9862 20.079C21.5913 20.0392 21.2394 20.056 20.8963 20.0723C20.4328 20.0944 19.9855 20.1157 19.4702 19.9958C18.8979 19.8626 18.3541 19.1937 18.0874 18.71C17.7814 18.155 17.6257 17.518 17.4705 16.8835L17.4705 16.8834C17.4052 16.6164 17.34 16.3498 17.2638 16.0899C17.3698 16.028 17.4644 15.9719 17.5519 15.9201L17.552 15.92C17.7223 15.8191 17.8652 15.7344 18.0109 15.6551C20.853 14.1097 19.9798 9.76862 18.5536 6.90794C18.1542 6.1068 17.8527 5.54661 17.5556 4.99472C17.0892 4.12805 16.6338 3.28186 15.8272 1.55519C15.5008 0.856652 15.1819 0.954833 14.6573 1.11632L14.5779 1.14067C14.1429 1.27307 13.8163 1.373 13.5579 1.45203L13.5576 1.45212L13.3574 1.51338C13.2159 1.31571 12.9726 1.20103 12.6389 1.11847C12.234 1.01823 11.9209 0.94105 11.6692 0.879027C11.1591 0.753327 10.9017 0.68987 10.6451 0.622787C10.3836 0.554397 10.123 0.482237 9.59689 0.336513C9.35232 0.268778 9.05037 0.185149 8.66425 0.0786182C8.08465 -0.0811106 7.69269 -0.0287299 7.42813 0.530429C7.14812 1.12209 6.85234 1.70818 6.55657 2.29427L6.55656 2.29428C5.89888 3.59749 5.24124 4.90064 4.75699 6.26471C3.8214 8.90056 2.84312 13.2268 5.33594 14.5482C5.55261 14.6631 5.77232 14.7721 6.00489 14.8875L6.00543 14.8877C6.11294 14.9411 6.22321 14.9958 6.33719 15.053C6.31106 15.2066 6.28616 15.3546 6.26215 15.4975L6.26212 15.4976C5.73363 18.6407 5.63276 19.2407 2.30534 19.2454C2.23518 19.2456 2.16384 19.2407 2.09257 19.2357C1.94417 19.2255 1.79608 19.2153 1.65965 19.2508C1.35306 19.3308 1.02112 19.4228 0.776713 19.6093C0.179346 20.0652 0.253015 20.5554 0.965652 20.7466C4.10047 21.5888 6.19332 22.1361 9.33919 22.9362C10.0546 23.1184 10.3859 22.7138 10.0566 22.0427C9.88195 21.6866 9.51859 21.3952 9.18557 21.1477C8.86759 20.9112 8.55714 20.7452 8.25449 20.5834C7.84587 20.3649 7.45146 20.154 7.07192 19.7873C6.65028 19.3797 6.53024 18.5281 6.55213 17.9769C6.57713 17.3446 6.77333 16.7189 6.9688 16.0955C7.05114 15.8329 7.13335 15.5708 7.20258 15.3087C7.32549 15.31 7.43568 15.3104 7.53745 15.3109H7.53778H7.53781C7.73584 15.3117 7.902 15.3123 8.06797 15.319C9.6512 15.3833 10.7484 14.4077 11.5217 13.0279C12.3176 14.8983 13.5205 16.4839 15.27 16.3945C15.514 16.3818 15.7576 16.3629 16.0153 16.3428L16.0155 16.3428C16.1366 16.3333 16.2607 16.3236 16.3895 16.3143C16.4465 16.4591 16.5018 16.5986 16.5551 16.7332C17.7294 19.6984 17.9537 20.2646 15.104 21.9735C15.0442 22.0093 14.9809 22.0414 14.9175 22.0735L14.9175 22.0735C14.7845 22.141 14.6518 22.2083 14.553 22.3087C14.3315 22.5344 14.0947 22.7834 13.9818 23.0686C13.7058 23.7653 14.0226 24.1477 14.7324 23.9465C17.8555 23.0621 19.9328 22.4592 23.0437 21.5336C23.7512 21.323 23.8259 20.8065 23.1961 20.4ZM11.2924 8.78545C11.2362 8.13539 11.1089 7.23733 10.9845 6.35997C10.8789 5.61453 10.7753 4.88405 10.7193 4.33331C10.6489 3.6405 10.6136 3.23267 11.2666 3.05225C12.2834 2.77183 13.5359 2.38361 14.0291 2.23074L14.0291 2.23072L14.0294 2.23065C14.1195 2.20271 14.1842 2.18265 14.2175 2.17255C14.2547 2.16127 14.291 2.14974 14.3266 2.13847L14.3266 2.13846C14.6776 2.02721 14.9497 1.94097 15.1596 2.36138C15.6592 3.362 18.2357 8.37675 18.2357 8.37675L11.2924 8.78545ZM6.09115 5.13498C5.70439 6.03623 5.4862 7.05064 5.4862 7.05064H10.1232C10.0654 6.45711 10.0196 5.86107 9.97386 5.26499C9.92368 4.6111 9.8735 3.95715 9.8073 3.30639C9.74447 2.6914 10.0532 2.44588 10.633 2.28594C11.4219 2.0682 11.6569 1.99623 11.8468 1.93809C11.9306 1.91243 12.0056 1.88946 12.1155 1.85784C11.609 1.72116 10.7884 1.46921 10.0935 1.25586C9.46899 1.06411 8.94603 0.903539 8.84398 0.885887C8.79533 0.877409 8.74816 0.867413 8.70231 0.857697C8.42408 0.798737 8.19465 0.750116 7.98054 1.11395C7.8111 1.40193 6.64237 3.84982 6.09115 5.13498Z" fill="#004152"/>
</svg>
