<svg width="24" height="24" viewBox="0 0 24 24" fill="none" xmlns="http://www.w3.org/2000/svg">
<path fill-rule="evenodd" clip-rule="evenodd" d="M0.977788 6.75C0.43777 6.75 0 7.18777 0 7.72779V16.2501C0 16.8024 0.447715 17.2501 1 17.2501H1.02412C1.56894 17.2501 2.01059 16.8084 2.01059 16.2636C2.01059 15.7188 2.45225 15.2772 2.99707 15.2772H21.0539C21.5987 15.2772 22.0404 15.7222 22.0404 16.267C22.0404 16.8081 22.479 17.2501 23.0202 17.2501C23.5613 17.2501 24 16.8114 24 16.2703V10.2253C24 9.67516 23.554 9.2292 23.0039 9.2292C22.4538 9.2292 22.0078 9.67516 22.0078 10.2253V11.5873C22.0078 12.1396 21.5601 12.5873 21.0078 12.5873H2.95557C2.40329 12.5873 1.95558 12.1396 1.95558 11.5873V7.72779C1.95558 7.18777 1.51781 6.75 0.977788 6.75ZM7.11851 11.9739C6.52205 11.9739 6.03731 11.439 6.28859 10.8981C6.71039 9.99 7.53412 9.47179 8.64639 9.46356C11.791 9.44045 14.936 9.43918 18.0806 9.46371C19.2076 9.47253 20.0832 10.0655 20.4587 10.9801C20.6713 11.4979 20.1985 11.9739 19.6387 11.9739H7.11851ZM2.67372 10.6026C2.69146 11.4431 3.3463 12.0595 4.2108 12.0492C5.04584 12.0394 5.71761 11.3731 5.71647 10.5562C5.71517 9.70768 5.00921 9.05061 4.12534 9.07561C3.27078 9.09983 2.65549 9.74692 2.67372 10.6026Z" fill="#004152"/>
</svg>
