<svg width="12" height="12" viewBox="0 0 12 12" fill="none" xmlns="http://www.w3.org/2000/svg">
    <path d="M7.94 11.852a.5.5 0 0 0 .706 0l.708-.707a.5.5 0 0 0 0-.707L4.915 6l4.439-4.438a.5.5 0 0 0 0-.707L8.646.147a.5.5 0 0 0-.707 0L2.442 5.645a.498.498 0 0 0-.147.356c0 .128.049.256.147.354l5.497 5.497z" fill="#004152"/>
</svg>
