<svg width="16" height="16" viewBox="0 0 16 16" fill="none" xmlns="http://www.w3.org/2000/svg">
<path d="M0.159509 8.36159C-0.0531693 8.14891 -0.0531692 7.85116 0.159509 7.63849L4.41307 3.38493C4.62574 3.17225 4.96603 3.17225 5.13617 3.38493L5.98688 4.23564C6.19956 4.40578 6.19956 4.74606 5.98688 4.95874L3.81757 6.95792L15.4896 6.95792C15.7873 6.95792 16 7.21313 16 7.46834L16 8.4892C16 8.78695 15.7873 8.99962 15.4896 8.99962L3.81757 8.99962L5.98689 11.0413C6.19956 11.254 6.19956 11.5943 5.98689 11.7644L5.13617 12.6151C4.96603 12.8278 4.62575 12.8278 4.41307 12.6151L0.159509 8.36159Z" fill="#004152"/>
</svg>
