<svg width="24" height="24" viewBox="0 0 24 24" fill="none" xmlns="http://www.w3.org/2000/svg">
<path d="M11.4577 0.239262C11.7767 -0.0797553 12.2233 -0.0797553 12.5423 0.239262L18.9227 6.6196C19.2417 6.93862 19.2417 7.44904 18.9227 7.70426L17.6466 8.98033C17.3914 9.29934 16.881 9.29934 16.5619 8.98033L13.5632 5.72635L13.5632 23.2344C13.5632 23.681 13.1804 24 12.7975 24L11.2663 24C10.8196 24 10.5006 23.681 10.5006 23.2344L10.5006 5.72635L7.43806 8.98033C7.11905 9.29934 6.60862 9.29934 6.3534 8.98033L5.07734 7.70426C4.75832 7.44904 4.75832 6.93862 5.07734 6.6196L11.4577 0.239262Z" fill="#004152"/>
</svg>
