<svg width="11" height="10" viewBox="0 0 11 10" fill="none" xmlns="http://www.w3.org/2000/svg">
<path d="M7.11611 9.87698C7.27882 10.0397 7.54264 10.0397 7.70536 9.87698L8.29462 9.28773C8.45734 9.12501 8.45734 8.86119 8.29462 8.69847L4.5961 4.99996L8.29462 1.30144C8.45733 1.13872 8.45733 0.874904 8.29462 0.712186L7.70536 0.12293C7.54264 -0.0397882 7.27882 -0.0397882 7.1161 0.12293L2.53464 4.70439C2.45291 4.78613 2.41223 4.89338 2.4126 5.0005C2.41251 5.10727 2.45319 5.21406 2.53464 5.29552L7.11611 9.87698Z" fill="white"/>
</svg>
