<svg width="16" height="16" viewBox="0 0 16 16" fill="none" xmlns="http://www.w3.org/2000/svg">
<path d="M15.8405 8.36159C16.0532 8.14891 16.0532 7.85116 15.8405 7.63849L11.5869 3.38493C11.3743 3.17225 11.034 3.17225 10.8638 3.38493L10.0131 4.23564C9.80044 4.40578 9.80044 4.74606 10.0131 4.95874L12.1824 6.95792L0.510427 6.95792C0.212678 6.95792 5.57787e-08 7.21313 4.46229e-08 7.46834L0 8.4892C-1.3015e-08 8.78695 0.212678 8.99962 0.510427 8.99962L12.1824 8.99962L10.0131 11.0413C9.80044 11.254 9.80044 11.5943 10.0131 11.7644L10.8638 12.6151C11.034 12.8278 11.3743 12.8278 11.5869 12.6151L15.8405 8.36159Z" fill="#004152"/>
</svg>
