<svg width="24" height="24" viewBox="0 0 24 24" fill="none" xmlns="http://www.w3.org/2000/svg">
<path fill-rule="evenodd" clip-rule="evenodd" d="M23.9913 6.71626L23.9943 6.66207L23.9972 6.60779L24.0001 6.5539C23.9737 6.49454 23.9794 6.42967 23.9851 6.36556C23.9861 6.35328 23.9872 6.34102 23.9881 6.32884C24.0088 6.03134 23.9498 5.75011 23.8913 5.47107C23.8747 5.39198 23.8581 5.31308 23.8434 5.23403C23.8065 5.03524 23.7277 4.83949 23.65 4.6465C23.6379 4.61647 23.6258 4.5865 23.614 4.5566C23.4708 4.19589 23.2891 3.85898 23.067 3.55415C22.7978 3.18474 22.4949 2.8416 22.1371 2.54758C21.8694 2.32762 21.5802 2.1452 21.2782 1.97786C20.9697 1.8069 20.6414 1.67508 20.2931 1.58581C19.7262 1.44053 19.1508 1.33675 18.5401 1.42065C18.3697 1.44406 18.1996 1.47333 18.0294 1.5026L18.0293 1.50261C17.9519 1.51593 17.8744 1.52926 17.7969 1.54203C17.7117 1.5762 17.6259 1.60773 17.5402 1.63926L17.5401 1.63928C17.3323 1.71565 17.1246 1.79199 16.926 1.90589C16.6083 2.0881 16.5583 2.13297 16.6184 2.47407C16.7189 3.04484 16.842 3.61041 17.0626 4.13611C17.0886 4.19805 17.1089 4.26222 17.1293 4.32652L17.1293 4.32654C17.1623 4.43075 17.1954 4.53529 17.253 4.63126C17.3833 4.84843 17.5057 5.07316 17.6209 5.30018C17.8998 5.84925 18.2873 6.31279 18.7078 6.74435C19.1115 7.15868 19.5427 7.54882 20.0531 7.84068C20.1441 7.8927 20.2322 7.9491 20.3204 8.0055L20.3204 8.00552L20.3204 8.00554C20.4964 8.11809 20.6723 8.23064 20.8707 8.30843C21.0221 8.36779 21.1725 8.42923 21.3229 8.49066C21.4551 8.54464 21.5872 8.59861 21.7201 8.65118C22.1435 8.8187 22.5925 8.91048 23.0516 8.97213C23.1595 8.98664 23.2288 8.94377 23.2914 8.84447C23.6449 8.28338 23.8583 7.6854 23.9457 7.05211C23.9487 7.02971 23.9501 7.00717 23.9514 6.98463C23.9546 6.93064 23.9578 6.87663 23.9849 6.8244L23.9883 6.77051L23.9913 6.71626ZM14.9629 8.5047C14.9697 8.51414 14.9746 8.52469 14.9775 8.53641C15.1021 8.60132 15.1584 8.72005 15.2148 8.8392C15.2474 8.9079 15.28 8.97673 15.3258 9.03548C15.7358 9.5612 16.2026 10.016 16.7796 10.3683C17.2516 10.6565 17.7831 10.818 18.318 10.9806L18.357 10.9924L18.3694 10.9937C18.5273 10.9775 18.675 11.0006 18.823 11.0236C18.9562 11.0444 19.0896 11.0652 19.2306 11.0573C19.2477 11.0564 19.2657 11.0538 19.284 11.0511C19.3445 11.0424 19.4083 11.0332 19.4523 11.0814L19.4593 11.0821C19.936 11.0204 20.4112 10.9171 20.8854 10.7708C21.2087 10.671 21.513 10.5113 21.8096 10.33C21.9258 10.259 21.9223 10.1713 21.8199 10.1382C21.7547 10.1171 21.6924 10.0911 21.63 10.0651C21.5218 10.02 21.4133 9.97476 21.2893 9.95472C20.9414 9.89852 20.6271 9.75915 20.3235 9.61508C20.2439 9.57734 20.1634 9.54119 20.0828 9.50502C19.8779 9.41303 19.6727 9.32089 19.4821 9.20214C18.9442 8.86682 18.4288 8.50995 17.96 8.08729C17.5216 7.6922 17.1499 7.23792 16.8171 6.75683C16.5404 6.35666 16.2871 5.92875 16.116 5.45156C16.0646 5.30819 16.0052 5.1689 15.9457 5.02964L15.9457 5.0296L15.9457 5.02959L15.9457 5.02958C15.8767 4.86817 15.8078 4.7068 15.7515 4.53915C15.6788 4.32255 15.6365 4.09015 15.5945 3.85929L15.5835 3.79917C15.5623 3.68334 15.5383 3.57861 15.4574 3.49542C15.3592 3.39457 15.2925 3.42404 15.2138 3.55921C14.726 4.39771 14.4931 5.25692 14.4727 6.14841C14.4626 6.59106 14.4942 7.0205 14.5953 7.42309L14.6003 7.44299C14.6789 7.75658 14.7597 8.0786 14.9363 8.34605C14.9402 8.35192 14.9445 8.35786 14.9489 8.36392C14.9757 8.40068 15.0059 8.44224 14.9629 8.5047ZM6.94511 9.79715L6.94461 9.85584L6.86914 10.8838L6.86869 10.8901C6.85163 10.9068 6.85055 10.9231 6.86563 10.9389L6.86501 10.9451C6.84671 10.9623 6.84606 10.9791 6.86146 10.9957L6.86107 11.0001L6.85426 11.0531L6.85403 11.0545C6.78712 11.2296 6.73163 11.4072 6.67606 11.585C6.60277 11.8196 6.52936 12.0546 6.42946 12.2846C6.2753 12.6396 6.098 12.9839 5.88562 13.2999C5.54224 13.8109 5.17293 14.3098 4.76255 14.7753C4.40965 15.1756 4.05424 15.5737 3.69883 15.9718L3.69873 15.9719C3.56323 16.1237 3.42772 16.2754 3.29236 16.4273C2.70958 17.0812 2.19334 17.7778 1.81571 18.5629C1.7811 18.6348 1.74967 18.7121 1.77381 18.792L1.77357 18.7929C1.66093 19.115 1.56207 19.4355 1.55963 19.7756C1.55884 19.8863 1.58013 19.9896 1.60137 20.0926C1.61865 20.1764 1.6359 20.26 1.64117 20.3473C1.67345 20.8827 2.0325 21.1028 2.56734 20.9256L2.56824 20.9254C2.63433 20.9445 2.69065 20.9137 2.74734 20.8827C2.75593 20.8781 2.76454 20.8734 2.77319 20.8688C3.02193 20.7386 3.23035 20.554 3.43874 20.3694C3.53715 20.2822 3.63555 20.195 3.73818 20.1136C3.81123 20.0556 3.8732 19.9708 3.87254 19.8722C3.87173 19.7536 3.86643 19.6354 3.86113 19.5173C3.85891 19.4677 3.85668 19.418 3.85479 19.3684L3.85548 19.3605C3.87514 19.3445 3.87694 19.3283 3.8605 19.3119L3.86123 19.3074C3.8742 19.2715 3.8868 19.2352 3.89942 19.1988C3.96855 18.9996 4.03853 18.798 4.17645 18.6344C4.8255 17.8646 5.48455 17.103 6.1435 16.3414L6.14375 16.3411L6.15125 16.3324C6.37504 16.0738 6.60082 15.8169 6.82661 15.56L6.82679 15.5597C7.08643 15.2643 7.34607 14.9689 7.60267 14.6708C8.03533 14.1683 8.46875 13.666 8.90482 13.1669C9.01769 13.0378 9.13022 12.9082 9.24278 12.7786L9.24281 12.7786C9.50035 12.482 9.75802 12.1854 10.0203 11.8928C10.3666 11.5064 10.7046 11.1126 11.0426 10.7189L11.0427 10.7188C11.1984 10.5374 11.3542 10.356 11.5107 10.1753C11.8769 9.75264 12.2435 9.33043 12.6108 8.90879L12.685 8.82353L12.6851 8.82347C12.879 8.60074 13.073 8.37803 13.2706 8.15854C13.3934 8.02209 13.5259 8.0043 13.5816 8.11204C13.6186 8.18351 13.6515 8.25737 13.6845 8.33124L13.6845 8.33125L13.6845 8.3313C13.7104 8.38957 13.7364 8.44784 13.7644 8.50496C13.8005 8.57875 13.8339 8.65483 13.8673 8.73095L13.8673 8.73096C13.9464 8.91125 14.0256 9.09172 14.1418 9.24213C14.1831 9.29563 14.2243 9.34925 14.2654 9.40285C14.6333 9.8821 15.0004 10.3604 15.4852 10.7439C15.9156 11.0844 16.3711 11.3723 16.8609 11.6161C17.1058 11.738 17.1205 11.8756 16.8798 12.0562C16.8623 12.0693 16.8464 12.0849 16.8306 12.1004L16.8305 12.1004C16.817 12.1137 16.8034 12.127 16.7887 12.1388L16.7189 12.1951C16.2269 12.5922 15.735 12.9892 15.2421 13.3852C15.0117 13.5704 14.7808 13.7551 14.55 13.9398L14.5499 13.9399C14.2856 14.1513 14.0214 14.3627 13.7577 14.5748C13.5302 14.7579 13.3032 14.9418 13.0763 15.1257C12.8706 15.2924 12.6649 15.4591 12.4587 15.6252C12.3149 15.7411 12.1705 15.8562 12.026 15.9714C11.8186 16.1367 11.6112 16.3021 11.4055 16.4696C11.2417 16.6031 11.0799 16.7393 10.9181 16.8755L10.918 16.8755L10.918 16.8755C10.605 17.139 10.292 17.4024 9.96489 17.6459C9.58253 17.9304 9.2127 18.2311 8.84315 18.5315C8.69058 18.6556 8.53807 18.7796 8.38474 18.9024L7.9927 19.216C7.45366 19.647 6.91439 20.0782 6.38102 20.5167C6.12289 20.729 5.8476 20.926 5.49952 20.9165C5.40185 20.9138 5.30354 20.9141 5.20528 20.92C5.07075 20.9282 4.96618 20.9782 4.85971 21.0912C4.21571 21.7747 3.47655 22.2965 2.57406 22.5433C2.11359 22.6692 1.67847 22.6074 1.3021 22.4238C0.694237 22.1274 0.243708 21.6585 0.0921778 20.955L0.0921661 20.954C0.129277 20.8595 0.109104 20.7681 0.0801051 20.6868C-0.0132931 20.4254 -0.00375412 20.1486 0.00585248 19.8698L0.00624291 19.8584C0.00747587 19.8224 0.0108577 19.7861 0.0142424 19.7498C0.0224317 19.662 0.0306381 19.574 0.00846648 19.4888L0.00913848 19.4783C0.027063 19.4632 0.0275372 19.4485 0.0120876 19.4343L0.013517 19.4236C0.032147 19.4083 0.0359098 19.3922 0.0206187 19.3751L0.0213827 19.3711C0.0568513 19.0679 0.153101 18.7754 0.249398 18.4828L0.267776 18.4269C0.274204 18.4074 0.271454 18.3856 0.268704 18.3639C0.267424 18.3537 0.266143 18.3436 0.26579 18.3337L0.266087 18.3321C0.290881 18.2651 0.329143 18.204 0.367044 18.1434C0.396789 18.0958 0.426312 18.0486 0.448927 17.9993C0.724883 17.3972 1.05954 16.8347 1.46836 16.2991C1.88729 15.7502 2.34797 15.2403 2.80906 14.7299L2.80907 14.7299L2.98813 14.5315C3.4501 14.0188 3.89501 13.494 4.30922 12.9431C4.44885 12.7575 4.56114 12.5587 4.67359 12.3596C4.71392 12.2882 4.75428 12.2167 4.79593 12.1458C5.04682 11.7187 5.21406 11.2685 5.31569 10.7993C5.40275 10.3974 5.35813 10.01 5.31349 9.62235C5.28631 9.38637 5.25913 9.15034 5.26164 8.91095C5.26196 8.87946 5.25096 8.84626 5.23663 8.81894C5.14456 8.64317 5.0977 8.44746 5.05148 8.2544C5.03994 8.20622 5.02845 8.15821 5.0163 8.11072C4.93062 7.77582 4.77805 7.47878 4.62554 7.18187L4.62553 7.18185C4.56362 7.06131 4.50172 6.9408 4.44431 6.81777C4.30578 6.521 4.11402 6.25817 3.92294 5.99627C3.88962 5.95059 3.85631 5.90494 3.82331 5.85915C3.47648 5.37785 3.08195 4.93839 2.66304 4.5189C2.4968 4.35247 2.32075 4.19673 2.14478 4.04107L2.14477 4.04107C1.94134 3.86111 1.73803 3.68126 1.55011 3.48509C1.40756 3.33626 1.31996 3.14163 1.36508 2.92502C1.47588 2.39337 1.96205 2.0755 2.43816 2.24061C2.7297 2.34169 2.95041 2.54415 3.16862 2.74433L3.16863 2.74433C3.22103 2.7924 3.27329 2.84034 3.32635 2.88672C3.74778 3.25501 4.13583 3.65989 4.50311 4.08521C4.83789 4.47277 5.13874 4.88356 5.42793 5.30682C5.64342 5.62223 5.83611 5.94985 6.00909 6.29086C6.03203 6.33608 6.05536 6.38122 6.07871 6.4264L6.07876 6.42649C6.18534 6.63269 6.2924 6.83982 6.36525 7.06028L6.41694 7.21606C6.60333 7.77655 6.79005 8.33806 6.85831 8.94034C6.87062 9.04916 6.89708 9.1551 6.92355 9.26106L6.92355 9.26106L6.92355 9.26108C6.93571 9.30974 6.94787 9.3584 6.95865 9.40734L6.95854 9.40979C6.94157 9.42836 6.94088 9.44591 6.95709 9.46241L6.95698 9.46597C6.93922 9.48416 6.93885 9.5015 6.95475 9.51804L6.95461 9.5218C6.93716 9.53989 6.9366 9.55716 6.95236 9.57368L6.95216 9.57755C6.93482 9.59564 6.93437 9.61284 6.94991 9.62938L6.94973 9.63333C6.93253 9.65133 6.93191 9.66859 6.94737 9.6851L6.94717 9.68903C6.93005 9.70705 6.92938 9.72432 6.94478 9.74089L6.9446 9.7449C6.92779 9.76404 6.92842 9.78139 6.94511 9.79715Z" fill="#004152"/>
</svg>
