<svg width="24" height="24" viewBox="0 0 24 24" fill="none" xmlns="http://www.w3.org/2000/svg">
<path fill-rule="evenodd" clip-rule="evenodd" d="M5.57142 18.8571H5.14285V10.2857H5.57142C5.88392 10.2857 6.18526 10.2321 6.47544 10.125C6.76562 10.0179 7.04463 9.85268 7.31249 9.62946C7.58035 9.40625 7.80356 9.20089 7.98214 9.01339C8.16071 8.82589 8.37946 8.58482 8.63839 8.29018C8.70982 8.20982 8.76339 8.14732 8.7991 8.10268C9.44196 7.37946 9.94196 6.73215 10.2991 6.16071C10.4241 5.96429 10.5937 5.66072 10.808 5.25C10.817 5.22321 10.8638 5.12277 10.9487 4.94866C11.0335 4.77455 11.1161 4.61384 11.1964 4.46652C11.2768 4.3192 11.3661 4.16072 11.4643 3.99107C11.5625 3.82143 11.6585 3.68527 11.7522 3.58259C11.846 3.47991 11.9286 3.42857 12 3.42857C12.6339 3.42857 13.1495 3.56473 13.5469 3.83705C13.9442 4.10938 14.1429 4.54464 14.1429 5.14286C14.1429 5.52679 14.0759 5.90402 13.942 6.27455C13.808 6.64509 13.6607 6.94866 13.5 7.18527C13.3393 7.42188 13.192 7.66741 13.058 7.92188C12.9241 8.17634 12.8571 8.39286 12.8571 8.57143H20.5714C21.0179 8.57143 21.4152 8.7433 21.7634 9.08705C22.1116 9.43081 22.2857 9.83036 22.2857 10.2857C22.2857 10.75 22.1161 11.1518 21.7768 11.4911C21.4375 11.8304 21.0357 12 20.5714 12H16.1384C16.2723 12.1518 16.3839 12.3638 16.4732 12.6362C16.5625 12.9085 16.6071 13.1563 16.6071 13.3795C16.6071 13.9955 16.3705 14.5268 15.8973 14.9732C16.058 15.2589 16.1384 15.567 16.1384 15.8973C16.1384 16.2277 16.0603 16.5558 15.904 16.8817C15.7478 17.2076 15.5357 17.442 15.2679 17.5848C15.3036 17.7991 15.3214 18.0491 15.3214 18.3348C15.3214 19.0938 15.1049 19.6563 14.6719 20.0223C14.2388 20.3884 13.6339 20.5714 12.8571 20.5714C12.1071 20.5714 11.2902 20.4286 10.4062 20.1429C9.52231 19.8571 8.65625 19.5714 7.80803 19.2857C6.95981 19 6.21428 18.8571 5.57142 18.8571ZM1.71428 18C1.71428 17.7679 1.7991 17.567 1.96875 17.3973C2.13839 17.2277 2.33928 17.1429 2.57143 17.1429C2.80357 17.1429 3.00446 17.2277 3.17411 17.3973C3.34375 17.567 3.42857 17.7679 3.42857 18C3.42857 18.2322 3.34375 18.4331 3.17411 18.6027C3.00446 18.7723 2.80357 18.8572 2.57143 18.8572C2.33928 18.8572 2.13839 18.7723 1.96875 18.6027C1.7991 18.4331 1.71428 18.2322 1.71428 18ZM0 10.2857V18.8572C0 19.3304 0.16741 19.7344 0.502234 20.0692C0.837057 20.404 1.24107 20.5714 1.71429 20.5714H5.57143C6.09822 20.5714 7.09374 20.8348 8.55804 21.3616C10.2545 21.9777 11.6696 22.2857 12.8036 22.2857C14.0714 22.2857 15.0982 21.9397 15.8839 21.2478C16.6696 20.5558 17.058 19.5848 17.0491 18.3348L17.0357 18.2679C17.5804 17.5893 17.8527 16.7947 17.8527 15.8839C17.8527 15.6875 17.8393 15.4955 17.8125 15.308C18.1071 14.7991 18.2723 14.2679 18.308 13.7143H20.5714C21.5089 13.7143 22.3147 13.375 22.9888 12.6964C23.6629 12.0179 24 11.2098 24 10.2723C24 9.35268 23.6607 8.55358 22.9821 7.87501C22.3036 7.19643 21.5 6.85715 20.5714 6.85715H15.5625C15.7589 6.32143 15.8571 5.75001 15.8571 5.14287C15.8571 4.05357 15.4933 3.20983 14.7656 2.61162C14.0379 2.0134 13.1161 1.71429 12 1.71429C11.6607 1.71429 11.3504 1.79242 11.0692 1.94867C10.7879 2.10492 10.5424 2.3259 10.3326 2.61162C10.1228 2.89733 9.94197 3.17858 9.79018 3.45537C9.63839 3.73215 9.47322 4.05358 9.29464 4.41965C9.11607 4.78572 8.96875 5.06251 8.85268 5.25001C8.54018 5.74108 8.09375 6.31697 7.51339 6.97769C7.49553 7.00447 7.43304 7.08037 7.32589 7.20537C7.21875 7.33037 7.13393 7.42635 7.07143 7.49331C7.00893 7.56028 6.91741 7.65626 6.79688 7.78126C6.67634 7.90626 6.5692 8.0067 6.47545 8.0826C6.3817 8.15849 6.28125 8.23885 6.17411 8.32367C6.06697 8.40849 5.96206 8.47099 5.85938 8.51117C5.7567 8.55135 5.66072 8.57144 5.57143 8.57144H1.71429C1.24107 8.57144 0.837057 8.73885 0.502234 9.07367C0.16741 9.40849 0 9.81251 0 10.2857Z" fill="#004152"/>
</svg>
