<svg width="24" height="24" viewBox="0 0 24 24" fill="none" xmlns="http://www.w3.org/2000/svg">
<path fill-rule="evenodd" clip-rule="evenodd" d="M0.105858 12.1184L1.02881 13.2359C1.1082 13.3265 1.2124 13.3819 1.34142 13.402H1.38608C1.51509 13.402 1.6193 13.3668 1.69869 13.2963L12 4.58245L22.3013 13.2963C22.4204 13.3769 22.5395 13.4121 22.6586 13.402C22.7876 13.3819 22.8918 13.3265 22.9712 13.2359L23.8941 12.1184C23.9735 12.0177 24.0083 11.8994 23.9983 11.7635C23.9884 11.6275 23.9338 11.5193 23.8346 11.4388L13.1314 2.39265C12.8138 2.13088 12.4367 2 12 2C11.5633 2 11.1862 2.13088 10.8686 2.39265L7.23639 5.47347L3.4255 8.6902L0.165403 11.4388C0.0661602 11.5193 0.0115776 11.6275 0.00165367 11.7635C-0.00827026 11.8994 0.0264645 12.0177 0.105858 12.1184ZM3.42544 20.4093V13.1604C3.42544 13.1201 3.43041 13.0899 3.44033 13.0697L11.9999 5.91138L20.5596 13.0697C20.5596 13.0798 20.562 13.0949 20.567 13.115C20.572 13.1352 20.5744 13.1503 20.5744 13.1604V20.4093C20.5744 20.6711 20.4802 20.8976 20.2916 21.0889C20.103 21.2802 19.8798 21.3759 19.6217 21.3759H13.9054V15.5767H10.0945V21.3759H4.37817C4.12014 21.3759 3.89684 21.2802 3.70828 21.0889C3.51972 20.8976 3.42544 20.6711 3.42544 20.4093Z" fill="#004152"/>
</svg>
