<svg width="24" height="24" viewBox="0 0 24 24" fill="none" xmlns="http://www.w3.org/2000/svg">
<path fill-rule="evenodd" clip-rule="evenodd" d="M19.8154 17.3023V10.6047C19.8154 6.86512 17.1809 3.73954 13.6758 2.98047V1.67442C13.6758 0.747907 12.9279 0 12.0014 0C11.0749 0 10.327 0.747907 10.327 1.67442V2.98047C6.82187 3.73954 4.18746 6.86512 4.18746 10.6047V17.3023L2.74746 18.7423C2.0442 19.4456 2.53536 20.6512 3.52885 20.6512H20.4628C21.4563 20.6512 21.9586 19.4456 21.2554 18.7423L19.8154 17.3023ZM12.0013 24C13.2292 24 14.2227 23.0065 14.2227 21.7786H9.77991C9.77991 23.0065 10.7734 24 12.0013 24ZM13.1177 12.8484H15.3503C15.9642 12.8484 16.4666 12.3461 16.4666 11.7321V11.7209C16.4666 11.107 15.9642 10.6047 15.3503 10.6047H13.1177V8.3721C13.1177 7.75815 12.6154 7.25582 12.0014 7.25582C11.3875 7.25582 10.8852 7.75815 10.8852 8.3721V10.6047H8.6526C8.03864 10.6047 7.53632 11.107 7.53632 11.7209V11.7321C7.53632 12.3461 8.03864 12.8484 8.6526 12.8484H10.8852V15.0809C10.8852 15.6949 11.3875 16.1972 12.0014 16.1972C12.6154 16.1972 13.1177 15.6949 13.1177 15.0809V12.8484Z" fill="#004152"/>
</svg>
