<svg width="24" height="24" viewBox="0 0 24 24" fill="none" xmlns="http://www.w3.org/2000/svg">
<path fill-rule="evenodd" clip-rule="evenodd" d="M21.1803 12.7619C21.2257 12.4709 21.2453 12.2874 21.2453 12.0574C21.2453 11.6217 21.2372 11.3557 21.2001 11.1261L23.358 9.4032C23.8032 8.96864 23.8654 8.47771 23.6289 8.01117L21.285 3.96394L21.1912 3.84281C20.8821 3.53794 20.4083 3.42113 19.8969 3.58927L17.2602 4.62847C16.8698 4.35061 16.4475 4.11692 15.7205 3.75402L15.3178 1.17201C15.4313 0.519978 14.8598 0 14.2593 0H9.60206C9.05871 0 8.43774 0.45933 8.43774 1.03349L8.02866 3.7192C7.77863 3.82739 7.52798 3.96437 7.25195 4.13761C7.11214 4.22536 6.75564 4.46506 6.50729 4.63253L4.00436 3.60397C3.41339 3.40808 2.95981 3.55719 2.55378 3.95764L2.45997 4.07877L0.158235 8.05147C-0.16962 8.46815 0.0519616 9.0773 0.458001 9.47776L2.70828 11.1746C2.70128 11.2226 2.69238 11.2807 2.68112 11.3529C2.63572 11.6439 2.61613 11.8274 2.61613 12.0574C2.61613 12.4932 2.62421 12.7591 2.66129 12.9887L0.503356 14.7116C0.0582209 15.1462 -0.00400095 15.6371 0.232518 16.1037L2.5764 20.1509L2.67021 20.272C2.97933 20.5769 3.45309 20.6937 3.96455 20.5256L6.60117 19.4864C6.99165 19.7642 7.41389 19.9979 8.14086 20.3608L8.56094 23.0538C8.55417 23.551 9.08529 24 9.71849 24H14.3758C14.9191 24 15.5401 23.5407 15.5401 22.9665L15.9527 20.3612C16.68 19.9981 17.1024 19.7644 17.493 19.4864L20.0976 20.514C20.5739 20.7511 21.2729 20.5213 21.5331 20.008L23.8465 16.0169C24.1202 15.479 24.0444 14.8054 23.485 14.5295L21.1554 12.9247C21.162 12.8798 21.1702 12.8266 21.1803 12.7619ZM7.27332 12.0574C7.27332 14.5563 9.39688 16.6507 11.9306 16.6507C14.4643 16.6507 16.5879 14.5563 16.5879 12.0574C16.5879 9.5585 14.4643 7.46412 11.9306 7.46412C9.39688 7.46412 7.27332 9.5585 7.27332 12.0574Z" fill="#004152"/>
</svg>
