<svg width="24" height="24" viewBox="0 0 24 24" fill="none" xmlns="http://www.w3.org/2000/svg">
<path d="M15.8787 0.29509C16.2692 -0.0954338 16.9024 -0.0954338 17.2929 0.29509L18.7071 1.7093C19.0976 2.09983 19.0976 2.73299 18.7071 3.12352L9.83067 12L18.7071 20.8764C19.0976 21.2669 19.0976 21.9001 18.7071 22.2906L17.2929 23.7048C16.9024 24.0953 16.2692 24.0953 15.8787 23.7048L4.88316 12.7093C4.687 12.5131 4.58937 12.2557 4.59028 11.9986C4.59004 11.7424 4.68767 11.4861 4.88317 11.2906L15.8787 0.29509Z" fill="#004152"/>
</svg>
