<svg width="24" height="24" viewBox="0 0 24 24" fill="none" xmlns="http://www.w3.org/2000/svg">
    <path fill-rule="evenodd" clip-rule="evenodd" d="m19.892 13.9-1.723-2.85a3.429 3.429 0 1 1-.978.592l1.723 2.85a.571.571 0 1 0 .978-.592zm-.463-4.23c-.662 0-1.29.14-1.857.392l-1.06-1.753a.582.582 0 0 0-.216-.357l-1.504-2.488a.572.572 0 0 0-.589-.267.58.58 0 0 0-.064-.004H11.67a.571.571 0 0 0 0 1.143h2.313l.932 1.541-6.868.288-.376-.546a.571.571 0 0 0-.52-.807H4.19a.571.571 0 1 0 0 1.143h2.344c.015.04.035.077.06.113l.62.9-.74 1.115a4.571 4.571 0 1 0 2.554 5.18h1.013c.329.456.863.752 1.466.752a1.814 1.814 0 0 0 1.756-2.26l2.653-4.223.678 1.122a4.571 4.571 0 1 0 2.835-.985zm-9.73 4.45c.015-.381.147-.732.36-1.018l-2.147-3.12-.466.704A4.563 4.563 0 0 1 9.14 14.12h.557zm1.808-1.744c-.177 0-.348.025-.51.073L8.815 9.277l6.072-.255-2.322 3.697a1.795 1.795 0 0 0-1.057-.343zm-7.88 2c-.251.38.021.887.477.887h3.74a3.43 3.43 0 0 1-6.701-1.022 3.429 3.429 0 0 1 4.689-3.19l-2.204 3.325zm4.37-.256a3.42 3.42 0 0 0-1.187-2.476L5.168 14.12h2.83z" fill="#004152"/>
</svg>
