<svg width="48" height="24" viewBox="0 0 48 24" fill="none" xmlns="http://www.w3.org/2000/svg">
<path fill-rule="evenodd" clip-rule="evenodd" d="M22.5188 2.87752V5.36353H23.936C24.1451 5.36353 24.3465 5.34805 24.5401 5.31707C24.7337 5.28609 24.9041 5.22607 25.0512 5.13701C25.1984 5.04794 25.3165 4.92209 25.4056 4.75946C25.4946 4.59682 25.5392 4.38385 25.5392 4.12053C25.5392 3.85721 25.4946 3.64424 25.4056 3.4816C25.3165 3.31896 25.1984 3.19312 25.0512 3.10405C24.9041 3.01499 24.7337 2.95497 24.5401 2.92399C24.3465 2.89301 24.1451 2.87752 23.936 2.87752H22.5188ZM20.6949 9.75471V1.46027H24.4355C24.9544 1.46027 25.3959 1.53578 25.7599 1.6868C26.1239 1.83782 26.4201 2.03724 26.6486 2.28506C26.877 2.53289 27.0435 2.81557 27.1481 3.1331C27.2526 3.45063 27.3049 3.77977 27.3049 4.12053C27.3049 4.45355 27.2526 4.78075 27.1481 5.10216C27.0435 5.42356 26.877 5.70817 26.6486 5.956C26.4201 6.20382 26.1239 6.40324 25.7599 6.55426C25.3959 6.70528 24.9544 6.78079 24.4355 6.78079H22.5188V9.75471H20.6949ZM30.1117 16.4066C30.1117 16.4066 33.8336 16.4066 35.2844 17.8673C36.0147 18.5977 36.0147 19.3281 35.9947 20.0585V21.5192C35.9947 21.5192 34.544 21.5792 34.544 21.5192H34.3239C34.4739 21.1991 34.564 20.8289 34.564 20.4487C34.564 19.0179 33.3934 17.8473 31.9627 17.8473C30.5319 17.8473 29.3613 19.0079 29.3613 20.4487C29.3613 20.8289 29.4514 21.189 29.6014 21.5192H19.2561C19.4062 21.1991 19.4962 20.8289 19.4962 20.4487C19.4962 19.0179 18.3357 17.8473 16.8949 17.8473C15.4642 17.8473 14.2936 19.0079 14.2936 20.4487C14.2936 20.8289 14.3736 21.189 14.5237 21.5192H12.0224C12.0224 21.4396 12.0202 21.3513 12.0179 21.2573C12.0152 21.1504 12.0124 21.036 12.0124 20.9189C11.9824 19.5482 11.9424 17.4671 12.7428 16.4066C12.8228 16.2965 13.8834 16.1264 14.8439 15.9764L15.0753 15.9384L15.0753 15.9384L15.0754 15.9384C15.768 15.825 16.3466 15.7303 16.3646 15.6762C17.085 13.4851 17.8154 12.7547 18.5358 12.7547H26.4998L30.1117 16.4066ZM17.8254 15.6762C17.8254 16.2265 18.5558 16.4066 18.5558 16.4066H22.5178V13.4851H18.5558C18.5558 13.4851 17.8254 15.246 17.8254 15.6762ZM23.3582 13.4851V16.4066H28.741L25.8295 13.4851H23.3582ZM16.8949 18.3376C15.7343 18.3376 14.7938 19.2781 14.7938 20.4387C14.7938 21.5993 15.7343 22.5397 16.8949 22.5397C18.0555 22.5397 18.996 21.5993 18.996 20.4387C18.996 19.2781 18.0555 18.3376 16.8949 18.3376ZM16.8949 21.9895C16.0445 21.9895 15.3541 21.2991 15.3541 20.4387C15.3541 19.5882 16.0445 18.8879 16.8949 18.8879C17.7454 18.8879 18.4357 19.5782 18.4357 20.4387C18.4357 21.2991 17.7454 21.9895 16.8949 21.9895ZM31.9727 18.3376C30.8121 18.3376 29.8716 19.2781 29.8716 20.4387C29.8716 21.5993 30.8121 22.5397 31.9727 22.5397C33.1333 22.5397 34.0737 21.5993 34.0737 20.4387C34.0637 19.2781 33.1333 18.3376 31.9727 18.3376ZM31.9727 21.9895C31.1222 21.9895 30.4319 21.2991 30.4319 20.4387C30.4319 19.5882 31.1222 18.8879 31.9727 18.8879C32.8231 18.8879 33.5134 19.5782 33.5134 20.4387C33.5134 21.2991 32.8231 21.9895 31.9727 21.9895Z" fill="#D6DFDF"/>
<path fill-rule="evenodd" clip-rule="evenodd" d="M29.146 6.14693C28.9507 5.95167 28.6341 5.95167 28.4389 6.14693L24 10.5858L19.5611 6.14695C19.3659 5.95169 19.0493 5.95169 18.854 6.14695L18.1469 6.85406C17.9517 7.04932 17.9517 7.3659 18.1469 7.56116L22.5858 12L18.1469 16.4389C17.9517 16.6341 17.9517 16.9507 18.1469 17.146L18.854 17.8531C19.0493 18.0483 19.3659 18.0483 19.5611 17.8531L24 13.4142L28.4389 17.8531C28.6341 18.0484 28.9507 18.0484 29.146 17.8531L29.8531 17.146C30.0483 16.9507 30.0483 16.6342 29.8531 16.4389L25.4142 12L29.8531 7.56115C30.0483 7.36589 30.0483 7.0493 29.8531 6.85404L29.146 6.14693Z" fill="#E5312A"/>
</svg>
