<svg width="48" height="24" viewBox="0 0 48 24" fill="none" xmlns="http://www.w3.org/2000/svg">
    <mask id="a" fill="#fff">
        <path fill-rule="evenodd" clip-rule="evenodd" d="M21.406 14.842h7.959c.483 0 .483 2.132 2.894 2.132-.049 0 .149-.015 0 0 1.872-.285 1.872-1.494 2.17-2.132h1.447c-.317 0 .397-2.131 0-2.842-1.03-.71-1.03-1.421-3.617-1.421-3.125 0-4.553-3.553-7.235-3.553h-6.512c-.8 0-2.229 2.842-2.894 2.842-.762 0-3.618 0-3.618.71v4.264h2.894c.676 0-.038 2.132 2.894 2.132 2.779 0 .637-2.132 3.618-2.132z"/>
    </mask>
    <path d="m32.259 16.974-.075-.494a.5.5 0 0 0 .125.992l-.05-.498zm2.17-2.132v-.5a.5.5 0 0 0-.453.289l.453.211zM35.877 12l.437-.244a.5.5 0 0 0-.153-.168l-.283.412zM12 14.842h-.5a.5.5 0 0 0 .5.5v-.5zm9.406-.5a5.1 5.1 0 0 0-.64.037l.125.992c.143-.018.313-.029.515-.029v-1zm-1.986.676c-.189.229-.284.48-.35.667-.075.211-.11.33-.176.44l.862.508c.128-.217.203-.464.257-.615.06-.173.109-.279.177-.362l-.77-.638zm-1.13 1.423c-.135.02-.3.033-.502.033v1c.242 0 .459-.015.653-.044l-.15-.989zm-.502.033a4.62 4.62 0 0 1-.446-.02l-.096.995c.17.017.35.025.542.025v-1zm-1.241-.214a1.205 1.205 0 0 1-.533-.45l-.839.544c.203.312.501.607.954.815l.418-.909zm-.861-1.263a1.249 1.249 0 0 0-.22-.395.748.748 0 0 0-.572-.26v1a.247.247 0 0 1-.178-.079c-.01-.01-.01-.014-.001.002.008.016.019.041.034.08l.937-.348zm-.792-.655H14.17v1H14.894v-1zm-2.17 0H12v1H12.724v-1zm-.724.5h.5V14.31h-1V14.842h.5zm.5-1.598V12.177h-1V13.244h1zm0-2.133V10.58h-1V11.111h1zm0-.532a.245.245 0 0 1-.019.093.182.182 0 0 1-.03.05c-.005.005-.004.003.008-.005a.434.434 0 0 1 .058-.033l-.44-.898c-.219.107-.577.345-.577.793h1zm.796-.09c.285-.04.6-.068.912-.087l-.058-.998c-.329.02-.675.05-.998.096l.144.99zm1.849-.118c.193-.003.356-.003.473-.003v-1c-.117 0-.286 0-.486.003l.013 1zm.473-.003a.9.9 0 0 0 .46-.14c.116-.07.225-.16.322-.252l-.69-.725a.925.925 0 0 1-.147.12c-.014.008-.017.009-.01.006a.204.204 0 0 1 .065-.009v1zm1.504-1.237c.214-.278.417-.553.625-.814l-.783-.622c-.213.268-.437.569-.635.827l.793.61zm1.251-1.5a.79.79 0 0 1 .143-.099c.032-.015.027-.006-.004-.006v-1c-.32 0-.592.182-.775.334l.636.77zm.139-.105H19.053v-1H18.512v1zm1.627 0H21.224v-1H20.14v1zm2.171 0H23.395v-1H22.31v1zm2.17 0H25.024v-1H24.48v1zm.544 0c.146 0 .289.012.427.036l.17-.985a3.514 3.514 0 0 0-.597-.051v1zm1.263.319c.268.133.534.302.804.498l.587-.81a6.698 6.698 0 0 0-.947-.584l-.444.896zm1.592 1.114c.26.213.531.44.81.656l.615-.788c-.266-.207-.524-.422-.792-.641l-.633.773zm1.69 1.283c.312.194.643.37.998.51l.366-.93a5.063 5.063 0 0 1-.832-.428l-.531.848zm2.112.8c.187.024.38.037.578.037v-1c-.155 0-.305-.01-.45-.029l-.128.992zm.578.037c.174 0 .335.003.483.01l.043-1c-.164-.007-.34-.01-.526-.01v1zm1.405.11c.359.073.59.175.773.289l.528-.85a3.242 3.242 0 0 0-1.102-.418l-.2.98zm1.489.88c.127.11.27.226.44.343l.567-.824a4.09 4.09 0 0 1-.355-.276l-.652.757zm.287.175c.028.05.063.189.06.46l1 .01c.003-.3-.024-.666-.187-.958l-.873.488zm-.097 1.842a4.015 4.015 0 0 0-.05.57c.001.077.008.2.057.322a.592.592 0 0 0 .17.236c.103.086.23.128.356.128v-1a.443.443 0 0 1 .401.262c.022.055.016.082.016.037a3.22 3.22 0 0 1 .04-.417l-.99-.138zm.533.256H35.514v1H35.877v-1zm-1.085 0H34.428v1H34.791v-1zm-.814.289c-.068.145-.12.305-.165.44l.95.312a3.09 3.09 0 0 1 .12-.329l-.905-.423zm-.434 1.093a1.312 1.312 0 0 1-.409.429l.553.833c.328-.217.552-.479.713-.747l-.857-.515zm-1.009.684a3.413 3.413 0 0 1-.35.072l.15.989c.161-.025.313-.056.454-.093l-.254-.968zm-.225 1.064.037-.004-.11-.994-.027.003.1.995zm-.081-1c-.005.001-.036.004-.066.01a.514.514 0 0 0-.03.006c-.007.002-.04.01-.078.026a.497.497 0 0 0-.301.502.5.5 0 0 0 .367.44.435.435 0 0 0 .14.018v-1a.45.45 0 0 1 .123.017.497.497 0 0 1 .366.44.5.5 0 0 1-.3.502.47.47 0 0 1-.104.032l-.022.003-.095-.995zm.03.002c-.15 0-.288-.01-.413-.026l-.134.99c.172.024.355.036.548.036v-1zm-1.141-.26a1.782 1.782 0 0 1-.555-.503l-.803.596c.206.278.481.559.864.776l.494-.87zm-.993-1.271a1.78 1.78 0 0 0-.218-.338.718.718 0 0 0-.541-.263v1a.332.332 0 0 1-.164-.042c-.035-.02-.05-.04-.049-.037a1.741 1.741 0 0 1 .087.147l.885-.467zm-.76-.6H28.866v1H29.364v-1zm-1.491 0H26.878v1H27.873v-1zm-1.99 0H24.888v1H25.883v-1zm-1.99 0H22.898v1H23.893v-1zm-1.99 0H21.406v1H21.904v-1zm10.356 2.631-.15-.988a1 1 0 0 0 .25 1.983l-.1-.995zm2.17-2.132v-1a1 1 0 0 0-.905.577l.905.423zM35.877 12l.874-.487a.999.999 0 0 0-.306-.336l-.568.823zM12 14.842h-1a1 1 0 0 0 1 1v-1zm9.406-1c-.253 0-.487.014-.704.041l.252 1.984c.119-.015.267-.025.452-.025v-2zm-2.37.857c-.25.301-.369.625-.438.82-.085.24-.101.296-.135.353l1.723 1.015c.16-.271.256-.582.298-.702.059-.166.083-.2.091-.21l-1.54-1.275zm-.821 1.248a2.861 2.861 0 0 1-.427.027v2c.262 0 .504-.016.728-.05l-.301-1.977zm-.427.027a4.16 4.16 0 0 1-.398-.018l-.193 1.991c.187.018.384.027.591.027v-2zm-1.032-.168a.813.813 0 0 1-.203-.128.67.67 0 0 1-.12-.14l-1.677 1.088c.25.385.618.746 1.165.997l.835-1.817zm-.602-.984a1.741 1.741 0 0 0-.313-.55 1.248 1.248 0 0 0-.947-.43v2a.747.747 0 0 1-.553-.248.51.51 0 0 1-.07-.1c-.005-.008-.002-.003.009.026l1.874-.698zm-1.26-.98H14.17v2H14.894v-2zm-2.17 0H12v2H12.724v-2zm-.724 1h1V14.31h-2V14.842h1zm1-1.598V12.177h-2V13.244h2zm0-2.133V10.58h-2V11.111h2zm0-.532a.721.721 0 0 1-.176.476c-.066.074-.116.092-.088.079l-.878-1.798c-.253.124-.858.488-.858 1.243h2zm.367.405c.267-.038.567-.065.87-.082l-.116-1.997c-.338.02-.699.05-1.04.1l.287 1.98zm1.784-.113c.19-.003.35-.003.467-.003v-2c-.117 0-.289 0-.493.003l.026 2zm.467-.003c.315 0 .565-.12.716-.21.16-.096.299-.214.41-.32l-1.378-1.45c-.054.053-.073.062-.06.054a.453.453 0 0 1 .086-.038.702.702 0 0 1 .226-.036v2zm1.9-1.432c.222-.288.415-.55.62-.808l-1.566-1.244c-.215.271-.449.585-.64.833l1.586 1.219zm1.173-1.42c.046-.037.06-.042.046-.035a.52.52 0 0 1-.225.045v-2c-.504 0-.892.282-1.094.448l1.273 1.543zm-.18.01H19.054v-2H18.512v2zm1.628 0H21.224v-2H20.14v2zm2.171 0H23.395v-2H22.31v2zm2.17 0H25.024v-2H24.48v2zm.544 0c.117 0 .231.01.343.03l.34-1.972a4.014 4.014 0 0 0-.683-.058v2zm1.041.267c.236.116.476.269.733.455l1.173-1.62a7.193 7.193 0 0 0-1.018-.627l-.888 1.792zm1.497 1.053c.255.21.535.442.819.663l1.23-1.576c-.26-.203-.51-.411-.782-.634l-1.267 1.547zm1.742 1.32c.331.207.69.398 1.08.552l.733-1.861c-.252-.1-.5-.23-.75-.387l-1.063 1.695zm2.313.872c.208.027.422.04.642.04v-2c-.134 0-.262-.008-.387-.024l-.255 1.984zm.642.04c.168 0 .321.004.462.01l.085-1.998a12.847 12.847 0 0 0-.547-.011v2zm1.305.102c.307.062.482.143.608.222l1.058-1.698a3.74 3.74 0 0 0-1.268-.485l-.398 1.96zm1.262.768c.136.117.294.245.483.375l1.135-1.646a3.595 3.595 0 0 1-.312-.244l-1.306 1.515zm.177.04c-.015-.029-.02-.046-.021-.047l.006.029c.007.047.013.12.012.228l2 .022c.003-.315-.02-.795-.25-1.207l-1.747.974zm-.155 1.53a4.459 4.459 0 0 0-.055.647c.001.09.009.29.093.5.046.114.137.286.315.434.196.163.436.243.675.243v-2c.211 0 .426.072.602.218.157.13.23.276.263.357a.743.743 0 0 1 .051.206V14.632v-.008l.002-.021a5.948 5.948 0 0 1 .035-.31l-1.981-.276zm1.029-.176H35.514v2H35.877v-2zm-1.086 0H34.428v2H34.791v-2zm-1.267.577c-.083.177-.145.367-.187.495l1.9.625c.05-.153.075-.224.098-.273l-1.811-.847zm-.41 1.047a.813.813 0 0 1-.256.27l1.106 1.667c.397-.264.67-.583.865-.906l-1.714-1.031zm-.707.459a2.89 2.89 0 0 1-.299.06l.301 1.978c.178-.027.346-.062.507-.104l-.509-1.934zm-.048 2.044.041-.004-.218-1.988-.024.002.201 1.99zm-.179-1.994c-.009 0-.02.002-.033.004l-.077.01a1.037 1.037 0 0 0-.057.013c-.015.004-.08.02-.157.053a1.002 1.002 0 0 0-.602 1.003 1 1 0 0 0 .734.88.993.993 0 0 0 .27.035v-1.999a.855.855 0 0 1 .097.005c.015.002.08.008.159.03a.998.998 0 0 1 .733.88 1 1 0 0 1-.6 1.003.993.993 0 0 1-.269.073h-.008l-.19-1.99zm.079 0c-.13 0-.245-.009-.346-.023l-.27 1.982c.197.027.401.04.616.04v-2zm-.895-.196a1.285 1.285 0 0 1-.4-.365l-1.607 1.19c.238.321.563.655 1.019.914l.988-1.74zm-.798-1.07a2.26 2.26 0 0 0-.284-.432 1.216 1.216 0 0 0-.917-.435v2a.788.788 0 0 1-.59-.25c-.021-.026-.028-.039-.02-.025l.043.076 1.768-.934zm-1.201-.867H28.867v2H29.364v-2zm-1.492 0H26.878v2H27.873v-2zm-1.99 0H24.888v2H25.883v-2zm-1.99 0H22.898v2H23.893v-2zm-1.99 0H21.406v2H21.904v-2z" fill="#004152" mask="url(#a)"/>
</svg>
