<svg width="48" height="24" viewBox="0 0 48 24" fill="none" xmlns="http://www.w3.org/2000/svg">
<path d="M16.6632 17.1631C17.5474 17.1631 18.2632 16.4474 18.2632 15.5526C18.2632 14.6579 17.5474 13.9421 16.6632 13.9421C15.7789 13.9421 15.0737 14.6579 15.0737 15.5526C15.0737 16.4368 15.7895 17.1631 16.6632 17.1631ZM16.6632 17.721C15.4737 17.721 14.5053 16.7526 14.5053 15.5526C14.5053 14.3526 15.4737 13.3842 16.6632 13.3842C17.8526 13.3842 18.8211 14.3526 18.8211 15.5526C18.8211 16.7421 17.8632 17.721 16.6632 17.721Z" fill="#D6DFDF"/>
<path d="M32.2316 17.1C33.0842 17.1 33.7684 16.4052 33.7684 15.5526C33.7684 14.7 33.0842 14.0052 32.2316 14.0052C31.3789 14.0052 30.6947 14.7 30.6947 15.5526C30.6947 16.4052 31.3789 17.1 32.2316 17.1ZM32.2316 17.6579C31.0737 17.6579 30.1368 16.7105 30.1368 15.5526C30.1368 14.3947 31.0737 13.4474 32.2316 13.4474C33.3895 13.4474 34.3263 14.3947 34.3263 15.5526C34.3263 16.7105 33.3895 17.6579 32.2316 17.6579Z" fill="#D6DFDF"/>
<path d="M30.1579 6.27893H14.5895C13.9474 6.27893 12 11.5 12 12.8052C12 14.1105 12 15.4158 12 16.0684H14.0421C13.9895 15.8579 13.9579 15.6474 13.9579 15.4263C13.9579 13.9316 15.1684 12.7105 16.6737 12.7105C18.1789 12.7105 19.3789 13.9316 19.3789 15.4368C19.3789 15.6579 19.3474 15.8684 19.2947 16.0789H29.6C29.5474 15.8684 29.5158 15.6579 29.5158 15.4368C29.5158 13.9421 30.7263 12.721 32.2316 12.721C33.7368 12.721 34.9474 13.9316 34.9474 15.4368C34.9474 15.6579 34.9158 15.8684 34.8632 16.0789H36V12.8052C35.3474 12.1526 31.4526 7.58419 30.1579 6.27893ZM28.2105 10.1947V7.24735H29.9053L32.5263 10.1947H28.2105Z" fill="#D6DFDF"/>
<path fill-rule="evenodd" clip-rule="evenodd" d="M29.146 6.14693C28.9507 5.95167 28.6341 5.95167 28.4388 6.14693L24 10.5858L19.5611 6.14695C19.3659 5.95169 19.0493 5.95169 18.854 6.14695L18.1469 6.85406C17.9516 7.04932 17.9516 7.3659 18.1469 7.56116L22.5858 12L18.1469 16.4389C17.9516 16.6341 17.9516 16.9507 18.1469 17.146L18.854 17.8531C19.0493 18.0483 19.3659 18.0483 19.5611 17.8531L24 13.4142L28.4388 17.8531C28.6341 18.0484 28.9507 18.0484 29.146 17.8531L29.8531 17.146C30.0483 16.9507 30.0483 16.6342 29.8531 16.4389L25.4142 12L29.8531 7.56115C30.0483 7.36589 30.0483 7.0493 29.8531 6.85404L29.146 6.14693Z" fill="#E5312A"/>
</svg>
