<svg width="24" height="24" viewBox="0 0 24 24" fill="none" xmlns="http://www.w3.org/2000/svg">
    <path fill-rule="evenodd" clip-rule="evenodd" d="M10.519 2.147v2.486h1.417c.21 0 .41-.015.604-.046s.364-.091.511-.18a.982.982 0 0 0 .355-.378c.089-.162.133-.375.133-.639 0-.263-.044-.476-.133-.639a.982.982 0 0 0-.355-.377 1.406 1.406 0 0 0-.51-.18 3.818 3.818 0 0 0-.605-.047H10.52zM8.695 9.025V.73h3.74c.52 0 .96.076 1.325.227.364.15.66.35.889.598.228.248.395.53.5.848a3.153 3.153 0 0 1 0 1.97 2.29 2.29 0 0 1-.5.853 2.478 2.478 0 0 1-.89.598c-.363.151-.805.227-1.323.227h-1.917v2.974H8.695zm-6.106 2.803h15.569c.748.754 2.363 2.596 3.72 4.144.992 1.132 1.846 2.106 2.122 2.382v3.274h-1.137c.053-.21.084-.421.084-.642a2.709 2.709 0 0 0-2.715-2.716 2.716 2.716 0 0 0-2.716 2.716c0 .22.031.431.084.642H7.295c.052-.21.084-.421.084-.642 0-1.506-1.2-2.727-2.705-2.727a2.716 2.716 0 0 0-2.716 2.716c0 .221.031.432.084.642H0v-3.263c0-1.305 1.947-6.526 2.59-6.526zm13.621.968v2.947h4.316l-2.62-2.947H16.21zM4.663 22.712c.884 0 1.6-.716 1.6-1.61 0-.895-.716-1.611-1.6-1.611-.884 0-1.59.716-1.59 1.61 0 .885.716 1.611 1.59 1.611zm0 .558A2.163 2.163 0 0 1 2.505 21.1c0-1.2.969-2.168 2.158-2.168 1.19 0 2.158.968 2.158 2.168 0 1.19-.958 2.169-2.158 2.169zm15.569-.621a1.54 1.54 0 0 0 1.536-1.548 1.54 1.54 0 0 0-1.536-1.547 1.54 1.54 0 0 0-1.537 1.547 1.54 1.54 0 0 0 1.537 1.548zm0 .558a2.103 2.103 0 0 1-2.095-2.106c0-1.157.937-2.105 2.095-2.105 1.158 0 2.094.948 2.094 2.105a2.102 2.102 0 0 1-2.094 2.106z" fill="#D6DFDF"/>
    <path fill-rule="evenodd" clip-rule="evenodd" d="M17.146 6.147a.5.5 0 0 0-.707 0L12 10.586l-4.439-4.44a.5.5 0 0 0-.707 0l-.707.708a.5.5 0 0 0 0 .707L10.586 12l-4.44 4.439a.5.5 0 0 0 0 .707l.708.707a.5.5 0 0 0 .707 0L12 13.414l4.439 4.44a.5.5 0 0 0 .707 0l.707-.708a.5.5 0 0 0 0-.707L13.414 12l4.44-4.439a.5.5 0 0 0 0-.707l-.708-.707z" fill="#E5312A"/>
</svg>
