<svg width="12" height="12" viewBox="0 0 12 12" fill="none" xmlns="http://www.w3.org/2000/svg">
<path fill-rule="evenodd" clip-rule="evenodd" d="M11.146 0.146935C10.9507 -0.0483273 10.6341 -0.0483272 10.4389 0.146935L6 4.5858L1.56115 0.146951C1.36589 -0.0483109 1.04931 -0.048311 0.854045 0.146951L0.146938 0.854058C-0.0483241 1.04932 -0.0483241 1.3659 0.146938 1.56116L4.58579 6.00002L0.146935 10.4389C-0.0483272 10.6341 -0.0483273 10.9507 0.146935 11.146L0.854042 11.8531C1.0493 12.0483 1.36589 12.0483 1.56115 11.8531L6 7.41423L10.4389 11.8531C10.6341 12.0484 10.9507 12.0484 11.146 11.8531L11.8531 11.146C12.0484 10.9507 12.0484 10.6342 11.8531 10.4389L7.41422 6.00002L11.8531 1.56115C12.0483 1.36589 12.0483 1.0493 11.8531 0.854042L11.146 0.146935Z" fill="#E5312A"/>
</svg>
