<svg width="12" height="12" viewBox="0 0 12 12" fill="none" xmlns="http://www.w3.org/2000/svg">
    <path fill-rule="evenodd" clip-rule="evenodd" d="M11.146.147a.5.5 0 0 0-.707 0L6 4.586 1.561.147a.5.5 0 0 0-.707 0L.147.854a.5.5 0 0 0 0 .707L4.586 6l-4.44 4.439a.5.5 0 0 0 0 .707l.708.707a.5.5 0 0 0 .707 0L6 7.414l4.439 4.44a.5.5 0 0 0 .707 0l.707-.708a.5.5 0 0 0 0-.707L7.414 6l4.44-4.439a.5.5 0 0 0 0-.707l-.708-.707z" fill="#E5312A"/>
</svg>
