<svg width="24" height="24" viewBox="0 0 24 24" fill="none" xmlns="http://www.w3.org/2000/svg">
<path fill-rule="evenodd" clip-rule="evenodd" d="M1.74904 1.74904C1.41699 2.0811 1.41699 2.61946 1.74904 2.95152L21.0485 22.251C21.3805 22.583 21.9189 22.583 22.251 22.251C22.583 21.9189 22.583 21.3805 22.251 21.0485L2.95152 1.74904C2.61946 1.41699 2.0811 1.41699 1.74904 1.74904ZM1.34847 9.44397L3.38078 7.41167L4.69508 8.72597L3.97707 9.44397H5.41308L8.90205 12.9329V18.5052C8.90205 19.0185 9.31816 19.4346 9.8314 19.4346C10.3447 19.4346 10.7608 19.0185 10.7608 18.5052V14.7917L13.2391 17.27V18.5254C13.2391 19.0387 13.6551 19.4548 14.1684 19.4548C14.5087 19.4548 14.8063 19.2719 14.9682 18.9991L17.616 21.6469H12H2.96217C2.50852 21.6469 2.11831 21.3256 2.03135 20.8803L0.0179089 10.5743C-0.0965237 9.98858 0.351954 9.44397 0.948725 9.44397H1.34847ZM17.5761 13.5452L13.4749 9.44397H19.9995L14.4951 3.93961C14.1322 3.57667 14.1322 2.98823 14.4951 2.62529C14.8581 2.26235 15.4465 2.26235 15.8095 2.62529L22.6281 9.44397H23.0513C23.648 9.44397 24.0965 9.98858 23.9821 10.5743L22.4496 18.4187L19.4348 15.4039V12.6058C19.4348 12.0926 19.0188 11.6765 18.5055 11.6765C17.9922 11.6765 17.5761 12.0926 17.5761 12.6058V13.5452ZM7.41168 3.38076L8.726 4.69508L9.48147 3.93961C9.84437 3.57667 9.84437 2.98823 9.48147 2.62529C9.1185 2.26235 8.53009 2.26235 8.16715 2.62529L7.41168 3.38076ZM6.42391 18.485C6.42391 18.9983 6.00784 19.4144 5.49455 19.4144C4.98125 19.4144 4.56518 18.9983 4.56518 18.485V12.5452C4.56518 12.032 4.98125 11.6158 5.49455 11.6158C6.00784 11.6158 6.42391 12.032 6.42391 12.5452V18.485Z" fill="#004152"/>
</svg>
