<svg width="24" height="24" viewBox="0 0 24 24" fill="none" xmlns="http://www.w3.org/2000/svg">
<path fill-rule="evenodd" clip-rule="evenodd" d="M10.5559 0.525863C10.5559 0.0805504 11.0756 -0.162434 11.4173 0.123089L18.9162 6.38862C19.1596 6.592 19.1684 6.96318 18.9349 7.17783L14.1086 11.6136C13.8823 11.8215 13.8823 12.1785 14.1086 12.3864L18.9349 16.8222C19.1684 17.0368 19.1596 17.408 18.9162 17.6114L11.4173 23.8769C11.0756 24.1624 10.5559 23.9194 10.5559 23.4741V16.074C10.5559 15.617 10.0124 15.3783 9.67587 15.6875L6.46635 18.6373C6.25253 18.8338 5.91977 18.8194 5.72382 18.605L5.03295 17.8494C4.83772 17.6358 4.85212 17.3046 5.06515 17.1088L10.51 12.1046C10.5392 12.0777 10.5559 12.0398 10.5559 12C10.5559 11.9602 10.5392 11.9223 10.51 11.8954L5.06515 6.89121C4.85212 6.69542 4.83772 6.36416 5.03295 6.15062L5.72382 5.39497C5.91977 5.18063 6.25253 5.16617 6.46635 5.36268L9.67587 8.31247C10.0124 8.62172 10.5559 8.38304 10.5559 7.92603V0.525863ZM12.6265 15.0359C12.6265 14.5789 13.1701 14.3402 13.5066 14.6495L15.7895 16.7477C16.0231 16.9624 16.0143 17.3335 15.7709 17.5369L13.4879 19.4444C13.1462 19.7299 12.6265 19.4869 12.6265 19.0416V15.0359ZM13.5066 9.35051C13.1701 9.65976 12.6265 9.42108 12.6265 8.96407V4.95837C12.6265 4.51305 13.1462 4.27007 13.4879 4.55559L15.7709 6.46307C16.0143 6.66646 16.0231 7.03763 15.7895 7.25228L13.5066 9.35051Z" fill="#004152"/>
</svg>
