<svg width="24" height="24" viewBox="0 0 24 24" fill="none" xmlns="http://www.w3.org/2000/svg">
<path fill-rule="evenodd" clip-rule="evenodd" d="M5.07218 15.2984V19.2115C3.17854 17.3919 2 14.8336 2 12C2 11.3057 2.07075 10.628 2.20543 9.9736C2.62765 11.9128 3.62612 13.6832 5.07218 15.2984ZM12 2C7.59418 2 3.85383 4.84925 2.52105 8.80565C2.72913 10.8919 3.62414 12.7971 5.07218 14.5412V14.3059C5.07218 13.8297 5.41138 13.4209 5.87948 13.3332L11.8176 12.2198C11.9382 12.1972 12.0619 12.1972 12.1824 12.2198L18.1205 13.3332C18.5886 13.4209 18.9278 13.8297 18.9278 14.3059V14.3923C20.3669 12.6112 21.2313 10.6632 21.3806 8.52748C19.9693 4.71638 16.3019 2 12 2ZM18.9278 15.1606C20.3781 13.5027 21.3581 11.6825 21.7308 9.68569C21.9069 10.4285 22 11.2034 22 12C22 14.8336 20.8215 17.3919 18.9278 19.2115V15.1606ZM12 24C18.6274 24 24 18.6274 24 12C24 5.37258 18.6274 0 12 0C5.37258 0 0 5.37258 0 12C0 18.6274 5.37258 24 12 24ZM10.2437 9.86756C10.6957 9.97371 11 10.0452 11 9.48724C11 8.65882 10.3284 7.98724 9.5 7.98724C8.67157 7.98724 8 8.65882 8 9.48724C8 10.0452 8.3043 9.97371 8.7563 9.86756L8.75631 9.86755L8.75632 9.86755C8.97545 9.81609 9.22929 9.75647 9.5 9.75647C9.77071 9.75647 10.0246 9.81609 10.2437 9.86755L10.2437 9.86755L10.2437 9.86756ZM15.3574 9.8771C15.784 9.97746 16 10.0283 16 9.48724C16 8.65882 15.3284 7.98724 14.5 7.98724C13.6716 7.98724 13 8.65882 13 9.48724C13 10.0283 13.216 9.97746 13.6426 9.8771C13.8692 9.82378 14.1553 9.75647 14.5 9.75647C14.8447 9.75647 15.1308 9.82378 15.3574 9.8771Z" fill="#004152"/>
</svg>
