<svg width="24" height="24" viewBox="0 0 24 24" fill="none" xmlns="http://www.w3.org/2000/svg">
<path fill-rule="evenodd" clip-rule="evenodd" d="M18.7742 1.36854C19.1042 1.06701 19.6217 1.09146 19.9233 1.42559C22.5514 4.32678 23.998 8.08773 23.998 12.0035C23.998 15.9193 22.5514 19.6721 19.9233 22.5733C19.7643 22.7526 19.5402 22.8422 19.3202 22.8422C19.1246 22.8422 18.929 22.773 18.7742 22.6303C18.4401 22.3247 18.4156 21.8113 18.7171 21.4772C21.0764 18.8775 22.3722 15.5118 22.3722 11.9994C22.3722 8.48705 21.0723 5.12134 18.7171 2.52168C18.4156 2.18756 18.4401 1.67007 18.7742 1.36854ZM17.1158 4.25342C16.8183 3.91522 16.3049 3.87855 15.9667 4.176C15.6285 4.47346 15.5919 4.98687 15.8893 5.32507C17.507 7.17499 18.3952 9.54239 18.3952 11.9954C18.3952 14.4483 17.507 16.8198 15.8893 18.6656C15.5919 19.0039 15.6285 19.5213 15.9667 19.8147C16.1216 19.9492 16.3131 20.0144 16.5046 20.0144C16.7328 20.0144 16.9569 19.9207 17.1199 19.7373C18.9942 17.5899 20.0292 14.8395 20.0292 11.9913C20.0251 9.14714 18.9942 6.39672 17.1158 4.25342ZM6.29339 6.62084L8.98676 5.0643C9.50833 4.76278 10.1562 5.13765 10.1521 5.73255V8.84563V10.6752V13.3115V15.141V18.2541C10.1521 18.8572 9.50425 19.232 8.98269 18.9305L6.28931 17.374L2.60578 15.247C2.48761 15.1777 2.35315 15.141 2.21461 15.141H0.780313C0.352469 15.141 0.00204468 14.7947 0.00204468 14.3628V9.63204C0.00204468 9.20013 0.352469 8.8497 0.780313 8.85378H2.21868C2.35722 8.85378 2.49169 8.8171 2.60985 8.74783L6.29339 6.62084ZM12.9188 7.22797C13.2693 6.94682 13.7827 7.00387 14.0638 7.35429C15.1273 8.69079 15.6937 10.2922 15.6937 11.9954C15.6937 13.6986 15.1314 15.304 14.0638 16.6365C13.9049 16.8361 13.6686 16.9421 13.4282 16.9421C13.2489 16.9421 13.0696 16.8809 12.9188 16.7628C12.5684 16.4816 12.5114 15.9682 12.7925 15.6178C13.6238 14.5747 14.0638 13.3237 14.0638 11.9954C14.0638 10.667 13.6238 9.41201 12.7925 8.37297C12.5114 8.02254 12.5684 7.50913 12.9188 7.22797Z" fill="#004152"/>
</svg>
