<svg width="24" height="24" viewBox="0 0 24 24" fill="none" xmlns="http://www.w3.org/2000/svg">
<path d="M0 8.22924C0 7.34347 0.704837 6.6254 1.5743 6.6254H22.4257C23.2952 6.6254 24 7.34347 24 8.22924V20.6819C24 21.5677 23.2952 22.2858 22.4257 22.2858H1.5743C0.704836 22.2858 0 21.5677 0 20.6819V8.22924Z" fill="#004152"/>
<path d="M16.7325 3.98278C16.7325 2.72996 15.7356 1.71436 14.5058 1.71436H9.49412C8.26438 1.71436 7.26748 2.72996 7.26748 3.98278V5.70761C7.26748 6.00783 7.50637 6.2512 7.80106 6.2512H8.0192C8.47955 6.2512 8.85629 5.40273 8.85629 4.93374C8.85629 4.05623 9.55455 3.34487 10.4159 3.34487H13.584C14.4454 3.34487 15.1436 4.05623 15.1436 4.93374C15.1436 5.40273 15.5204 6.2512 15.9807 6.2512H16.1989C16.4936 6.2512 16.7325 6.00783 16.7325 5.7076V3.98278Z" fill="#004152"/>
</svg>
