<svg width="24" height="24" viewBox="0 0 24 24" fill="none" xmlns="http://www.w3.org/2000/svg">
<path fill-rule="evenodd" clip-rule="evenodd" d="M24 10.9974C24 15.8298 18.6274 19.7472 12 19.7472C10.7532 19.7472 9.55084 19.6086 8.42029 19.3513C8.3916 19.3751 8.36117 19.3976 8.32898 19.4189L5.04263 21.586C4.39998 22.0098 3.53957 21.579 3.49388 20.8105L3.26726 16.9986C1.24157 15.432 0 13.3204 0 10.9974C0 6.16494 5.37258 2.2475 12 2.2475C18.6274 2.2475 24 6.16494 24 10.9974ZM7 12.6122C7.82843 12.6122 8.5 11.9406 8.5 11.1122C8.5 10.2838 7.82843 9.6122 7 9.6122C6.17157 9.6122 5.5 10.2838 5.5 11.1122C5.5 11.9406 6.17157 12.6122 7 12.6122ZM12 12.6122C12.8284 12.6122 13.5 11.9406 13.5 11.1122C13.5 10.2838 12.8284 9.6122 12 9.6122C11.1716 9.6122 10.5 10.2838 10.5 11.1122C10.5 11.9406 11.1716 12.6122 12 12.6122ZM18.5 11.1122C18.5 11.9406 17.8284 12.6122 17 12.6122C16.1716 12.6122 15.5 11.9406 15.5 11.1122C15.5 10.2838 16.1716 9.6122 17 9.6122C17.8284 9.6122 18.5 10.2838 18.5 11.1122Z" fill="#004152"/>
</svg>
