<svg width="24" height="24" viewBox="0 0 24 24" fill="none" xmlns="http://www.w3.org/2000/svg">
    <path fill-rule="evenodd" clip-rule="evenodd" d="M12 24c6.627 0 12-5.373 12-12S18.627 0 12 0 0 5.373 0 12s5.373 12 12 12zm1.206-9.054c0-.288.018-.531.054-.729.036-.198.099-.375.189-.531a2.18 2.18 0 0 1 .351-.45c.144-.144.33-.306.558-.486.156-.132.345-.285.567-.459.222-.174.435-.387.639-.639.204-.252.375-.549.513-.891.138-.342.207-.741.207-1.197 0-.588-.12-1.104-.36-1.548A3.427 3.427 0 0 0 14.97 6.9a4.146 4.146 0 0 0-1.386-.675A6.03 6.03 0 0 0 11.928 6c-.708 0-1.338.102-1.89.306a4.006 4.006 0 0 0-1.395.846 3.5 3.5 0 0 0-.855 1.278 4.369 4.369 0 0 0-.288 1.602h2.88c0-.66.153-1.131.459-1.413a1.553 1.553 0 0 1 1.089-.423c.432 0 .792.111 1.08.333.288.222.432.567.432 1.035 0 .252-.048.48-.144.684a2.31 2.31 0 0 1-.369.558c-.15.168-.315.318-.495.45s-.354.258-.522.378a4.131 4.131 0 0 0-.792.666 2.723 2.723 0 0 0-.477.738 3.521 3.521 0 0 0-.243.864c-.048.312-.072.66-.072 1.044h2.88zm-1.44 4.212c.264 0 .51-.048.738-.144.228-.096.426-.231.594-.405.168-.174.3-.372.396-.594.096-.222.144-.459.144-.711 0-.252-.048-.489-.144-.711a1.84 1.84 0 0 0-.99-.981 1.882 1.882 0 0 0-.738-.144 1.882 1.882 0 0 0-1.332.54c-.168.168-.3.363-.396.585a1.772 1.772 0 0 0-.144.711c0 .252.048.489.144.711.096.222.228.42.396.594s.366.309.594.405c.228.096.474.144.738.144z" fill="#004152"/>
</svg>
