<svg width="24" height="24" viewBox="0 0 24 24" fill="none" xmlns="http://www.w3.org/2000/svg">
<path fill-rule="evenodd" clip-rule="evenodd" d="M12 24C18.6274 24 24 18.6274 24 12C24 5.37258 18.6274 0 12 0C5.37258 0 0 5.37258 0 12C0 18.6274 5.37258 24 12 24ZM10.9999 4.99901C10.9999 4.44672 11.4476 3.99901 11.9999 3.99901C12.5522 3.99901 12.9999 4.44672 12.9999 4.99901V11.2795L16.7066 9.1394C17.1849 8.86325 17.7965 9.02713 18.0727 9.50542C18.3488 9.98371 18.1849 10.5953 17.7066 10.8714L12.5105 13.8714C12.1802 14.0621 11.7865 14.043 11.4834 13.8555C11.1936 13.6804 10.9999 13.3623 10.9999 12.999V4.99901Z" fill="#004152"/>
</svg>
