<svg width="32" height="32" viewBox="0 0 32 32" fill="none" xmlns="http://www.w3.org/2000/svg">
<g filter="url(#filter0_d_5706_10741)">
<rect x="4" y="2" width="24" height="24" rx="4" fill="white"/>
<path d="M14.8839 18.877C14.7212 19.0397 14.4574 19.0397 14.2946 18.877L13.7054 18.2877C13.5427 18.125 13.5427 17.8612 13.7054 17.6985L17.4039 14L13.7054 10.3014C13.5427 10.1387 13.5427 9.8749 13.7054 9.71219L14.2946 9.12293C14.4574 8.96021 14.7212 8.96021 14.8839 9.12293L19.4654 13.7044C19.5471 13.7861 19.5878 13.8934 19.5874 14.0005C19.5875 14.1073 19.5468 14.2141 19.4654 14.2955L14.8839 18.877Z" fill="#004152"/>
</g>
<defs>
<filter id="filter0_d_5706_10741" x="0" y="0" width="32" height="32" filterUnits="userSpaceOnUse" color-interpolation-filters="sRGB">
<feFlood flood-opacity="0" result="BackgroundImageFix"/>
<feColorMatrix in="SourceAlpha" type="matrix" values="0 0 0 0 0 0 0 0 0 0 0 0 0 0 0 0 0 0 127 0" result="hardAlpha"/>
<feOffset dy="2"/>
<feGaussianBlur stdDeviation="2"/>
<feColorMatrix type="matrix" values="0 0 0 0 0 0 0 0 0 0 0 0 0 0 0 0 0 0 0.15 0"/>
<feBlend mode="normal" in2="BackgroundImageFix" result="effect1_dropShadow_5706_10741"/>
<feBlend mode="normal" in="SourceGraphic" in2="effect1_dropShadow_5706_10741" result="shape"/>
</filter>
</defs>
</svg>
