<svg width="24" height="24" viewBox="0 0 24 24" fill="none" xmlns="http://www.w3.org/2000/svg">
<path fill-rule="evenodd" clip-rule="evenodd" d="M24 12C24 18.6274 18.6274 24 12 24C5.37258 24 0 18.6274 0 12C0 5.37258 5.37258 0 12 0C18.6274 0 24 5.37258 24 12ZM3.3858 18.8414C4.15934 18.52 5.1085 18.3784 6.22499 18.2668C7.59082 18.1293 8.71832 17.1851 8.71832 17.1851C10.295 15.4893 8.40666 12.7484 8.24166 12.5101C8.09499 12.3451 7.37999 11.4743 7.72832 10.2184C7.54499 9.61343 6.89416 7.00093 8.13166 5.26843C8.72749 4.43427 9.67166 3.9576 10.9183 3.81093C10.9092 3.80177 10.9092 3.7926 10.9092 3.7926C11.076 3.74831 11.2397 3.70069 11.4012 3.65372C12.2424 3.40908 13.0226 3.18218 13.8608 3.53593C14.86 3.9576 15.7767 4.90177 16.0792 5.62593V5.67177C16.9775 7.38593 16.4275 9.65927 16.2625 10.2276C16.6108 11.4743 15.8958 12.3451 15.7492 12.5101C15.5842 12.7484 13.6958 15.4893 15.2725 17.1851C15.2725 17.1851 16.3908 18.1293 17.7658 18.2668C18.8855 18.3787 19.8368 18.5208 20.612 18.8441C18.9476 20.9357 16.5373 22.4071 13.7836 22.8561L12.5263 20.7601L13.2284 19.937L14.0152 20.8085V20.6512L13.0347 19.2713H11.9937H10.9528L9.97229 20.6512L9.98439 20.8085L10.7712 19.937L11.4611 20.7601L10.2159 22.8561C7.46117 22.4068 5.05017 20.9343 3.3858 18.8414Z" fill="#004152"/>
</svg>
