<svg width="24" height="24" viewBox="0 0 24 24" fill="none" xmlns="http://www.w3.org/2000/svg">
    <path fill-rule="evenodd" clip-rule="evenodd" d="M6.8 10.03c-1.041-.343-5.202-.686-5.202-.686V7.97S5.76 8.313 7.493 9c1.04 1.03 2.427 1.03 2.427 1.03S10.96 7.97 12 7.97h4.16s2.097-.36 2.774-1.03c.315-.313.263-.78.22-1.155-.048-.434-.083-.747.474-.563 1.04.343 1.733 2.748 1.733 2.748v2.06s-1.824-.361-3.528-.013l.434.773a4.217 4.217 0 0 1 1.534-.287c2.318 0 4.199 1.863 4.199 4.164 0 2.301-1.881 4.165-4.199 4.165-2.317 0-4.198-1.864-4.198-4.165 0-1.366.663-2.578 1.687-3.337l-.544-.97c-.729.334-1.337.874-1.625 1.731-1.04 3.091 0 5.152 0 5.152H8.878s.305-.904.42-2.06h-.933c-.256 2.057-2.025 3.649-4.167 3.649C1.88 18.832 0 16.968 0 14.667c0-2.3 1.881-4.164 4.199-4.164 2.142 0 3.91 1.591 4.167 3.65h.973c-.018-.706-.142-1.432-.46-2.062 0-.343-1.04-1.717-2.08-2.06zm11.042 2.284a3.03 3.03 0 0 0-1.123 2.353c0 1.683 1.379 3.048 3.082 3.048 1.704 0 3.083-1.365 3.083-3.048 0-1.682-1.38-3.048-3.083-3.048-.343 0-.673.055-.981.158l1.468 2.617a.558.558 0 0 1-.974.546l-1.472-2.626zM7.237 14.152A3.074 3.074 0 0 0 4.2 11.62c-1.704 0-3.083 1.366-3.083 3.048 0 1.683 1.38 3.048 3.083 3.048a3.073 3.073 0 0 0 3.038-2.533H4.194a.515.515 0 0 1 0-1.03h3.043z" fill="#004152"/>
</svg>
