<svg width="24" height="24" viewBox="0 0 24 24" fill="none" xmlns="http://www.w3.org/2000/svg">
    <g clip-path="url(#a)" fill-rule="evenodd" clip-rule="evenodd">
        <path d="M3.81 8.387h10.688l-.624-.805-8.919-1.725-1.144 2.53zm19.92 8.56c.178-.216.268-.954.27-2.212-.285-1.416-.8-2.156-1.545-2.218-1.71-.143-4.222-.202-4.222-.202L15.44 9.377a.703.703 0 0 0-.497-.219l-7.751-.132c-3.679-.011-5.537.079-5.576.271-.036.177.116.196.228.21.071.01.126.016.107.06-.068.155-.221.381-.408.656-.412.607-.987 1.452-1.15 2.294-.079.41-.008.952.057 1.451.087.659.163 1.242-.13 1.35-.514.19-.33 1.313 0 1.53.33.215 2.017.345 2.71.345-.704-3.403 2.084-3.403 2.782-3.403.697 0 2.788.68 2.091 3.403h9.69l.004-.102c.067-1.985.112-3.3 2.77-3.3 2.496 0 2.298 2.053 2.203 3.04-.014.148-.026.273-.026.362 0 .057.919.08 1.186-.245zM2.355 12.43c-.41-.041-.615-.232-.615-.572 0-.397 1.438-2.15 1.438-2.15h3.835L5.93 12.429H2.355zm5.142 0s-.467-.14-.467-.651c0-.397.807-2.071.807-2.071h3.434v2.722H7.497zm4.589 0V9.707h2.091l2.79 2.722h-4.881zm8.167 5.686a1.935 1.935 0 0 1-1.931-1.938c0-1.07.864-1.938 1.931-1.938 1.067 0 1.932.868 1.932 1.938 0 1.07-.864 1.938-1.932 1.938zm0-.514a1.42 1.42 0 0 0 1.418-1.424 1.42 1.42 0 0 0-1.418-1.424 1.42 1.42 0 0 0-1.417 1.424 1.42 1.42 0 0 0 1.417 1.424zM3.46 16.205c0 1.07.865 1.938 1.932 1.938a1.935 1.935 0 0 0 1.932-1.938c0-1.07-.865-1.938-1.932-1.938a1.935 1.935 0 0 0-1.932 1.938zm3.35 0a1.42 1.42 0 0 1-1.418 1.424 1.42 1.42 0 0 1-1.418-1.424 1.42 1.42 0 0 1 1.418-1.423 1.42 1.42 0 0 1 1.418 1.423z" fill="#D6DFDF"/>
        <path d="M17.146 6.147a.5.5 0 0 0-.707 0L12 10.586 7.561 6.147a.5.5 0 0 0-.707 0l-.707.707a.5.5 0 0 0 0 .707L10.586 12l-4.44 4.439a.5.5 0 0 0 0 .707l.708.707a.5.5 0 0 0 .707 0L12 13.414l4.439 4.44a.5.5 0 0 0 .707 0l.707-.708a.5.5 0 0 0 0-.707L13.414 12l4.44-4.439a.5.5 0 0 0 0-.707l-.708-.707z" fill="#E5312A"/>
    </g>
    <defs>
        <clipPath id="a">
            <path fill="#fff" d="M0 0h24v24H0z"/>
        </clipPath>
    </defs>
</svg>
