<svg width="24" height="24" viewBox="0 0 24 24" fill="none" xmlns="http://www.w3.org/2000/svg">
<path d="M20.6111 18.56C19.7983 17.6862 17.43 17.0873 16.5821 16.6011C14.9425 15.9035 15.3209 14.762 15.3209 14.6985C15.3209 14.4449 15.447 13.2963 15.447 13.2963C15.447 13.2963 16.5261 12.338 17.0306 10.8794C17.8504 10.372 18.1657 10.2382 18.2918 9.6674C18.2918 9.6674 18.5441 7.37026 17.6612 7.37026C17.6612 7.37026 17.2828 7.43368 17.409 6.92634C17.5351 6.35558 17.472 4.69967 17.409 4.12891C17.3459 3.55815 17.472 1.90224 16.2668 1.64857C15.44 1.45831 15.3139 1.71199 14.9355 1.64857C14.5502 1.58515 14.0457 0.5 13.2889 0.5L11.7054 0.746625C10.9416 0.746625 11.0047 1.0003 10.6263 1.06371C10.2479 1.12713 10.6824 1.0003 9.48419 1.25397C8.28602 1.50764 7.84458 3.10013 7.78152 3.67089C7.71846 4.22756 7.6554 5.89052 7.71846 6.77836C7.78152 7.28571 7.40315 7.28571 7.40315 7.28571C6.70246 7.28571 7.02478 9.58284 7.02478 9.58284C7.1509 10.1466 7.02478 10.4073 8.10384 10.8512C8.60833 12.3098 9.93964 13.0779 9.93964 13.0779C9.93964 13.0779 10.0027 14.0362 10.0027 14.7338C9.88358 14.6633 10.3811 16.4461 6.97573 16.9604C3.56339 17.4678 2.93277 18.5459 2.30215 19.1871C1.87473 19.6099 1.61548 20.7514 1.54541 21.3997C6.53933 21.3997 22.4615 21.4208 22.4545 21.3997C22.4545 20.5859 21.6831 19.7086 20.6111 18.56Z" fill="#004152"/>
<path d="M22.4545 21.4091C22.4545 22.5639 17.7738 23.5 12 23.5C6.22607 23.5 1.54541 22.5639 1.54541 21.4091C1.54541 20.2543 6.22607 19.3182 12 19.3182C17.7738 19.3182 22.4545 20.2543 22.4545 21.4091Z" fill="#004152"/>
</svg>
