<svg width="11" height="10" viewBox="0 0 11 10" fill="none" xmlns="http://www.w3.org/2000/svg">
<path d="M3.88386 9.87698C3.72114 10.0397 3.45733 10.0397 3.29461 9.87698L2.70535 9.28773C2.54263 9.12501 2.54263 8.86119 2.70535 8.69847L6.40387 4.99996L2.70535 1.30144C2.54264 1.13872 2.54264 0.874904 2.70535 0.712186L3.29461 0.12293C3.45733 -0.0397882 3.72115 -0.0397882 3.88387 0.12293L8.46533 4.70439C8.54706 4.78613 8.58774 4.89338 8.58736 5.0005C8.58746 5.10727 8.54678 5.21406 8.46533 5.29552L3.88386 9.87698Z" fill="#D6DFDF"/>
</svg>
