<svg width="16" height="16" viewBox="0 0 16 16" fill="none" xmlns="http://www.w3.org/2000/svg">
<path d="M8.36159 0.159509C8.14891 -0.0531693 7.85116 -0.0531692 7.63849 0.159509L3.38493 4.41307C3.17225 4.62574 3.17225 4.96603 3.38493 5.13617L4.23564 5.98688C4.40578 6.19956 4.74606 6.19956 4.95874 5.98688L6.95792 3.81757L6.95792 15.4896C6.95792 15.7873 7.21313 16 7.46834 16L8.4892 16C8.78695 16 8.99962 15.7873 8.99962 15.4896L8.99962 3.81757L11.0413 5.98689C11.254 6.19956 11.5943 6.19956 11.7644 5.98689L12.6151 5.13617C12.8278 4.96603 12.8278 4.62575 12.6151 4.41307L8.36159 0.159509Z" fill="#004152"/>
</svg>
