<svg width="10" height="11" viewBox="0 0 10 11" fill="none" xmlns="http://www.w3.org/2000/svg">
<path d="M0.123015 3.88392C-0.0397031 3.72121 -0.039703 3.45739 0.123015 3.29467L0.712271 2.70541C0.87499 2.54269 1.13881 2.54269 1.30153 2.70541L5.00004 6.40393L8.69856 2.70542C8.86128 2.5427 9.1251 2.5427 9.28781 2.70542L9.87707 3.29467C10.0398 3.45739 10.0398 3.72121 9.87707 3.88393L5.29561 8.46539C5.21387 8.54713 5.10662 8.5878 4.9995 8.58743C4.89273 8.58752 4.78594 8.54685 4.70448 8.46539L0.123015 3.88392Z" fill="#004152"/>
</svg>
