<svg width="16" height="16" viewBox="0 0 16 16" fill="none" xmlns="http://www.w3.org/2000/svg">
<path d="M8.36159 15.8405C8.14891 16.0532 7.85116 16.0532 7.63849 15.8405L3.38493 11.5869C3.17225 11.3743 3.17225 11.034 3.38493 10.8638L4.23564 10.0131C4.40578 9.80044 4.74606 9.80044 4.95874 10.0131L6.95792 12.1824L6.95792 0.510427C6.95792 0.212678 7.21313 5.57787e-08 7.46834 4.46229e-08L8.4892 0C8.78695 -1.3015e-08 8.99962 0.212678 8.99962 0.510427L8.99962 12.1824L11.0413 10.0131C11.254 9.80044 11.5943 9.80044 11.7644 10.0131L12.6151 10.8638C12.8278 11.034 12.8278 11.3743 12.6151 11.5869L8.36159 15.8405Z" fill="#004152"/>
</svg>
