<svg width="24" height="24" viewBox="0 0 24 24" fill="none" xmlns="http://www.w3.org/2000/svg">
<path fill-rule="evenodd" clip-rule="evenodd" d="M16.9095 9H7.0905C6.6405 9 6.273 8.6655 6.273 8.25C6.273 7.836 6.639 7.5 7.0905 7.5H16.9095C17.3595 7.5 17.727 7.836 17.727 8.25C17.727 8.6655 17.361 9 16.9095 9ZM16.9095 13.5H7.0905C6.6405 13.5 6.273 13.1655 6.273 12.75C6.273 12.336 6.639 12 7.0905 12H16.9095C17.3595 12 17.727 12.336 17.727 12.75C17.727 13.1655 17.361 13.5 16.9095 13.5ZM16.9095 18H7.0905C6.6405 18 6.273 17.6655 6.273 17.25C6.273 16.8345 6.639 16.5 7.0905 16.5H16.9095C17.3595 16.5 17.727 16.8345 17.727 17.25C17.727 17.6655 17.361 18 16.9095 18ZM18.4718 1.57799C18.0667 1.49161 17.727 1.16421 17.727 0.75C17.727 0.335786 17.3912 0 16.977 0H16.842C16.4278 0 16.092 0.335786 16.092 0.75C16.092 1.16421 15.7562 1.5 15.342 1.5H13.566C13.1518 1.5 12.816 1.16421 12.816 0.75C12.816 0.335786 12.4802 0 12.066 0H11.931C11.5168 0 11.181 0.335786 11.181 0.75C11.181 1.16421 10.8452 1.5 10.431 1.5H8.6595C8.24529 1.5 7.9095 1.16421 7.9095 0.75C7.9095 0.335786 7.57371 0 7.1595 0H7.023C6.60879 0 6.273 0.335786 6.273 0.75C6.273 1.16421 5.93332 1.49161 5.52821 1.57799C4.07949 1.88691 3 3.07744 3 4.5V21C3 22.6575 4.4655 24 6.273 24H17.727C19.5345 24 21 22.6575 21 21V4.5C21 3.07744 19.9205 1.88691 18.4718 1.57799Z" fill="#004152"/>
</svg>
