<svg width="24" height="24" viewBox="0 0 24 24" fill="none" xmlns="http://www.w3.org/2000/svg">
<path fill-rule="evenodd" clip-rule="evenodd" d="M13.7145 0L23.3145 8.91429V24H17.8288H17.1431H13.7145H10.9716H10.2859H8.22877H7.54306H0.685913V18.24V17.4789L1.27563 17.04C0.891627 16.0046 0.685913 14.88 0.685913 13.7143C0.685913 8.88 4.26534 4.87543 8.91448 4.21029V0H9.6002V4.14171C9.82648 4.12114 10.0528 4.11429 10.2859 4.11429C11.4928 4.11429 12.6516 4.34057 13.7145 4.74514V0ZM10.2859 18.5143H13.7145V6.23314C12.6722 5.75314 11.5065 5.48571 10.2859 5.48571C10.0528 5.48571 9.82648 5.49257 9.6002 5.51314V6.85714H10.5808L12.3431 8.22857H6.17163L7.93391 6.85714H8.91448V5.60229C5.01963 6.25371 2.05734 9.63429 2.05734 13.7143C2.05734 14.5714 2.18763 15.4011 2.43448 16.176L4.11448 14.928L8.22877 17.8903V11.6571H7.0562L6.17163 8.91429H12.3431L11.4585 11.6571H10.2859V18.5143ZM20.5716 8.22857H15.0859V9.25714H20.5716V8.22857ZM15.0859 10.2857H21.9431V11.3143H15.0859V10.2857ZM21.9431 12.3429H15.0859V13.3714H21.9431V12.3429Z" fill="#004152"/>
</svg>
