<svg width="24" height="24" viewBox="0 0 24 24" fill="none" xmlns="http://www.w3.org/2000/svg">
<path d="M12.9552 8.5824C12.9552 8.05574 12.5283 7.6288 12.0016 7.6288C11.4749 7.6288 11.048 8.05574 11.048 8.5824V8.71606C10.8999 8.65629 10.755 8.58232 10.6142 8.49468C10.167 8.21641 9.57899 8.35332 9.30073 8.80046C9.02246 9.24761 9.15937 9.83567 9.60651 10.1139C10.3107 10.5522 11.1199 10.8075 11.985 10.8075L11.9954 10.8074L12.0016 10.8075L12.0173 10.8073C12.8702 10.8011 13.668 10.5467 14.3635 10.1139C14.8106 9.83567 14.9475 9.24761 14.6692 8.80046C14.391 8.35332 13.8029 8.21641 13.3558 8.49468C13.2255 8.57576 13.0918 8.64514 12.9552 8.7024V8.5824Z" fill="#004152"/>
<path d="M10.9113 6.48648C10.9113 7.01313 10.4844 7.44008 9.95771 7.44008C9.43106 7.44008 9.00413 7.01313 9.00413 6.48648C9.00413 5.95982 9.43106 5.53288 9.95771 5.53288C10.4844 5.53288 10.9113 5.95982 10.9113 6.48648Z" fill="#004152"/>
<path d="M14.0429 7.4351C14.5695 7.4351 14.9964 7.00816 14.9964 6.4815C14.9964 5.95484 14.5695 5.5279 14.0429 5.5279C13.5162 5.5279 13.0893 5.95484 13.0893 6.4815C13.0893 7.00816 13.5162 7.4351 14.0429 7.4351Z" fill="#004152"/>
<path fill-rule="evenodd" clip-rule="evenodd" d="M3.53281 3.56988C3.53281 1.59829 5.13109 0 7.10268 0C8.19118 0 9.16481 0.487225 9.81892 1.25354C10.4993 1.02411 11.2284 0.899867 11.9853 0.899867C12.7422 0.899867 13.4713 1.02411 14.1516 1.25354C14.8058 0.487225 15.7794 0 16.8679 0C18.8395 0 20.4378 1.59829 20.4378 3.56988C20.4378 4.90485 19.7055 6.06722 18.6217 6.67968C18.6545 6.9442 18.6714 7.2133 18.6714 7.48597C18.6714 11.1391 15.662 14.0721 11.9853 14.0721C8.30855 14.0721 5.29921 11.1391 5.29921 7.48597C5.29921 7.2133 5.31608 6.94419 5.34891 6.67968C4.26501 6.06722 3.53281 4.90485 3.53281 3.56988ZM7.10268 1.9072C6.18441 1.9072 5.44001 2.65161 5.44001 3.56988C5.44001 4.33858 5.96251 4.98768 6.67331 5.17683L7.58773 5.42018L7.35147 6.33645C7.25689 6.70328 7.20641 7.08819 7.20641 7.48597C7.20641 10.0543 9.3301 12.1649 11.9853 12.1649C14.6405 12.1649 16.7642 10.0543 16.7642 7.48597C16.7642 7.08819 16.7137 6.70328 16.6191 6.33645L16.3828 5.42018L17.2973 5.17683C18.0081 4.98768 18.5306 4.33858 18.5306 3.56988C18.5306 2.65161 17.7861 1.9072 16.8679 1.9072C16.2109 1.9072 15.6411 2.28812 15.3707 2.84542L14.955 3.70206L14.0977 3.28762C13.4623 2.98044 12.746 2.80707 11.9853 2.80707C11.2245 2.80707 10.5083 2.98044 9.87286 3.28762L9.0156 3.70206L8.59989 2.84542C8.32944 2.28812 7.75963 1.9072 7.10268 1.9072Z" fill="#004152"/>
<path fill-rule="evenodd" clip-rule="evenodd" d="M21.3659 15.4471C23.52 16.1815 24.3032 18.7208 23.5711 20.8684C22.839 23.016 20.6677 24.5482 18.5137 23.8138C16.3596 23.0795 15.5764 20.5401 16.3085 18.3926C17.0406 16.245 19.2118 14.7128 21.3659 15.4471ZM21.7659 20.253C22.2691 18.7768 21.6105 17.5455 20.7505 17.2523C19.8905 16.9592 18.6169 17.5317 18.1137 19.008C17.6104 20.4842 18.2691 21.7155 19.1291 22.0087C19.989 22.3018 21.2626 21.7293 21.7659 20.253Z" fill="#004152"/>
<path fill-rule="evenodd" clip-rule="evenodd" d="M2.63404 15.4471C0.479973 16.1815 -0.303259 18.7208 0.428852 20.8684C1.16096 23.016 3.3322 24.5482 5.48626 23.8138C7.64033 23.0795 8.42356 20.5401 7.69145 18.3926C6.95934 16.245 4.7881 14.7128 2.63404 15.4471ZM2.23404 20.253C1.73078 18.7768 2.38945 17.5455 3.24943 17.2523C4.10941 16.9592 5.383 17.5317 5.88626 19.008C6.38952 20.4842 5.73085 21.7155 4.87087 22.0087C4.01089 22.3018 2.7373 21.7293 2.23404 20.253Z" fill="#004152"/>
<path d="M4.50962 8.97568C2.79498 8.97568 1.03263 10.1257 1.03263 11.9562C1.03263 13.7103 2.66242 14.8448 4.29107 14.9309C4.817 14.9587 5.26588 14.5549 5.29368 14.029C5.32149 13.503 4.91768 13.0542 4.39175 13.0264C3.39 12.9734 2.93983 12.3501 2.93983 11.9562C2.93983 11.5478 3.437 10.8829 4.50962 10.8829C5.03628 10.8829 5.46322 10.4559 5.46322 9.92928C5.46322 9.40262 5.03628 8.97568 4.50962 8.97568Z" fill="#004152"/>
<path d="M19.4884 8.97568C18.9618 8.97568 18.5348 9.40262 18.5348 9.92928C18.5348 10.4559 18.9618 10.8829 19.4884 10.8829C20.5611 10.8829 21.0582 11.5478 21.0582 11.9562C21.0582 12.3501 20.6081 12.9734 19.6063 13.0264C19.0804 13.0542 18.6766 13.503 18.7044 14.029C18.7322 14.5549 19.1811 14.9587 19.707 14.9309C21.3356 14.8448 22.9654 13.7103 22.9654 11.9562C22.9654 10.1257 21.2031 8.97568 19.4884 8.97568Z" fill="#004152"/>
<path d="M15.8474 22.3675C16.1313 21.924 16.0019 21.3342 15.5584 21.0503C15.1268 20.774 14.5568 20.8891 14.2648 21.3041C14.2603 21.3092 14.2514 21.3189 14.2377 21.3323C14.196 21.373 14.1061 21.4507 13.9514 21.537C13.6469 21.7067 13.049 21.9328 11.999 21.9328C10.9464 21.9328 10.356 21.7094 10.0606 21.5447C9.91053 21.4611 9.82554 21.3866 9.78774 21.3493C9.77691 21.3386 9.76964 21.3307 9.76559 21.326C9.47805 20.9102 8.91147 20.7894 8.47763 21.0594C8.03054 21.3378 7.89374 21.9259 8.17208 22.373L8.98162 21.869C8.17208 22.373 8.17292 22.3743 8.17292 22.3743L8.17378 22.3757L8.17555 22.3785L8.17932 22.3844L8.18775 22.3974L8.19822 22.413L8.20834 22.4276C8.22375 22.4496 8.2426 22.4752 8.26519 22.5038C8.31041 22.561 8.37051 22.6302 8.44794 22.7066C8.60341 22.8601 8.82576 23.0399 9.13206 23.2107C9.74932 23.5547 10.6677 23.84 11.999 23.84C13.3331 23.84 14.2578 23.5496 14.8799 23.2029C15.1885 23.0309 15.4129 22.8503 15.5697 22.6973C15.6478 22.6211 15.7085 22.5523 15.754 22.4958C15.7768 22.4675 15.7957 22.4423 15.8112 22.4207C15.8189 22.4099 15.8258 22.4 15.8318 22.3912L15.8402 22.3786L15.844 22.3729L15.8457 22.3701L15.8466 22.3688C15.8466 22.3688 15.8474 22.3675 15.0443 21.8534L15.8474 22.3675Z" fill="#004152"/>
</svg>
