<svg width="24" height="24" viewBox="0 0 24 24" fill="none" xmlns="http://www.w3.org/2000/svg">
<path d="M16.4985 17.1017C15.1842 16.3851 14.6154 18.553 13.5315 17.4638C13.4783 17.4131 13.4313 17.3732 13.3905 17.3441C12.0322 16.0204 10.8647 14.5292 9.91063 12.9099C8.98532 11.274 8.27765 9.51727 7.81046 7.67918C7.80353 7.62569 7.79453 7.56861 7.77723 7.49716C7.37801 6.01744 9.53986 6.60885 9.57434 5.10867C9.59673 4.24303 9.64359 2.51535 9.66072 1.624C9.68284 0.351324 8.07286 0.159861 7.02876 0.0440966C5.98466 -0.0716682 3.85519 -0.0925471 3.82579 1.74004C3.71296 6.33222 4.85132 10.7434 7.02554 14.5756C9.25725 18.3747 12.5062 21.5625 16.5416 23.7644C18.1434 24.6553 19.19 22.8007 19.6118 21.8386C20.0336 20.8765 20.6728 19.3864 19.5595 18.7693C18.777 18.3348 17.2558 17.5172 16.4985 17.1017Z" fill="#004152"/>
</svg>
