<svg width="24" height="24" viewBox="0 0 24 24" fill="none" xmlns="http://www.w3.org/2000/svg">
<path fill-rule="evenodd" clip-rule="evenodd" d="M24.0001 7.83788V22.0837C24.0001 23.1421 23.1402 24 22.0795 24H11.6223C10.8718 24 10.2234 23.5695 9.90746 22.9432C9.93664 22.9439 9.96562 22.9472 9.9948 22.9472H9.99519C11.0208 22.9472 11.9877 22.4982 12.6479 21.7157L14.5674 19.4407C14.716 20.186 15.1185 20.736 16.0372 20.736C17.4257 20.736 17.88 19.7781 18.5288 18.4056C18.6714 18.0951 18.8791 17.6548 18.853 17.4088C18.8401 17.344 18.8142 17.3052 18.7883 17.2403C18.7493 17.2534 18.7232 17.2015 18.6844 17.1886C18.5806 17.0592 18.5547 17.0851 18.5416 17.0851C18.5677 17.0722 18.4898 17.0461 18.4898 17.0203C18.4898 17.0203 18.4898 16.9945 18.4768 16.9945L18.3211 16.9555L18.0355 16.8391C18.0096 16.8649 17.9837 16.852 17.9447 16.8391C17.8149 16.8262 17.6852 16.878 17.5426 17.1111C17.1662 17.9914 16.8289 19.1178 16.0113 19.7651C15.8038 19.3248 15.7258 18.8328 15.7258 18.328C15.7258 18.2416 15.7271 18.1543 15.7312 18.0611L17.1666 16.3596C17.7557 16.3238 18.2583 16.2953 18.7105 16.2953C18.7622 16.2694 18.7622 16.2436 18.8142 16.2436H18.8272C18.8272 16.2176 18.8791 16.1917 18.8921 16.1788C18.9568 16.1011 18.905 16.1399 18.9568 15.9976C18.905 15.9587 18.918 15.9068 18.9441 15.881C18.9441 15.8551 18.9699 15.8162 18.9441 15.7904C18.9441 15.7904 18.9441 15.7516 18.918 15.7645C18.905 15.7385 18.9441 15.6868 18.9309 15.6739C18.918 15.661 18.9309 15.6221 18.918 15.6221C18.8791 15.5702 18.9309 15.5573 18.853 15.5185C18.7883 15.4798 18.905 15.4927 18.8921 15.415C18.8791 15.4019 18.8662 15.3631 18.853 15.3631C18.8401 15.3631 18.7493 15.389 18.7105 15.3373C18.454 15.3418 18.2309 15.3495 18.0098 15.3603L18.6904 14.5535C18.8198 14.55 18.9427 14.5475 19.0478 14.5475C19.0608 14.5215 19.0088 14.5346 19.0217 14.5087C19.0217 14.4827 19.0996 14.5604 19.1127 14.4827C19.1127 14.4827 19.1386 14.4827 19.1516 14.5087H19.1645C19.1645 14.4827 19.2165 14.444 19.2294 14.431C19.2814 14.3534 19.2294 14.444 19.2814 14.3015C19.2424 14.2626 19.2553 14.2109 19.2814 14.1849C19.2814 14.159 19.3073 14.1203 19.2814 14.0944C19.2814 14.0944 19.2683 14.0555 19.2424 14.0684H19.2294C19.2294 14.0426 19.2683 13.9909 19.2553 13.9778C19.2424 13.9649 19.2683 13.926 19.2553 13.926C19.2466 13.9144 19.2457 13.9034 19.2476 13.893L21.8426 10.8171C22.5689 9.95637 22.8303 8.79331 22.542 7.70544L21.928 5.38955L23.1837 6.26998C23.6956 6.62875 24.0001 7.21385 24.0001 7.83788ZM14.3552 10.0229L14.0329 10.3444C13.8063 10.4927 13.7802 10.403 13.6642 10.3394C13.626 10.3244 13.6244 10.3061 13.5696 10.3107L13.5073 10.1231L13.3783 10.0148C13.3586 9.9982 13.3568 9.97989 13.3568 9.97989C13.3819 9.9502 13.3325 9.90837 13.359 9.89699C13.3307 9.89025 13.2958 9.91165 13.2635 9.74894C13.2336 9.72388 13.2289 9.66932 13.1992 9.64426C13.1845 9.58102 13.2308 9.58623 13.1698 9.51818C13.3771 9.25214 13.4842 9.10524 13.7632 8.81491C13.83 8.73567 13.9235 8.64487 13.9987 8.55581C13.2193 8.59494 12.3015 9.05955 11.2965 9.68783C11.9538 10.1553 12.5644 10.6174 13.0892 11.0412C13.0755 11.0975 13.1184 11.1672 13.1282 11.1755C13.1383 11.1838 13.1665 11.1908 13.168 11.2089C13.1279 11.2767 13.0662 11.3095 13.0991 11.3712C13.1337 11.4508 13.0291 11.4138 13.0255 11.4784C13.0355 11.4867 12.9905 11.4998 12.992 11.5181C12.9936 11.5364 12.9304 11.5509 12.9138 11.5707L12.9236 11.579C12.9518 11.5858 12.9368 11.6239 12.9368 11.6239C12.9399 11.6604 12.895 11.6735 12.8782 11.6933C12.8415 11.6964 12.7984 11.7277 12.8031 11.7824C12.6715 11.858 12.7696 11.8221 12.6798 11.8481C12.6614 11.8497 12.5967 11.846 12.5799 11.8659L12.57 11.8576C12.5768 11.8293 12.5569 11.8127 12.5569 11.8127C12.4968 11.8638 12.4875 11.7543 12.4707 11.7741C12.444 11.7857 12.4922 11.809 12.4655 11.8206C11.9991 11.4287 11.1332 10.7861 10.4164 10.2687L10.4063 10.2604L10.1897 10.4167C10.0064 10.5336 9.85797 10.629 9.71112 10.7427L9.99438 10.9297C10.741 11.4722 11.1234 11.7425 11.6978 12.2079C11.694 12.2725 11.7803 12.311 11.7902 12.3195C11.8 12.3278 11.785 12.3658 11.7865 12.3841C11.7463 12.4519 11.6654 12.3669 11.6899 12.4383C11.7245 12.5181 11.6764 12.4945 11.6727 12.5591C11.6826 12.5676 11.6476 12.589 11.6493 12.6071C11.6509 12.6254 11.5877 12.6401 11.5807 12.668C11.6091 12.675 11.584 12.7047 11.584 12.7047C11.5871 12.7411 11.5421 12.7542 11.5255 12.7739C11.4888 12.7772 11.4455 12.8084 11.4602 12.8714C11.3286 12.947 11.3933 12.9507 11.2936 12.9684C11.2753 12.9699 11.2188 12.9565 11.2022 12.9763L11.1922 12.968C11.1524 12.9345 11.1357 12.9545 11.0793 12.9408C10.6127 12.5489 10.0433 12.1385 9.33473 11.6112L8.91254 11.3074C8.0469 11.9511 7.75147 12.2613 7.48405 12.5784C7.15808 12.9647 6.90013 13.3912 6.77493 13.8612C7.81813 13.8913 8.80337 13.2462 9.65934 12.8146C9.91903 12.728 10.0516 12.7716 10.1426 12.8651C10.164 12.9 10.1756 12.9266 10.2121 12.9233L10.3553 13.1959L10.4494 13.3256C10.4593 13.3341 10.4427 13.3538 10.4427 13.3538C10.426 13.3736 10.4687 13.4436 10.4405 13.4367C10.4504 13.445 10.4869 13.4419 10.4828 13.6077C10.5043 13.6426 10.4908 13.6989 10.5288 13.7139C10.5068 13.7802 10.5018 13.8265 10.4699 13.8845C10.331 14.0892 9.88792 14.2926 9.57838 14.4388C8.19607 15.0717 7.23016 15.5129 6.16802 14.6207C5.21505 13.8203 5.6384 12.856 6.3738 11.9844C6.65803 11.6477 7.0522 11.2002 7.82624 10.5642C7.75688 10.506 7.69872 10.4742 7.62104 10.4256C7.65273 10.3678 7.60327 10.3261 7.59844 10.2714C7.64346 10.2583 7.61042 10.1968 7.62723 10.1771C7.61776 10.0676 7.63766 10.0842 7.63611 10.0661C7.62781 10.0759 7.64964 10.0098 7.64809 9.99146C7.64809 9.99146 7.63805 9.98317 7.6365 9.96485L7.66046 9.81583L7.64114 9.69804C7.6794 9.71327 7.63341 9.60686 7.66007 9.59529C7.72847 9.53437 7.74876 9.44993 7.92112 9.52704C8.15627 9.69052 8.37982 9.82778 8.58522 9.9664C8.7054 9.86403 8.84529 9.77843 8.98384 9.67491L9.28719 9.45591L8.71931 9.0634C8.76105 9.01405 8.71139 8.97241 8.69845 8.92749C8.74347 8.91438 8.76839 8.88469 8.78501 8.86484C8.78404 8.7455 8.70251 8.7617 8.70096 8.74338C8.69265 8.75341 8.71448 8.68709 8.71294 8.66897C8.71294 8.66897 8.70308 8.66068 8.70135 8.64237L8.73535 8.50163L8.73632 8.29941C8.77458 8.31444 8.74675 8.20668 8.77342 8.19511C8.84182 8.13419 8.85225 8.04146 9.0248 8.11858L10.1492 8.8766C11.5908 7.97187 13.1578 7.24045 14.1237 7.44249C14.1421 7.44075 14.1718 7.46581 14.2018 7.49088C14.4002 7.65763 14.8178 8.22827 14.9244 8.50395C15.0193 8.75302 14.9882 9.0314 14.9354 9.27489C14.8299 9.4401 14.7078 9.62517 14.5741 9.78364L14.3552 10.0229ZM17.6246 2.30194C18.1145 2.71315 18.1772 3.44302 17.7649 3.93172C17.3528 4.42043 16.6212 4.48308 16.1314 4.07168C15.6416 3.66029 15.5788 2.9306 15.9911 2.4419C16.4035 1.9532 17.1348 1.89035 17.6246 2.30194ZM20.9726 8.14518L19.3385 1.98134C19.1314 1.20019 18.4555 0.632637 17.6488 0.562271L11.2827 0.00725055C10.6596 -0.0469213 10.049 0.204853 9.64615 0.682375L0.451308 11.5811C-0.23173 12.3908 -0.127777 13.5996 0.683947 14.2811L8.6841 20.9999C9.49563 21.6816 10.7071 21.5777 11.3904 20.768L20.5852 9.86923C20.9881 9.39171 21.1326 8.74859 20.9726 8.14518Z" fill="#004152"/>
</svg>
