<svg width="24" height="24" viewBox="0 0 24 24" fill="none" xmlns="http://www.w3.org/2000/svg">
<path d="M0.295152 8.12132C-0.0953728 7.7308 -0.0953727 7.09763 0.295152 6.70711L1.70937 5.29289C2.09989 4.90237 2.73305 4.90237 3.12358 5.29289L12 14.1693L20.8764 5.2929C21.267 4.90237 21.9001 4.90237 22.2907 5.2929L23.7049 6.70711C24.0954 7.09764 24.0954 7.7308 23.7049 8.12133L12.7094 19.1168C12.5132 19.313 12.2558 19.4106 11.9987 19.4097C11.7425 19.41 11.4862 19.3123 11.2907 19.1168L0.295152 8.12132Z" fill="#004152"/>
</svg>
