<svg width="24" height="24" viewBox="0 0 24 24" fill="none" xmlns="http://www.w3.org/2000/svg">
    <path fill-rule="evenodd" clip-rule="evenodd" d="M22.629 15.877H24V11.74l-2.057-2.756h-3.78v4.953h-.325V8.985h-.01v-.69h4.115V6.917c0-.69-.686-1.379-.686-1.379H13.03L10.97 6.917H.686v6.892L0 14.5v1.378h2.743s.686-2.068 2.743-2.068 2.743 2.068 2.743 2.068h8.914c.686-1.379 1.371-2.068 2.743-2.068 2.057 0 2.743 2.068 2.743 2.068zm-14.4-6.892H6.17v3.446H8.23V8.985zm4.8 0h2.742v1.378H13.03V8.985zm8.228.689h-1.371v2.068h2.743l-1.372-2.068zM3.43 16.42c0 1.127.92 2.04 2.057 2.04a2.049 2.049 0 0 0 2.057-2.04c0-1.127-.921-2.04-2.057-2.04a2.049 2.049 0 0 0-2.057 2.04zm3.592 0a1.53 1.53 0 0 1-1.535 1.524A1.53 1.53 0 0 1 3.95 16.42a1.53 1.53 0 0 1 1.536-1.523A1.53 1.53 0 0 1 7.02 16.42zm10.808 0c0 1.127.92 2.04 2.057 2.04a2.049 2.049 0 0 0 2.057-2.04c0-1.127-.921-2.04-2.057-2.04a2.049 2.049 0 0 0-2.057 2.04zm3.592 0a1.53 1.53 0 0 1-1.535 1.524 1.53 1.53 0 0 1-1.536-1.524 1.53 1.53 0 0 1 1.536-1.523 1.53 1.53 0 0 1 1.535 1.523z" fill="#D6DFDF"/>
    <path fill-rule="evenodd" clip-rule="evenodd" d="M17.146 6.147a.5.5 0 0 0-.707 0L12 10.586l-4.439-4.44a.5.5 0 0 0-.707 0l-.707.708a.5.5 0 0 0 0 .707L10.586 12l-4.44 4.439a.5.5 0 0 0 0 .707l.708.707a.5.5 0 0 0 .707 0L12 13.414l4.439 4.44a.5.5 0 0 0 .707 0l.707-.708a.5.5 0 0 0 0-.707L13.414 12l4.44-4.439a.5.5 0 0 0 0-.707l-.708-.707z" fill="#E5312A"/>
</svg>
