<svg width="12" height="12" viewBox="0 0 12 12" fill="none" xmlns="http://www.w3.org/2000/svg">
<path fill-rule="evenodd" clip-rule="evenodd" d="M11.146 0.146935C10.9507 -0.0483273 10.6341 -0.0483272 10.4388 0.146935L5.99997 4.5858L1.56112 0.146951C1.36586 -0.0483109 1.04928 -0.048311 0.854014 0.146951L0.146907 0.854058C-0.0483547 1.04932 -0.0483546 1.3659 0.146908 1.56116L4.58576 6.00002L0.146904 10.4389C-0.0483578 10.6341 -0.0483578 10.9507 0.146904 11.146L0.854011 11.8531C1.04927 12.0483 1.36586 12.0483 1.56112 11.8531L5.99997 7.41423L10.4388 11.8531C10.6341 12.0484 10.9507 12.0484 11.146 11.8531L11.8531 11.146C12.0483 10.9507 12.0483 10.6342 11.8531 10.4389L7.41419 6.00002L11.8531 1.56115C12.0483 1.36589 12.0483 1.0493 11.8531 0.854042L11.146 0.146935Z" fill="#E5312A"/>
</svg>
