<svg width="24" height="24" viewBox="0 0 24 24" fill="none" xmlns="http://www.w3.org/2000/svg">
<path fill-rule="evenodd" clip-rule="evenodd" d="M8.93946 11.2701C7.97874 10.9147 6.37495 10.6886 4.83668 11.5591C2.24092 13.0114 -0.22682 10.7858 0.125963 8.33064C0.447069 6.16751 1.79181 3.93799 3.45765 3.03673C5.98745 1.71325 7.91279 2.45483 9.3851 4.07078C10.3458 5.13693 11.3725 7.01063 11.4693 8.78322C11.5001 9.62244 12.4608 9.5912 12.7203 8.9121C13.073 7.94401 13.2974 6.32763 12.4339 4.77764C10.9889 2.1654 13.2006 -0.321003 15.6376 0.0339497C17.7838 0.354188 19.992 1.67767 20.8907 3.39168C22.2042 5.94057 21.4682 7.88152 19.864 9.36425C18.8065 10.3328 16.9472 11.3673 15.188 11.4645C14.3549 11.4961 14.3861 12.4642 15.0604 12.7259C16.0211 13.0813 17.6249 13.3073 19.1628 12.4369C21.759 10.985 24.2267 13.2106 23.8739 15.6657C23.5524 17.8289 22.2389 20.0584 20.5422 20.9597C18.0124 22.2836 16.0871 21.542 14.6148 19.9256C13.6541 18.8594 12.6274 16.9858 12.5306 15.2132C12.4994 14.3739 11.5387 14.4052 11.2792 15.0843C10.9268 16.0528 10.7021 17.6688 11.5656 19.2187C13.0071 21.8345 10.7988 24.3217 8.3619 23.9659C6.2157 23.6422 4.00397 22.3187 3.10878 20.6086C1.79571 18.0593 2.53165 16.1192 4.13545 14.6356C5.19293 13.6671 7.05274 12.6326 8.81145 12.5354C9.61335 12.4647 9.58254 11.4966 8.93946 11.2701ZM11.9845 13.2379C12.6584 13.2379 13.2008 12.6873 13.2008 12.0121C13.2023 11.6881 13.0749 11.3769 12.8468 11.1468C12.6187 10.9168 12.3084 10.7869 11.9845 10.7858C11.3106 10.7858 10.7682 11.3365 10.7682 12.0121C10.7662 12.3361 10.8934 12.6476 11.1217 12.8777C11.3499 13.1077 11.6604 13.2374 11.9845 13.2379Z" fill="#004152"/>
</svg>
