<svg width="24" height="24" viewBox="0 0 24 24" fill="none" xmlns="http://www.w3.org/2000/svg">
<path fill-rule="evenodd" clip-rule="evenodd" d="M0.249042 0.249041C-0.0830126 0.581096 -0.0830149 1.11946 0.24904 1.45152L22.5485 23.751C22.8805 24.083 23.4189 24.083 23.751 23.751C24.083 23.4189 24.083 22.8805 23.751 22.5485L1.45152 0.249041C1.11946 -0.0830137 0.581097 -0.0830138 0.249042 0.249041ZM9.31636e-09 6.07063C9.31636e-09 5.50175 0.20653 4.98111 0.548701 4.5796L1.61927 5.65017C1.54365 5.77234 1.5 5.91639 1.5 6.07063V8.24774H4.21684L6.43925 10.4702H1.5V17.9293C1.5 18.3712 1.85817 18.7293 2.3 18.7293H14.6984L16.1984 20.2293H2.3C1.02974 20.2293 9.31636e-09 19.1996 9.31636e-09 17.9293V6.07063ZM22.5 8.24774H12.2786L14.5011 10.4702H22.5V17.9293C22.5 18.0836 22.4563 18.2276 22.3807 18.3498L23.4513 19.4204C23.7935 19.0189 24 18.4982 24 17.9293V6.07063C24 4.80037 22.9703 3.77063 21.7 3.77063H7.80154L9.30154 5.27063H21.7C22.1418 5.27063 22.5 5.6288 22.5 6.07063V8.24774Z" fill="#004152"/>
</svg>
