<svg width="32" height="32" viewBox="0 0 32 32" fill="none" xmlns="http://www.w3.org/2000/svg">
<mask id="mask0_6698_16324" style="mask-type:alpha" maskUnits="userSpaceOnUse" x="0" y="0" width="24" height="24">
<path fill-rule="evenodd" clip-rule="evenodd" d="M24 0H0V24H16.1138L20.6528 15.964C21.3926 14.6549 22.6963 14.0003 24 14.0002V0Z" fill="#C4C4C4"/>
</mask>
<g mask="url(#mask0_6698_16324)">
<path fill-rule="evenodd" clip-rule="evenodd" d="M11.6392 3.09749C12.2428 3.74591 12.5181 4.64819 12.6098 5.51479H12.6109C12.2948 5.76049 12.0318 6.06329 11.7871 6.40483C10.632 8.00141 11.0041 10.5788 11.1591 11.1497C10.219 11.946 12.1633 14.3153 12.3183 14.4683C12.4732 14.6579 13.5203 16.4533 11.6607 16.9131L11.1591 17.1384C10.6615 17.362 10.2278 17.4994 9.82399 17.6274L9.82393 17.6274C9.52136 17.7234 9.23557 17.814 8.95222 17.9315C8.61047 18.0823 8.13308 18.3421 7.76865 18.7324C7.13178 19.4144 7.02739 19.7448 7.02739 19.7448C3.09464 19.6686 0 19.2555 0 18.7574C0 18.7451 0.00182315 18.7329 0.00543842 18.7207H0.000323632L0.000173569 18.6565C-0.00193179 18.0411 -0.00670445 16.6458 1.42154 15.8589C1.88571 15.5813 2.55985 15.423 3.25986 15.2587C3.87599 15.1141 4.51218 14.9648 5.04291 14.7252L5.54451 14.5009C7.00957 12.9798 5.27536 10.4819 5.12039 10.2933C4.96542 10.1404 4.04071 8.99443 4.65549 8.25018C4.50052 7.67924 3.88472 5.37409 5.03883 3.77649C5.69133 2.86299 6.80159 2.40931 8.33904 2.37362C9.8041 2.03106 10.9093 2.26147 11.6392 3.09749ZM12.5895 6.83591C13.2492 5.92241 14.3696 5.4677 15.9234 5.43202C17.4037 5.08946 18.5191 5.31987 19.2572 6.15588C20.5429 7.52307 20.3502 10.0209 20.0698 10.9303C20.5092 11.124 20.3614 12.168 19.6406 13.2752C19.606 13.3432 19.5714 13.4118 19.5367 13.4805L19.5364 13.4811L19.5363 13.4813L19.5362 13.4814C19.4555 13.6412 19.3742 13.8023 19.2909 13.9604C18.5946 15.1705 18.1082 16.7233 18.5364 17.5593C18.723 17.7204 19.2154 17.9997 19.4826 18.1017C19.9884 18.3462 20.5075 18.4342 21.0133 18.5199C21.6105 18.6212 22.1891 18.7193 22.7053 19.0682C23.1314 19.369 24.0001 20.4792 24.0001 21.7791C24.0001 22.3314 20.3063 22.7791 15.75 22.7791C11.1937 22.7791 7.5 22.3314 7.5 21.7791C7.5 21.7737 7.50035 21.7683 7.50106 21.7629L7.50092 21.7145C7.49876 21.0988 7.49388 19.704 8.93657 18.9173C9.40619 18.6399 10.088 18.4816 10.7959 18.3172C11.4174 18.1729 12.0589 18.0239 12.5946 17.7856L13.1003 17.5593C14.5807 16.0392 12.8291 13.5413 12.6721 13.3517C12.5161 13.1988 11.5822 12.0528 12.2021 11.3086C12.0461 10.7376 11.4242 8.43249 12.5895 6.83591Z" fill="#004152"/>
</g>
<path fill-rule="evenodd" clip-rule="evenodd" d="M31.7492 27.8233C32.4622 29.0878 31.5702 30.6667 30.1432 30.6667H17.8572C16.4302 30.6667 15.5372 29.0878 16.2512 27.8233L22.3942 16.9476C23.1082 15.6841 24.8922 15.6841 25.6062 16.9476L31.7492 27.8233ZM22.9822 21.0184C22.9822 20.456 23.4382 20 24.0007 20C24.5631 20 25.0191 20.456 25.0191 21.0184V24.1683C25.0191 24.7307 24.5631 25.1867 24.0007 25.1867C23.4382 25.1867 22.9822 24.7307 22.9822 24.1683V21.0184ZM24.0007 28C24.5631 28 25.0191 27.544 25.0191 26.9816C25.0191 26.4191 24.5631 25.9631 24.0007 25.9631C23.4382 25.9631 22.9822 26.4191 22.9822 26.9816C22.9822 27.544 23.4382 28 24.0007 28Z" fill="#D97E7E"/>
</svg>
