<svg width="24" height="24" viewBox="0 0 24 24" fill="none" xmlns="http://www.w3.org/2000/svg">
<path d="M11.0668 1.18559C11.3895 0.322413 12.6105 0.322414 12.9332 1.18559L15.3272 7.58779C15.4672 7.96226 15.8175 8.21677 16.2169 8.23422L23.0455 8.53261C23.9662 8.57284 24.3435 9.73402 23.6223 10.3077L18.2732 14.5629C17.9603 14.8118 17.8265 15.2236 17.9334 15.6088L19.7597 22.1954C20.006 23.0835 19.0182 23.8011 18.2497 23.2925L12.5499 19.5202C12.2165 19.2995 11.7835 19.2995 11.4501 19.5202L5.75026 23.2925C4.98177 23.8011 3.99401 23.0835 4.24025 22.1954L6.06663 15.6088C6.17346 15.2236 6.03966 14.8118 5.72678 14.5629L0.377699 10.3077C-0.343492 9.73402 0.0338002 8.57283 0.95447 8.53261L7.78309 8.23422C8.1825 8.21677 8.5328 7.96226 8.67283 7.58779L11.0668 1.18559Z" fill="#004152"/>
</svg>
