<svg width="24" height="24" viewBox="0 0 24 24" fill="none" xmlns="http://www.w3.org/2000/svg">
<path fill-rule="evenodd" clip-rule="evenodd" d="M16.7573 0H16.7593L21.0019 4.24264L21.002 4.24261V5.74266L20.9999 4.24259L18.7573 4.24266C17.6528 4.24266 16.7573 3.34723 16.7573 2.24266V0ZM15.2573 0H5.00195C3.89738 0 3.00195 0.89543 3.00195 2V22C3.00195 23.1046 3.89738 24 5.00195 24H19.002C20.1065 24 21.002 23.1046 21.002 22V5.74266L18.7573 5.74266C16.8243 5.74266 15.2573 4.17565 15.2573 2.24266V0ZM6.00195 9.10021C6.00195 8.71361 6.27058 8.40021 6.60195 8.40021H17.402C17.7333 8.40021 18.002 8.71361 18.002 9.10021C18.002 9.48681 17.7333 9.80021 17.402 9.80021H6.60195C6.27058 9.80021 6.00195 9.48681 6.00195 9.10021ZM6.00195 12.5002C6.00195 12.1136 6.27058 11.8002 6.60195 11.8002H17.402C17.7333 11.8002 18.002 12.1136 18.002 12.5002C18.002 12.8868 17.7333 13.2002 17.402 13.2002H6.60195C6.27058 13.2002 6.00195 12.8868 6.00195 12.5002ZM6.60195 15.2002C6.27058 15.2002 6.00195 15.5136 6.00195 15.9002C6.00195 16.2868 6.27058 16.6002 6.60195 16.6002H17.402C17.7333 16.6002 18.002 16.2868 18.002 15.9002C18.002 15.5136 17.7333 15.2002 17.402 15.2002H6.60195ZM6.00195 19.3002C6.00195 18.9136 6.27058 18.6002 6.60195 18.6002H17.402C17.7333 18.6002 18.002 18.9136 18.002 19.3002C18.002 19.6868 17.7333 20.0002 17.402 20.0002H6.60195C6.27058 20.0002 6.00195 19.6868 6.00195 19.3002Z" fill="#004152"/>
</svg>
