<svg width="24" height="24" viewBox="0 0 24 24" fill="none" xmlns="http://www.w3.org/2000/svg">
<path fill-rule="evenodd" clip-rule="evenodd" d="M12 24C18.6274 24 24 18.6274 24 12C24 5.37258 18.6274 0 12 0C5.37258 0 0 5.37258 0 12C0 18.6274 5.37258 24 12 24ZM9.87862 17.1464C10.0739 17.3417 10.3905 17.3417 10.5857 17.1464L11.6464 16.0858L11.6481 16.0841L18.3639 9.36823C18.5592 9.17296 18.5592 8.85638 18.3639 8.66112L17.3033 7.60046C17.108 7.4052 16.7914 7.4052 16.5962 7.60046L10.2322 13.9645L7.40375 11.136C7.20849 10.9408 6.89191 10.9408 6.69664 11.136L5.63598 12.1967C5.44072 12.392 5.44072 12.7085 5.63598 12.9038L9.87862 17.1464Z" fill="#00BEA2"/>
</svg>
