<svg width="24" height="24" viewBox="0 0 24 24" fill="none" xmlns="http://www.w3.org/2000/svg">
<path fill-rule="evenodd" clip-rule="evenodd" d="M16.7573 0H16.7593L21.0019 4.24264L21.002 4.24261V5.74266L20.9999 4.24259L18.7573 4.24266C17.6528 4.24266 16.7573 3.34723 16.7573 2.24266V0ZM15.2573 0H5.00195C3.89738 0 3.00195 0.89543 3.00195 2V22C3.00195 23.1046 3.89738 24 5.00195 24H19.002C20.1065 24 21.002 23.1046 21.002 22V5.74266L18.7573 5.74266C16.8243 5.74266 15.2573 4.17565 15.2573 2.24266V0ZM16.7384 16.7672H19.0979V17.5537H18.6299C18.5822 17.8137 18.4999 18.0499 18.3829 18.2622C18.2659 18.4746 18.1121 18.6566 17.9214 18.8082C17.7307 18.9599 17.5054 19.0791 17.2454 19.1657C16.9897 19.2481 16.6994 19.2892 16.3744 19.2892C15.9931 19.2892 15.6529 19.2242 15.3539 19.0942C15.0592 18.9642 14.8101 18.7909 14.6064 18.5742C14.4071 18.3532 14.2532 18.0997 14.1449 17.8137C14.0409 17.5234 13.9889 17.2179 13.9889 16.8972C13.9889 16.5852 14.0431 16.2862 14.1514 16.0002C14.2597 15.7099 14.4157 15.4542 14.6194 15.2332C14.8274 15.0122 15.0787 14.8367 15.3734 14.7067C15.6681 14.5724 16.0017 14.5052 16.3744 14.5052C16.6734 14.5052 16.9464 14.5486 17.1934 14.6352C17.4447 14.7176 17.6614 14.8324 17.8434 14.9797C18.0254 15.1227 18.1706 15.2917 18.2789 15.4867C18.3872 15.6774 18.4522 15.8811 18.4739 16.0977H17.3494C17.3321 16.0067 17.2974 15.9201 17.2454 15.8377C17.1934 15.7554 17.1241 15.6839 17.0374 15.6232C16.9551 15.5582 16.8576 15.5084 16.7449 15.4737C16.6322 15.4347 16.5066 15.4152 16.3679 15.4152C16.1512 15.4152 15.9627 15.4564 15.8024 15.5387C15.6421 15.6211 15.5056 15.7316 15.3929 15.8702C15.2846 16.0089 15.2022 16.1692 15.1459 16.3512C15.0939 16.5289 15.0679 16.7131 15.0679 16.9037C15.0679 17.1074 15.0961 17.3002 15.1524 17.4822C15.2087 17.6599 15.2932 17.8181 15.4059 17.9567C15.5229 18.0911 15.6681 18.1994 15.8414 18.2817C16.0191 18.3597 16.2249 18.3987 16.4589 18.3987C16.6192 18.3987 16.7622 18.3771 16.8879 18.3337C17.0136 18.2861 17.1219 18.2232 17.2129 18.1452C17.3039 18.0672 17.3776 17.9784 17.4339 17.8787C17.4902 17.7747 17.5271 17.6664 17.5444 17.5537H16.7384V16.7672ZM7.13575 14.6222H5.23125V19.1722H6.28425V17.9112H7.13575C7.38709 17.9112 7.61459 17.8679 7.81825 17.7812C8.02192 17.6902 8.19525 17.5711 8.33825 17.4237C8.48559 17.2721 8.59825 17.0966 8.67625 16.8972C8.75425 16.6979 8.79325 16.4877 8.79325 16.2667C8.79325 16.0457 8.75425 15.8356 8.67625 15.6362C8.59825 15.4369 8.48559 15.2636 8.33825 15.1162C8.19525 14.9646 8.02192 14.8454 7.81825 14.7587C7.61459 14.6677 7.38709 14.6222 7.13575 14.6222ZM7.30475 16.9882C7.21375 17.0316 7.11409 17.0532 7.00575 17.0532H6.28425V15.4802H7.00575C7.11409 15.4802 7.21375 15.5019 7.30475 15.5452C7.39575 15.5886 7.47159 15.6471 7.53225 15.7207C7.59725 15.7901 7.64709 15.8724 7.68175 15.9677C7.71642 16.0631 7.73375 16.1627 7.73375 16.2667C7.73375 16.3707 7.71642 16.4704 7.68175 16.5657C7.64709 16.6611 7.59725 16.7456 7.53225 16.8192C7.47159 16.8886 7.39575 16.9449 7.30475 16.9882ZM12.2002 14.6222V17.5862L10.5557 14.6222H9.45723V19.1722H10.5102V16.2472L12.1482 19.1722H13.2467V14.6222H12.2002Z" fill="#004152"/>
</svg>
