<svg width="24" height="24" viewBox="0 0 24 24" fill="none" xmlns="http://www.w3.org/2000/svg">
<path fill-rule="evenodd" clip-rule="evenodd" d="M4.32294 11.3565C5.16594 11.3565 5.84794 12.0365 5.84794 12.8745C5.84794 13.7145 5.16594 14.3925 4.32294 14.3925C3.48094 14.3925 2.79894 13.7135 2.79894 12.8745C2.79894 12.0355 3.48094 11.3565 4.32294 11.3565ZM5.58978 5.27251C5.66278 4.99251 6.07878 4.67251 6.36978 4.67251H17.6328C17.9228 4.67251 18.3388 4.99251 18.4118 5.27251L19.3918 9.02151H4.60878L5.58878 5.27251H5.58978ZM19.6777 11.3565C20.5197 11.3565 21.2017 12.0365 21.2017 12.8745C21.2012 13.278 21.0403 13.6647 20.7544 13.9494C20.4685 14.2342 20.0812 14.3936 19.6777 14.3925C19.2741 14.3938 18.8865 14.2346 18.6004 13.9498C18.3143 13.665 18.1532 13.2782 18.1527 12.8745C18.1532 12.4709 18.3143 12.084 18.6004 11.7992C18.8865 11.5145 19.2741 11.3552 19.6777 11.3565ZM21.13 9.02951L20.037 4.84951C19.77 3.83251 18.689 2.99951 17.632 2.99951H6.368C5.312 2.99951 4.23 3.83251 3.964 4.85051L2.87 9.03051C1.2618 9.12008 0.00280773 10.4488 0 12.0595V16.4385C0 17.2775 0.682 17.9565 1.525 17.9565H2.573V19.2565C2.573 20.2195 3.357 21.0005 4.323 21.0005C5.291 21.0005 6.074 20.2195 6.074 19.2575V17.9575H17.926V19.2575C17.926 20.2195 18.709 21.0005 19.677 21.0005C20.644 21.0005 21.427 20.2195 21.427 19.2575V17.9575H22.475C23.317 17.9575 24 17.2775 24 16.4375V12.0595C23.9972 10.449 22.738 9.12057 21.13 9.03151V9.02951Z" fill="#004152"/>
</svg>
