<svg width="24" height="24" viewBox="0 0 24 24" fill="none" xmlns="http://www.w3.org/2000/svg">
<path fill-rule="evenodd" clip-rule="evenodd" d="M11.9999 11.5C12.4142 11.5 12.7499 11.8358 12.7499 12.25V20.75C12.7499 22.5449 11.7949 24 9.99994 24C8.20501 24 7.24994 22.5 7.24994 21.25C7.24994 20.8358 7.58573 20.5 7.99994 20.5C8.41415 20.5 8.74994 20.8358 8.74994 21.25C8.74994 21.6642 9.03344 22.5 9.99994 22.5C10.9664 22.5 11.2499 21.7165 11.2499 20.75V12.25C11.2499 11.8358 11.5857 11.5 11.9999 11.5Z" fill="#004152"/>
<path d="M12.75 0.75C12.75 0.335786 12.4142 0 12 0C11.5858 0 11.25 0.335786 11.25 0.75V2.70237C10.6723 3.01282 10.0932 3.6848 9.59737 4.74806C8.91112 6.21977 8.47071 8.28138 8.46147 10.587C9.36654 10.2244 10.6178 10 12.0001 10C13.3822 10 14.6334 10.2243 15.5385 10.5869C15.5292 8.28133 15.0888 6.21975 14.4026 4.74806C13.9068 3.68484 13.3277 3.01287 12.75 2.7024V0.75Z" fill="#004152"/>
<path d="M4.20466 4.81618C2.22834 6.23818 1.06276 8.15863 1.06276 10.2293C1.06276 10.2851 1.05361 10.3388 1.03674 10.3889C1.86603 10.1445 2.89087 10 4.00007 10C5.34353 10 6.56323 10.2119 7.46161 10.5568C7.47451 8.14963 7.93387 5.94929 8.69106 4.32545C8.98462 3.69591 9.33738 3.12589 9.74362 2.66541C7.59252 2.98574 5.68107 3.75386 4.20466 4.81618Z" fill="#004152"/>
<path d="M20.0001 10C18.6565 10 17.4367 10.212 16.5383 10.5569C16.5254 8.14968 16.0661 5.9493 15.3089 4.32545C15.0153 3.69591 14.6626 3.12589 14.2563 2.66541C16.4074 2.98574 18.3189 3.75386 19.7953 4.81618C21.7716 6.23818 22.9372 8.15863 22.9372 10.2293C22.9372 10.2851 22.9463 10.3388 22.9632 10.3889C22.1339 10.1444 21.1092 10 20.0001 10Z" fill="#004152"/>
</svg>
