<svg width="24" height="24" viewBox="0 0 24 24" fill="none" xmlns="http://www.w3.org/2000/svg">
<path fill-rule="evenodd" clip-rule="evenodd" d="M4 0C1.79086 0 0 1.79086 0 4V20C0 22.2091 1.79086 24 4 24H20C22.2091 24 24 22.2091 24 20V4C24 1.79086 22.2091 0 20 0H4ZM12.7405 15.6985H10V12.5297H12.736V10.1906C12.736 7.47656 14.329 6 16.651 6C17.767 6 18.721 6.08908 19 6.12657V8.9578H17.389C16.1245 8.9578 15.8815 9.58127 15.8815 10.5V12.525H19L18.6085 15.6937H15.8815V23.9517H12.7405V15.6985Z" fill="#004152"/>
</svg>
