<svg width="24" height="24" viewBox="0 0 24 24" fill="none" xmlns="http://www.w3.org/2000/svg">
<rect width="24" height="24" rx="4" fill="#D6DFDF"/>
<path d="M10.8839 16.877C10.7212 17.0397 10.4574 17.0397 10.2946 16.877L9.70538 16.2877C9.54266 16.125 9.54266 15.8612 9.70538 15.6985L13.4039 12L9.70538 8.30144C9.54267 8.13872 9.54267 7.8749 9.70538 7.71219L10.2946 7.12293C10.4574 6.96021 10.7212 6.96021 10.8839 7.12293L15.4654 11.7044C15.5471 11.7861 15.5878 11.8934 15.5874 12.0005C15.5875 12.1073 15.5468 12.2141 15.4654 12.2955L10.8839 16.877Z" fill="white"/>
</svg>
