<svg width="24" height="24" viewBox="0 0 24 24" fill="none" xmlns="http://www.w3.org/2000/svg">
    <path d="M6.15 17.077a3.42 3.42 0 1 1 0-6.841 3.42 3.42 0 0 1 0 6.841zm0-1.069a2.352 2.352 0 1 0 0-4.703 2.352 2.352 0 0 0 0 4.703zm14.43 1.07a3.42 3.42 0 1 1 0-6.842 3.42 3.42 0 0 1 0 6.841zm0-1.07a2.352 2.352 0 1 0 0-4.704 2.352 2.352 0 0 0 0 4.704z" fill="#004152"/>
    <path d="M2.301 13.657c-1.923 0-2.886 0-1.923-1.925.962-1.922 4.81-3.847 5.771-3.847.962 0 .962.962 2.887.962 1.923 0 7.696.962 7.696.962s3.847.962 3.847 2.885c0 2.887-7.696 3.849-11.544 3.849.99-1.426 1.344-2.85.637-4.632-.963-1.924-2.83-2.494-4.484-2.102-1.175.32-3.297 2.1-2.887 3.848zm9.493-5.31c1.924-.961 4.938-.463 4.938-.463l1.923-.961s.682.842.541 1.263l-.54 1.622-2.887-.961s-1.145-.5-3.975-.5z" fill="#004152"/>
</svg>
