<svg width="24" height="24" viewBox="0 0 24 24" fill="none" xmlns="http://www.w3.org/2000/svg">
<path d="M4.66316 17.1631C5.54737 17.1631 6.26316 16.4474 6.26316 15.5526C6.26316 14.6579 5.54737 13.9421 4.66316 13.9421C3.77895 13.9421 3.07368 14.6579 3.07368 15.5526C3.07368 16.4368 3.78947 17.1631 4.66316 17.1631ZM4.66316 17.721C3.47368 17.721 2.50526 16.7526 2.50526 15.5526C2.50526 14.3526 3.47368 13.3842 4.66316 13.3842C5.85263 13.3842 6.82105 14.3526 6.82105 15.5526C6.82105 16.7421 5.86316 17.721 4.66316 17.721Z" fill="#D6DFDF"/>
<path d="M20.2316 17.1C21.0842 17.1 21.7684 16.4052 21.7684 15.5526C21.7684 14.7 21.0842 14.0052 20.2316 14.0052C19.3789 14.0052 18.6947 14.7 18.6947 15.5526C18.6947 16.4052 19.3789 17.1 20.2316 17.1ZM20.2316 17.6579C19.0737 17.6579 18.1368 16.7105 18.1368 15.5526C18.1368 14.3947 19.0737 13.4474 20.2316 13.4474C21.3895 13.4474 22.3263 14.3947 22.3263 15.5526C22.3263 16.7105 21.3895 17.6579 20.2316 17.6579Z" fill="#D6DFDF"/>
<path d="M18.1579 6.27893H2.58947C1.94737 6.27893 0 11.5 0 12.8052C0 14.1105 0 15.4158 0 16.0684H2.04211C1.98947 15.8579 1.95789 15.6474 1.95789 15.4263C1.95789 13.9316 3.16842 12.7105 4.67368 12.7105C6.17895 12.7105 7.37895 13.9316 7.37895 15.4368C7.37895 15.6579 7.34737 15.8684 7.29474 16.0789H17.6C17.5474 15.8684 17.5158 15.6579 17.5158 15.4368C17.5158 13.9421 18.7263 12.721 20.2316 12.721C21.7368 12.721 22.9474 13.9316 22.9474 15.4368C22.9474 15.6579 22.9158 15.8684 22.8632 16.0789H24V12.8052C23.3474 12.1526 19.4526 7.58419 18.1579 6.27893ZM16.2105 10.1947V7.24735H17.9053L20.5263 10.1947H16.2105Z" fill="#D6DFDF"/>
<path fill-rule="evenodd" clip-rule="evenodd" d="M17.146 6.14693C16.9507 5.95167 16.6341 5.95167 16.4388 6.14693L12 10.5858L7.56112 6.14695C7.36586 5.95169 7.04928 5.95169 6.85401 6.14695L6.14691 6.85406C5.95165 7.04932 5.95165 7.3659 6.14691 7.56116L10.5858 12L6.1469 16.4389C5.95164 16.6341 5.95164 16.9507 6.1469 17.146L6.85401 17.8531C7.04927 18.0483 7.36586 18.0483 7.56112 17.8531L12 13.4142L16.4388 17.8531C16.6341 18.0484 16.9507 18.0484 17.146 17.8531L17.8531 17.146C18.0483 16.9507 18.0483 16.6342 17.8531 16.4389L13.4142 12L17.8531 7.56115C18.0483 7.36589 18.0483 7.0493 17.8531 6.85404L17.146 6.14693Z" fill="#E5312A"/>
</svg>
